{
  "PlayerBoy_Electric_SkillUpgrade_1": [
    {
      "$type": "ModifyAbility",
      "abilityName": "Avatar_PlayerBoy_NormalAttack_DamageHandler",
      "paramSpecial": "NormalAttack_01_DamagePercentage",
      "paramDelta": "%1"
    },
    {
      "$type": "ModifyAbility",
      "abilityName": "Avatar_PlayerBoy_NormalAttack_DamageHandler",
      "paramSpecial": "NormalAttack_02_DamagePercentage",
      "paramDelta": "%2"
    },
    {
      "$type": "ModifyAbility",
      "abilityName": "Avatar_PlayerBoy_NormalAttack_DamageHandler",
      "paramSpecial": "NormalAttack_03_DamagePercentage",
      "paramDelta": "%3"
    },
    {
      "$type": "ModifyAbility",
      "abilityName": "Avatar_PlayerBoy_NormalAttack_DamageHandler",
      "paramSpecial": "NormalAttack_04_DamagePercentage",
      "paramDelta": "%4"
    },
    {
      "$type": "ModifyAbility",
      "abilityName": "Avatar_PlayerBoy_NormalAttack_DamageHandler",
      "paramSpecial": "NormalAttack_05_DamagePercentage",
      "paramDelta": "%5"
    },
    {
      "$type": "ModifyAbility",
      "abilityName": "Avatar_PlayerBoy_NormalAttack_DamageHandler",
      "paramSpecial": "ExtraAttack_01_DamagePercentage",
      "paramDelta": "%6"
    },
    {
      "$type": "ModifyAbility",
      "abilityName": "Avatar_PlayerBoy_NormalAttack_DamageHandler",
      "paramSpecial": "ExtraAttack_02_DamagePercentage",
      "paramDelta": "%7"
    },
    {
      "$type": "ModifyAbility",
      "abilityName": "Avatar_PlayerBoy_ExtraAttack_Electric",
      "paramSpecial": "ExtraAttack_Sword_Stamina_Cost",
      "paramDelta": "%8"
    },
    {
      "$type": "ModifyAbility",
      "abilityName": "Avatar_PlayerBoy_FallingAnthem",
      "paramSpecial": "FallingAnthem_Normal_Loop_Damage",
      "paramDelta": "%9"
    },
    {
      "$type": "ModifyAbility",
      "abilityName": "Avatar_PlayerBoy_FallingAnthem",
      "paramSpecial": "FallingAnthem_Normal_Rank_1_Damage",
      "paramDelta": "%10"
    },
    {
      "$type": "ModifyAbility",
      "abilityName": "Avatar_PlayerBoy_FallingAnthem",
      "paramSpecial": "FallingAnthem_Normal_Rank_2_Damage",
      "paramDelta": "%11"
    }
  ],
  "PlayerGirl_Electric_SkillUpgrade_1": [
    {
      "$type": "ModifyAbility",
      "abilityName": "Avatar_PlayerGirl_NormalAttack_DamageHandler",
      "paramSpecial": "NormalAttack_01_DamagePercentage",
      "paramDelta": "%1"
    },
    {
      "$type": "ModifyAbility",
      "abilityName": "Avatar_PlayerGirl_NormalAttack_DamageHandler",
      "paramSpecial": "NormalAttack_02_DamagePercentage",
      "paramDelta": "%2"
    },
    {
      "$type": "ModifyAbility",
      "abilityName": "Avatar_PlayerGirl_NormalAttack_DamageHandler",
      "paramSpecial": "NormalAttack_03_DamagePercentage",
      "paramDelta": "%3"
    },
    {
      "$type": "ModifyAbility",
      "abilityName": "Avatar_PlayerGirl_NormalAttack_DamageHandler",
      "paramSpecial": "NormalAttack_04_DamagePercentage",
      "paramDelta": "%4"
    },
    {
      "$type": "ModifyAbility",
      "abilityName": "Avatar_PlayerGirl_NormalAttack_DamageHandler",
      "paramSpecial": "NormalAttack_05_DamagePercentage",
      "paramDelta": "%5"
    },
    {
      "$type": "ModifyAbility",
      "abilityName": "Avatar_PlayerGirl_NormalAttack_DamageHandler",
      "paramSpecial": "ExtraAttack_01_DamagePercentage",
      "paramDelta": "%6"
    },
    {
      "$type": "ModifyAbility",
      "abilityName": "Avatar_PlayerGirl_NormalAttack_DamageHandler",
      "paramSpecial": "ExtraAttack_02_DamagePercentage",
      "paramDelta": "%7"
    },
    {
      "$type": "ModifyAbility",
      "abilityName": "Avatar_PlayerGirl_ExtraAttack_Electric",
      "paramSpecial": "ExtraAttack_Sword_Stamina_Cost",
      "paramDelta": "%8"
    },
    {
      "$type": "ModifyAbility",
      "abilityName": "Avatar_PlayerGirl_FallingAnthem",
      "paramSpecial": "FallingAnthem_Normal_Loop_Damage",
      "paramDelta": "%9"
    },
    {
      "$type": "ModifyAbility",
      "abilityName": "Avatar_PlayerGirl_FallingAnthem",
      "paramSpecial": "FallingAnthem_Normal_Rank_1_Damage",
      "paramDelta": "%10"
    },
    {
      "$type": "ModifyAbility",
      "abilityName": "Avatar_PlayerGirl_FallingAnthem",
      "paramSpecial": "FallingAnthem_Normal_Rank_2_Damage",
      "paramDelta": "%11"
    }
  ],

  ////////////////////////////////////////////////////////////////
  //
  //  命之座1
  //
  ////////////////////////////////////////////////////////////////
  "Player_Electric_Constellation_1": [
    {
      "$type": "UnlockTalentParam",
      "abilityName": "Player_Electric_ElementalArt_Bullet_1",
      "talentParam": "Player_Electric_ElementalArt_MaxNumUp"
    },
    {
      "$type": "UnlockTalentParam",
      "abilityName": "Player_Electric_ElementalArt_Bullet_2",
      "talentParam": "Player_Electric_ElementalArt_MaxNumUp"
    },
    {
      "$type": "UnlockTalentParam",
      "abilityName": "Player_Electric_ElementalArt_Bullet_3",
      "talentParam": "Player_Electric_ElementalArt_MaxNumUp"
    }
  ],

  ////////////////////////////////////////////////////////////////
  //
  //  命之座2
  //
  ////////////////////////////////////////////////////////////////
  "Player_Electric_Constellation_2": [
    {
      "$type": "UnlockTalentParam",
      "abilityName": "Avatar_Player_Electric_ElementalBurst_Bullet",
      "talentParam": "Player_Electric_ElementalBurst_ElecResDown"
    },
    {
      "$type": "ModifyAbility",
      "abilityName": "Avatar_Player_Electric_ElementalBurst_Bullet",
      "paramSpecial": "ElementalBurst_ElecResDown_Duration",
      "paramDelta": "%1"
    },
    {
      "$type": "ModifyAbility",
      "abilityName": "Avatar_Player_Electric_ElementalBurst_Bullet",
      "paramSpecial": "ElementalBurst_ElecResDown_ElecSubHurtDelta",
      "paramDelta": "%2"
    }
  ],

  ////////////////////////////////////////////////////////////////
  //
  //  命之座3
  //
  ////////////////////////////////////////////////////////////////
  "Player_Electric_Constellation_3": [
    {
      "$type": "AddTalentExtraLevel",
      "talentType": "AvatarSkill",
      "talentIndex": 9,
      "extraLevel": 3
    }
  ],

  ////////////////////////////////////////////////////////////////
  //
  //  命之座4
  //
  ////////////////////////////////////////////////////////////////
  "Player_Electric_Constellation_4": [
    {
      "$type": "UnlockTalentParam",
      "abilityName": "Player_Electric_ElementalArt_Magatama_Pickable",
      "talentParam": "Player_Electric_ElementalArt_ExtraEnergy"
    },
    {
      "$type": "ModifyAbility",
      "abilityName": "Player_Electric_ElementalArt_Magatama_Pickable",
      "paramSpecial": "ElementalArt_Magatama_ReviveExtraElemEnergy_Check_Percentage",
      "paramDelta": "%1"
    }
  ],

  ////////////////////////////////////////////////////////////////
  //
  //  命之座5
  //
  ////////////////////////////////////////////////////////////////
  "Player_Electric_Constellation_5": [
    {
      "$type": "AddTalentExtraLevel",
      "talentType": "AvatarSkill",
      "talentIndex": 2,
      "extraLevel": 3
    }
  ],

  ////////////////////////////////////////////////////////////////
  //
  //  命之座6
  //
  ////////////////////////////////////////////////////////////////
  "Player_Electric_Constellation_6": [
    {
      "$type": "UnlockTalentParam",
      "abilityName": "Avatar_Player_Electric_ElementalBurst_Bullet",
      "talentParam": "Player_Electric_ElementalBurst_ThunderAttack_Enhanced"
    },
    {
      "$type": "ModifyAbility",
      "abilityName": "Avatar_Player_Electric_ElementalBurst_Bullet",
      "paramSpecial": "ElementalBurst_ThunderAttack_Enhanced_Damage_Percentage",
      "paramDelta": "%1"
    },
    {
      "$type": "ModifyAbility",
      "abilityName": "Avatar_Player_Electric_ElementalBurst_Bullet",
      "paramSpecial": "ElementalBurst_ReviveEnergy_Enhanced",
      "paramDelta": "%2"
    }
  ],

  ////////////////////////////////////////////////////////////////
  //
  //  天赋1
  //
  ////////////////////////////////////////////////////////////////
  "Player_Electric_PermanentSkill_1": [
    {
      "$type": "UnlockTalentParam",
      "abilityName": "Player_Electric_ElementalArt_Magatama_Pickable",
      "talentParam": "Player_Electric_ElementalArt_ModifySkillCD"
    },
    {
      "$type": "ModifyAbility",
      "abilityName": "Player_Electric_ElementalArt_Magatama_Pickable",
      "paramSpecial": "ElementalArt_Magatama_ModifySkillCD",
      "paramDelta": "%1"
    }
  ],

  ////////////////////////////////////////////////////////////////
  //
  //  天赋2 崩
  //
  ////////////////////////////////////////////////////////////////
  "Player_Electric_PermanentSkill_2": [
    {
      "$type": "UnlockTalentParam",
      "abilityName": "Player_Electric_ElementalArt_Magatama_Pickable",
      "talentParam": "Player_Electric_ElementalArt_ExtraChargeEfficiency"
    },
    {
      "$type": "ModifyAbility",
      "abilityName": "Player_Electric_ElementalArt_Magatama_Pickable",
      "paramSpecial": "ElementalArt_Magatama_ExtraEfficiencyUp_Percentage",
      "paramDelta": "%1"
    }
  ],

  ////////////////////////////////////////////////////////////////
  //
  //  技能升级1
  //
  ////////////////////////////////////////////////////////////////
  "Player_Electric_SkillUpgrade_1": [
    {
      "$type": "ModifyAbility",
      "abilityName": "Player_Electric_ElementalArt_Bullet_1",
      "paramSpecial": "ElementalArt_Damage",
      "paramDelta": "%1"
    },
    {
      "$type": "ModifyAbility",
      "abilityName": "Player_Electric_ElementalArt_Bullet_2",
      "paramSpecial": "ElementalArt_Damage",
      "paramDelta": "%1"
    },
    {
      "$type": "ModifyAbility",
      "abilityName": "Player_Electric_ElementalArt_Bullet_3",
      "paramSpecial": "ElementalArt_Damage",
      "paramDelta": "%1"
    },
    {
      "$type": "ModifyAbility",
      "abilityName": "Player_Electric_ElementalArt_Magatama_Pickable",
      "paramSpecial": "ElementalArt_Magatama_ReviveElemEnergy",
      "paramDelta": "%2"
    },
    {
      "$type": "ModifyAbility",
      "abilityName": "Player_Electric_ElementalArt_Magatama_Pickable",
      "paramSpecial": "ElementalArt_Magatama_Life_Duration",
      "paramDelta": "%3"
    },
    {
      "$type": "ModifyAbility",
      "abilityName": "Player_Electric_ElementalArt_Magatama_Pickable",
      "paramSpecial": "ElementalArt_Magatama_EfficiencyUp",
      "paramDelta": "%4"
    },
    {
      "$type": "ModifyAbility",
      "abilityName": "Player_Electric_ElementalArt_Magatama_Pickable",
      "paramSpecial": "ElementalArt_Magatama_EfficiencyUp_Duration",
      "paramDelta": "%5"
    }
  ],

  ////////////////////////////////////////////////////////////////
  //
  //  技能升级2
  ////////////////////////////////////////////////////////////////
  "Player_Electric_SkillUpgrade_2": [
    {
      "$type": "ModifyAbility",
      "abilityName": "Avatar_Player_Electric_ElementalBurst_Initiate",
      "paramSpecial": "ElementalBurst_InitiateDamage",
      "paramDelta": "%1"
    },
    {
      "$type": "ModifyAbility",
      "abilityName": "Avatar_Player_Electric_ElementalBurst_Bullet",
      "paramSpecial": "ElementalBurst_ThunderAttack_Default_Damage",
      "paramDelta": "%2"
    },
    {
      "$type": "ModifyAbility",
      "abilityName": "Avatar_Player_Electric_ElementalBurst_Bullet",
      "paramSpecial": "ElementalBurst_ReviveEnergy_Default",
      "paramDelta": "%3"
    },
    {
      "$type": "ModifyAbility",
      "abilityName": "Avatar_Player_Electric_ElementalBurst_Bullet",
      "paramSpecial": "ElementalBurst_Duration",
      "paramDelta": "%4"
    }
  ]
}
