{
  "$type": "ConfigMonster",
  "headControl": {
    "$type": "ConfigHeadControl",
    "useHeadControl": true,
    "maxYawDegree": 30,
    "maxPitchDegree": 10,
    "animStates": [
      "NormalIdle/Standby",
      "NormalMove/WalkForward",
      "NormalMove/WalkBack",
      "NormalMove/WalkRight",
      "NormalMove/WalkLeft",
      "NormalMove/Run",
      "Turn/TurnLeft",
      "Turn/TurnRight"
    ]
  },
  "common": {
    "scale": 1.1,
    "viewSize": 1.5,
    "effectAttachShape": {
      "$type": "ConfigEffectAttachSkinnedMesh",
      "mesh": "EffectMesh"
    },
    "mass": 10000.0,
    "useGrassDisplacement": true,
    "affectedByWorld": true,
    "checkInSurface": true,
    "clearAnimatorOnSetLightDeactive": true,
    "clearAIOnSetLightDeactive": true,
    "height": 2.1,
    "modelHeight": 2.1,
    "recoverByInitPose": true
  },
  "move": {
    "$type": "ConfigAnimatorMove",
    "facingMove": "FourDirection",
    "monsterSizeType": "StoopType",
    "positionModifyExtra": true
  },
  "model": {
    "bornEffect": "Eff_Monster_Common_Born"
  },
  "dither": {
    "showDitherDuration": 1.0
  },
  "equipController": {
    "attachPoints": {
      "equip01": "WeaponR",
      "equip02": "WeaponL"
    },
    "sheathPoint": ""
  },
  "billboard": {
    "$type": "ConfigCombatBillboard",
    "offsetType": "Character",
    "offset": {
      "x": -0.35,
      "y": 0,
      "z": 0
    },
    "radiusOffset": 0,
    "showHPBar": true,
    "size": "Big"
  },
  "combat": {
    "property": {
      "endureType": "Monster_Grunt_Other",
      "weight": 80 //weightLevel = 3
    },
    "combatLock": {
      "denyLockOn": false,
      "lockType": "Avatar&Monster_Lv4"
    },
    "beHit": {
      "hitBloodEffect": "",
      "muteAllHit": false,
      "muteAllHitEffect": false,
      "muteAllHitText": false
    },
    "die": {
      "hasAnimatorDie": true,
      // "dieDisappearEffect": "Eff_Death_Sand_Eremite",
      "dieShaderData": "EremiteSandDie",
      "dieShaderEnableDurationTime": 1.0,
      "dieEndTime": 2.0,
      "dieForceDisappearTime": 8.0,
      "muteHitBox": true,
      "dieDenyLockOn": true,
      "dieIsGhostToEnemy": true,
      "dieIgnoreTriggerBullet": true,
      "muteBillboard": true,
      "mutePushCollider": true
    },
    "animEvents": {
      "MeleeAtk01_01": {
        "attackPattern": {
          "$type": "ConfigAttackCircle",
          "triggerType": "TriggerNoRepeat",
          "radius": 2.4,
          "fanAngle": 230,
          "height": 2.2,
          "born": {
            "$type": "ConfigBornBySelf",
            "offset": {
              "x": 0.0,
              "y": 0.0,
              "z": -0.2
            }
          }
        },
        "attackInfo": {
          "attackProperty": {
            "damagePercentage": 0.6,
            "strikeType": "Slash",
            "overrideByWeapon": false,
            "attackType": "Melee",
            "elementType": "Electric",
            "elementDurability": 25,
            "enBreak": 200
          },
          "hitPattern": {
            "onHitEffectName": "default",
            "hitImpulseType": "LV4",
            "canBeDefenceHalt": true,
            "muteHitText": false,
            "retreatType": "ByAttacker"
          }
        }
      },
      "ImprovedMeleeAtk01_01": {
        "attackPattern": {
          "$type": "ConfigAttackCircle",
          "triggerType": "TriggerNoRepeat",
          "radius": 3.6,
          "fanAngle": 270,
          "height": 2.2,
          "born": {
            "$type": "ConfigBornBySelf",
            "offset": {
              "x": 0.2,
              "y": 0.0,
              "z": 0.0
            }
          }
        },
        "attackInfo": {
          "attackProperty": {
            "damagePercentage": 0.8,
            "strikeType": "Blunt",
            "overrideByWeapon": false,
            "attackType": "Melee",
            "enBreak": 200,
            "elementType": "Electric",
            "elementDurability": 25
          },
          "hitPattern": {
            "onHitEffectName": "default",
            "hitImpulseType": "LV4",
            "canBeDefenceHalt": true,
            "muteHitText": false,
            "retreatType": "ByAttacker"
          },
          "cameraShake": {
            "shakeType": "CustomVector",
            "shakeRange": 0.1,
            "shakeTime": 0.1,
            "shakeDistance": 30,
            "shakeDir": {
              "x": 0,
              "y": 1,
              "z": 1
            }
          }
        }
      },
      "MeleeAtk01_02_01": {
        "attackPattern": {
          "$type": "ConfigAttackCircle",
          "triggerType": "TriggerNoRepeat",
          "height": 2.2,
          "fanAngle": 180,
          "radius": 2.7,
          "born": {
            "$type": "ConfigBornBySelf",
            "offset": {
              "x": 0.0,
              "y": 0.0,
              "z": 0.2
            }
          }
        },
        "attackInfo": {
          "attackProperty": {
            "damagePercentage": 0.5,
            "strikeType": "Blunt",
            "overrideByWeapon": false,
            "attackType": "Melee",
            "enBreak": 100,
            "elementType": "Electric",
            "elementDurability": 25
          },
          "hitPattern": {
            "onHitEffectName": "default",
            "hitImpulseType": "LV4",
            "canBeDefenceHalt": true,
            "muteHitText": false,
            "retreatType": "ByAttacker"
          },
          "cameraShake": {
            "shakeType": "CustomVector",
            "shakeRange": 0.1,
            "shakeTime": 0.3,
            "shakeDistance": 30,
            "shakeDir": {
              "x": 0,
              "y": 1,
              "z": 1
            }
          }
        }
      },
      "MeleeAtk01_02_02": {
        "attackPattern": {
          "$type": "ConfigAttackCircle",
          "triggerType": "TriggerNoRepeat",
          "height": 2.2,
          "fanAngle": 180,
          "radius": 2.5,
          "born": {
            "$type": "ConfigBornBySelf",
            "offset": {
              "x": 0.0,
              "y": 0.0,
              "z": 0.2
            }
          }
        },
        "attackInfo": {
          "attackProperty": {
            "damagePercentage": 0.5,
            "strikeType": "Blunt",
            "overrideByWeapon": false,
            "attackType": "Melee",
            "enBreak": 100,
            "elementType": "Electric",
            "elementDurability": 25
          },
          "hitPattern": {
            "onHitEffectName": "default",
            "hitImpulseType": "LV4",
            "canBeDefenceHalt": true,
            "muteHitText": false,
            "retreatType": "ByAttacker"
          },
          "cameraShake": {
            "shakeType": "CustomVector",
            "shakeRange": 0.1,
            "shakeTime": 0.3,
            "shakeDistance": 30,
            "shakeDir": {
              "x": 0,
              "y": 1,
              "z": 1
            }
          }
        }
      },
      "ImprovedMeleeAtk01_02_01": {
        "attackPattern": {
          "$type": "ConfigAttackCircle",
          "triggerType": "TriggerNoRepeat",
          "height": 2.2,
          "fanAngle": 180,
          "radius": 4,
          "born": {
            "$type": "ConfigBornBySelf",
            "offset": {
              "x": 0.0,
              "y": 0.0,
              "z": 0.0
            }
          }
        },
        "attackInfo": {
          "attackProperty": {
            "damagePercentage": 0.7,
            "strikeType": "Blunt",
            "overrideByWeapon": false,
            "attackType": "Melee",
            "enBreak": 100,
            "elementType": "Electric",
            "elementDurability": 25
          },
          "hitPattern": {
            "onHitEffectName": "default",
            "hitImpulseType": "LV4",
            "reboundRatio": 0,
            "canBeDefenceHalt": true,
            "muteHitText": false,
            "retreatType": "ByAttacker"
          },
          "cameraShake": {
            "shakeType": "CustomVector",
            "shakeRange": 0.1,
            "shakeTime": 0.3,
            "shakeDistance": 30,
            "shakeDir": {
              "x": 0,
              "y": 1,
              "z": 1
            }
          }
        }
      },
      "ImprovedMeleeAtk01_02_02": {
        "attackPattern": {
          "$type": "ConfigAttackCircle",
          "triggerType": "TriggerNoRepeat",
          "height": 2.2,
          "fanAngle": 180,
          "radius": 4.3,
          "born": {
            "$type": "ConfigBornBySelf",
            "offset": {
              "x": 0.0,
              "y": 0.0,
              "z": -0.2
            }
          }
        },
        "attackInfo": {
          "attackProperty": {
            "damagePercentage": 0.7,
            "strikeType": "Blunt",
            "overrideByWeapon": false,
            "attackType": "Melee",
            "enBreak": 200,
            "elementType": "Electric",
            "elementDurability": 25
          },
          "hitPattern": {
            "onHitEffectName": "default",
            "hitImpulseType": "LV4",
            "reboundRatio": 0,
            "canBeDefenceHalt": true,
            "muteHitText": false,
            "retreatType": "ByAttacker"
          }
        }
      },
      "MeleeAtk01_03": {
        "attackPattern": {
          "$type": "ConfigAttackCircle",
          "triggerType": "TriggerNoRepeat",
          "height": 2.2,
          "fanAngle": 180,
          "radius": 2.8,
          "born": {
            "$type": "ConfigBornBySelf",
            "offset": {
              "x": 0.0,
              "y": 0.0,
              "z": 0.0
            }
          }
        },
        "attackInfo": {
          "attackProperty": {
            "damagePercentage": 0.75,
            "strikeType": "Blunt",
            "overrideByWeapon": false,
            "elementDurability": 25,
            "elementType": "Electric",
            "attackType": "Melee",
            "enBreak": 100
          },
          "hitPattern": {
            "onHitEffectName": "default",
            "hitImpulseType": "LV5",
            "canBeDefenceHalt": true,
            "muteHitText": false,
            "retreatType": "ByAttacker"
          },
          "cameraShake": {
            "shakeType": "CustomVector",
            "shakeRange": 0.1,
            "shakeTime": 0.1,
            "shakeDistance": 30,
            "shakeDir": {
              "x": 0,
              "y": 1,
              "z": 1
            }
          }
        }
      },
      "ImprovedMeleeAtk01_03": {
        "attackPattern": {
          "$type": "ConfigAttackCircle",
          "triggerType": "TriggerNoRepeat",
          "height": 2.2,
          "fanAngle": 180,
          "radius": 4.0,
          "born": {
            "$type": "ConfigBornBySelf",
            "offset": {
              "x": 0.0,
              "y": 0.0,
              "z": -0.6
            }
          }
        },
        "attackInfo": {
          "attackProperty": {
            "damagePercentage": 1,
            "strikeType": "Blunt",
            "overrideByWeapon": false,
            "attackType": "Melee",
            "enBreak": 1000,
            "elementType": "Electric",
            "elementDurability": 50
          },
          "hitPattern": {
            "onHitEffectName": "default",
            "hitImpulseType": "LV5",
            "reboundRatio": 0,
            "canBeDefenceHalt": true,
            "muteHitText": false,
            "retreatType": "ByAttacker"
          },
          "cameraShake": {
            "shakeType": "CustomVector",
            "shakeRange": 0.25,
            "shakeTime": 0.3,
            "shakeDistance": 30,
            "shakeDir": {
              "x": 0,
              "y": 1,
              "z": 1
            }
          }
        }
      },
      "MeleeAtk02_01": {
        "attackPattern": {
          "$type": "ConfigAttackCircle",
          "triggerType": "TriggerNoRepeat",
          "height": 2.2,
          "fanAngle": 180,
          "radius": 2,
          "born": {
            "$type": "ConfigBornBySelf",
            "offset": {
              "x": 0.0,
              "y": 0.0,
              "z": 0.4
            }
          }
        },
        "attackInfo": {
          "attackProperty": {
            "damagePercentage": 0.25,
            "strikeType": "Slash",
            "overrideByWeapon": false,
            "attackType": "Melee",
            "enBreak": 100,
            "elementType": "Electric",
            "elementDurability": 25
          },
          "hitPattern": {
            "onHitEffectName": "default",
            "hitImpulseType": "LV3",
            "reboundRatio": 0,
            "canBeDefenceHalt": true,
            "muteHitText": false,
            "retreatType": "ByAttacker"
          }
        }
      },
      "MeleeAtk02_02": {
        "attackPattern": {
          "$type": "ConfigAttackCircle",
          "triggerType": "TriggerNoRepeat",
          "height": 2.2,
          "fanAngle": 360,
          "radius": 3,
          "born": {
            "$type": "ConfigBornBySelf",
            "offset": {
              "x": 0.0,
              "y": 0.0,
              "z": 0.4
            }
          }
        },
        "attackInfo": {
          "attackProperty": {
            "damagePercentage": 0.4,
            "strikeType": "Slash",
            "overrideByWeapon": false,
            "attackType": "Melee",
            "enBreak": 100,
            "elementType": "Electric",
            "elementDurability": 25
          },
          "hitPattern": {
            "onHitEffectName": "default",
            "hitImpulseType": "LV3",
            "reboundRatio": 0,
            "canBeDefenceHalt": true,
            "muteHitText": false,
            "retreatType": "ByAttacker"
          },
          "cameraShake": {
            "shakeType": "CustomVector",
            "shakeRange": 0.1,
            "shakeTime": 0.3,
            "shakeDistance": 30,
            "shakeDir": {
              "x": 0,
              "y": 1,
              "z": 1
            }
          }
        }
      },
      "MeleeAtk02_03": {
        "attackPattern": {
          "$type": "ConfigAttackCircle",
          "triggerType": "TriggerNoRepeat",
          "height": 2.2,
          "fanAngle": 180,
          "radius": 3,
          "born": {
            "$type": "ConfigBornBySelf",
            "offset": {
              "x": 0.0,
              "y": 0.0,
              "z": 0.0
            }
          }
        },
        "attackInfo": {
          "attackProperty": {
            "damagePercentage": 0.5,
            "strikeType": "Blunt",
            "overrideByWeapon": false,
            "attackType": "Melee",
            "enBreak": 100,
            "elementType": "Electric",
            "elementDurability": 25
          },
          "hitPattern": {
            "onHitEffectName": "default",
            "hitImpulseType": "LV4",
            "reboundRatio": 0,
            "canBeDefenceHalt": true,
            "muteHitText": false,
            "retreatType": "ByAttacker"
          },
          "cameraShake": {
            "shakeType": "CustomVector",
            "shakeRange": 0.1,
            "shakeTime": 0.3,
            "shakeDistance": 30,
            "shakeDir": {
              "x": 0,
              "y": 1,
              "z": 1
            }
          }
        }
      },
      "MeleeAtk02_04": {
        "attackPattern": {
          "$type": "ConfigAttackCircle",
          "triggerType": "TriggerNoRepeat",
          "height": 2.2,
          "fanAngle": 360,
          "radius": 3,
          "innerRadius": 1.5,
          "born": {
            "$type": "ConfigBornBySelf",
            "offset": {
              "x": 0.0,
              "y": 0.0,
              "z": 0.0
            }
          }
        },
        "attackInfo": {
          "attackProperty": {
            "damagePercentage": 0.5,
            "strikeType": "Slash",
            "overrideByWeapon": false,
            "attackType": "Melee",
            "enBreak": 100,
            "elementType": "Electric",
            "elementDurability": 25
          },
          "hitPattern": {
            "onHitEffectName": "default",
            "hitImpulseType": "LV4",
            "canBeDefenceHalt": true,
            "muteHitText": false,
            "retreatType": "ByAttacker"
          }
        }
      },
      "ImprovedMeleeAtk02_01": {
        "attackPattern": {
          "$type": "ConfigAttackCircle",
          "triggerType": "TriggerNoRepeat",
          "height": 2.2,
          "fanAngle": 180,
          "radius": 3,
          "born": {
            "$type": "ConfigBornBySelf",
            "offset": {
              "x": 0.0,
              "y": 0.0,
              "z": 0.4
            }
          }
        },
        "attackInfo": {
          "attackProperty": {
            "damagePercentage": 0.25,
            "strikeType": "Slash",
            "overrideByWeapon": false,
            "attackType": "Melee",
            "enBreak": 200,
            "elementType": "Electric",
            "elementDurability": 25
          },
          "hitPattern": {
            "onHitEffectName": "default",
            "hitImpulseType": "LV3",
            "reboundRatio": 0,
            "canBeDefenceHalt": true,
            "muteHitText": false,
            "retreatType": "ByAttacker"
          },
          "forceCameraShake": true,
          "cameraShake": {
            "shakeType": "CustomVector",
            "shakeRange": 0.1,
            "shakeTime": 0.3,
            "shakeDistance": 30,
            "shakeDir": {
              "x": 0,
              "y": 1,
              "z": 1
            }
          }
        }
      },
      "ImprovedMeleeAtk02_02": {
        "attackPattern": {
          "$type": "ConfigAttackCircle",
          "triggerType": "TriggerNoRepeat",
          "height": 2.2,
          "fanAngle": 360,
          "radius": 5,
          "born": {
            "$type": "ConfigBornBySelf",
            "offset": {
              "x": 0.0,
              "y": 0.0,
              "z": 0.4
            }
          }
        },
        "attackInfo": {
          "attackProperty": {
            "damagePercentage": 0.75,
            "strikeType": "Blunt",
            "overrideByWeapon": false,
            "attackType": "Melee",
            "enBreak": 200,
            "elementType": "Electric",
            "elementDurability": 25
          },
          "hitPattern": {
            "onHitEffectName": "default",
            "hitImpulseType": "LV4",
            "reboundRatio": 0,
            "canBeDefenceHalt": true,
            "muteHitText": false,
            "retreatType": "ByAttacker"
          },
          "cameraShake": {
            "shakeType": "CustomVector",
            "shakeRange": 0.1,
            "shakeTime": 0.3,
            "shakeDistance": 30,
            "shakeDir": {
              "x": 0,
              "y": 1,
              "z": 1
            }
          }
        }
      },
      "ImprovedMeleeAtk02_03": {
        "attackPattern": {
          "$type": "ConfigAttackCircle",
          "triggerType": "TriggerNoRepeat",
          "height": 2.2,
          "fanAngle": 180,
          "radius": 5,
          "born": {
            "$type": "ConfigBornBySelf",
            "offset": {
              "x": 0.0,
              "y": 0.0,
              "z": 0.4
            }
          }
        },
        "attackInfo": {
          "attackProperty": {
            "damagePercentage": 0.75,
            "strikeType": "Blunt",
            "overrideByWeapon": false,
            "attackType": "Melee",
            "enBreak": 1000,
            "elementType": "Electric",
            "elementDurability": 50
          },
          "hitPattern": {
            "onHitEffectName": "default",
            "hitImpulseType": "LV5",
            "reboundRatio": 0,
            "canBeDefenceHalt": true,
            "muteHitText": false,
            "retreatType": "ByAttacker"
          },
          "cameraShake": {
            "shakeType": "CustomVector",
            "shakeRange": 0.5,
            "shakeTime": 0.3,
            "shakeDistance": 30,
            "shakeDir": {
              "x": 0,
              "y": 1,
              "z": 1
            }
          }
        }
      },
      "ImprovedMeleeAtk02_04": {
        "attackPattern": {
          "$type": "ConfigAttackCircle",
          "triggerType": "TriggerNoRepeat",
          "height": 2.2,
          "fanAngle": 360,
          "radius": 5,
          "innerRadius": 2,
          "born": {
            "$type": "ConfigBornBySelf",
            "offset": {
              "x": 0.0,
              "y": 0.0,
              "z": 0.0
            }
          }
        },
        "attackInfo": {
          "attackProperty": {
            "damagePercentage": 0.75,
            "strikeType": "Blunt",
            "overrideByWeapon": false,
            "attackType": "Melee",
            "enBreak": 1000,
            "elementType": "Electric",
            "elementDurability": 50
          },
          "hitPattern": {
            "onHitEffectName": "default",
            "hitImpulseType": "LV5",
            "reboundRatio": 0,
            "canBeDefenceHalt": true,
            "muteHitText": false,
            "retreatType": "ByAttacker"
          },
          "cameraShake": {
            "shakeType": "CustomVector",
            "shakeRange": 0.5,
            "shakeTime": 0.3,
            "shakeDistance": 30,
            "shakeDir": {
              "x": 0,
              "y": 1,
              "z": 1
            }
          }
        }
      }
    }
  },
  "stateLayers": {
    "defaultLayer": {
      "$type": "ConfigNormalStateLayer",
      "stateIDs": {
        "NormalIdle": {
          "$type": "ConfigMonsterStateIDInfo",
          "animatorStates": {
            "Standby": [],
            "Born": []
          },
          "canDoSkill": true,
          "canSyncMove": true,
          "resetAnimatorTriggerOnExit": ["DoSkill"]
        },
        "Standby_Weak": {
          "$type": "ConfigMonsterStateIDInfo",
          "animatorStates": {
            "Standby_Weak": []
          },
          "canDoSkill": true,
          "canSyncMove": true,
          "resetAnimatorTriggerOnExit": ["DoSkill", "Recover"]
        },
        "NormalMove": {
          "$type": "ConfigMonsterStateIDInfo",
          "animatorStates": {
            "WalkForward": [
              "Audio_Monster_Eremite_Male_Standard_Polearm_01_Walk"
            ],
            "WalkBack": ["Audio_Monster_Eremite_Male_Standard_Polearm_01_Walk"],
            "WalkRight": [
              "Audio_Monster_Eremite_Male_Standard_Polearm_01_Walk"
            ],
            "WalkLeft": ["Audio_Monster_Eremite_Male_Standard_Polearm_01_Walk"],
            "Run": ["Audio_Monster_Eremite_Male_Standard_Polearm_01_Run"]
          },
          "canDoSkill": true,
          "canSteer": true,
          "canSyncMove": true,
          "resetAnimatorTriggerOnExit": ["DoSkill"]
        },
        "Turn": {
          "$type": "ConfigMonsterStateIDInfo",
          "animatorStates": {
            "TurnLeft": ["Audio_Monster_Eremite_Male_Standard_Polearm_01_Walk"],
            "TurnRight": ["Audio_Monster_Eremite_Male_Standard_Polearm_01_Walk"]
          },
          "canDoSkill": true,
          "canSteer": true,
          "autoSteer": false,
          "canSyncMove": true,
          "resetAnimatorTriggerOnExit": ["DoSkill"]
        },
        "BeHit": {
          "$type": "ConfigMonsterStateIDInfo",
          "animatorStates": {
            "Hit_L": [],
            "Hit_H": ["Audio_Monster_Eremite_Male_Standard_Polearm_01_Hit_H"]
          },
          "resetAnimatorTriggerOnEnter": ["BeHit"],
          "resetAnimatorTriggerOnExit": ["DoSkill"]
        },
        "BeHitThrow": {
          "$type": "ConfigMonsterStateIDInfo",
          "animatorStates": {
            "HitThrow": [
              "Audio_Monster_Eremite_Male_Standard_Polearm_01_HitThrow"
            ],
            "HitThrowDrop": []
          },
          "resetAnimatorTriggerOnEnter": ["BeHit", "HitAir2HitDrop"],
          "resetAnimatorTriggerOnExit": ["DoSkill", "BeHit"],
          "setAnimatorBoolean": [
            {
              "$type": "ConfigAnimatorBoolean",
              "name": "AirDie"
            }
          ]
        },
        "BeHitThrowToStandby": {
          "$type": "ConfigMonsterStateIDInfo",
          "animatorStates": {
            "HitThrowToGround": [
              "Audio_Monster_Eremite_Male_Standard_Polearm_01_HitThrowToGround"
            ]
          },
          "resetAnimatorTriggerOnEnter": ["BeHit", "HitAir2HitDrop"],
          "resetAnimatorTriggerOnExit": ["DoSkill", "BeHit"],
          "setAnimatorBoolean": [
            {
              "$type": "ConfigAnimatorBoolean",
              "name": "AirDie",
              "normalizeEnd": 0.62
            }
          ]
        },
        "Struggle": {
          "$type": "ConfigMonsterStateIDInfo",
          "animatorStates": {
            "Struggle": []
          },
          "resetAnimatorTriggerOnEnter": ["BeHit", "HitAir2HitDrop"],
          "resetAnimatorTriggerOnExit": ["DoSkill"]
        },
        "Die": {
          "$type": "ConfigMonsterStateIDInfo",
          "animatorStates": {
            "Die1": [
              "Monster_Eremite_Male_Standard_Polearm_Electric_Die",
              "Audio_Monster_Eremite_Male_Standard_Polearm_01_Die1_NoVo"
            ],
            "Die2": [
              "Monster_Eremite_Male_Standard_Polearm_Electric_Die",
              "Audio_Monster_Eremite_Male_Standard_Polearm_01_Die1_NoVo"
            ],
            "SwinDie_BS": [],
            "SwimDie": ["Monster_Eremite_SwimDie"],
            "SwimDie_AS": []
          }
        },
        "Die_RagDoll": {
          "$type": "ConfigMonsterStateIDInfo",
          "animatorStates": {
            "AirDie": ["Monster_Eremite_AirDie"]
          },
          "enableRagDoll": false
        },
        "Sit_Loop": {
          "$type": "ConfigMonsterStateIDInfo",
          "animatorStates": {
            "Sit_Loop": []
          },
          "canDoSkill": true,
          "resetAnimatorTriggerOnExit": ["BeHit", "DoSkill"]
        },
        "Lie": {
          "$type": "ConfigMonsterStateIDInfo",
          "animatorStates": {
            "Lie": []
          },
          "canDoSkill": true,
          "resetAnimatorTriggerOnExit": ["BeHit", "DoSkill"]
        },
        "Exercise": {
          "$type": "ConfigMonsterStateIDInfo",
          "animatorStates": {
            "Exercise": [
              "Audio_Monster_Eremite_Male_Standard_Polearm_01_Exercise"
            ]
          },
          "canDoSkill": true,
          "resetAnimatorTriggerOnExit": ["BeHit", "DoSkill"]
        },
        ///////////////////////////////////////////////////////////////////
        //
        // Skill Subs
        //
        ///////////////////////////////////////////////////////////////////
        "Alert": {
          "$type": "ConfigMonsterStateIDInfo",
          "animatorStates": {
            "Alert": [
              "Monster_Eremite_Male_Standard_Polearm_Electric_Alert",
              "Audio_Monster_Eremite_Male_Standard_Polearm_01_Alert_NoVo"
            ],
            "Exercise_Alert": [
              "Monster_Eremite_Male_Standard_Polearm_Electric_Alert",
              "Audio_Monster_Eremite_Male_Standard_Polearm_01_Alert_NoVo"
            ]
          },
          "addEndure": 0,
          "massRatio": 20,
          "autoSteer": true,
          "canDoSkill": false,
          "resetAnimatorTriggerOnExit": ["BeHit", "DoSkill"]
        },
        "Sit_Alert": {
          "$type": "ConfigMonsterStateIDInfo",
          "animatorStates": {
            "Sit_Alert": [
              "Monster_Eremite_Male_Standard_Polearm_Electric_Alert",
              "Audio_Monster_Eremite_Male_Standard_Polearm_01_SitAlert_NoVo"
            ]
          },
          "addEndure": 0,
          "massRatio": 20,
          "autoSteer": true,
          "canDoSkill": false,
          "resetAnimatorTriggerOnExit": ["BeHit", "DoSkill"]
        },
        "SheathWeapon": {
          "$type": "ConfigMonsterStateIDInfo",
          "animatorStates": {
            "SheathWeapon": [
              "Monster_Eremite_Male_Standard_Polearm_Electric_SheathWeapon",
              "Audio_Monster_Eremite_Male_Standard_Polearm_01_SheathWeapon"
            ]
          },
          "addEndure": 0,
          "massRatio": 20,
          "canDoSkill": false,
          "resetAnimatorTriggerOnEnter": ["SheathWeaponTrigger"],
          "resetAnimatorTriggerOnExit": [
            "BeHit",
            "DoSkill",
            "SheathWeaponTrigger"
          ]
        },
        "Improve": {
          "$type": "ConfigMonsterStateIDInfo",
          "animatorStates": {
            "Improve": [
              "Monster_Eremite_Male_Standard_Polearm_Electric_Improve",
              "Audio_Monster_Eremite_Male_Standard_Polearm_01_Improve"
            ]
          },
          "resetAnimatorTriggerOnEnter": ["ForceImprove"],
          "resetAnimatorTriggerOnExit": ["BeHit", "DoSkill", "ForceImprove"],
          "addEndure": 0,
          "massRatio": 20
        },
        "Weak": {
          "$type": "ConfigMonsterStateIDInfo",
          "animatorStates": {
            "Weak_BS": [
              "Audio_Monster_Eremite_Male_Standard_Polearm_01_Weak_BS"
            ],
            "Weak_AS": [
              "Audio_Monster_Eremite_Male_Standard_Polearm_01_Weak_AS"
            ]
          },
          "resetAnimatorTriggerOnEnter": ["Weak"],
          "resetAnimatorTriggerOnExit": ["DoSkill", "Weak", "Recover"]
        },
        ///////////////////////////////////////////////////////////////////
        //
        // Attack Subs
        //
        ///////////////////////////////////////////////////////////////////
        "MeleeAtk01_01": {
          "$type": "ConfigMonsterStateIDInfo",
          "animatorStates": {
            "MeleeAtk01_01": [
              "Monster_Eremite_Male_Standard_Polearm_Electric_MeleeAtk01_01",
              "Audio_Monster_Eremite_Male_Standard_Polearm_01_MeleeAtk01_01"
            ]
          },
          "addEndure": 0,
          "massRatio": 20,
          "canSteer": true,
          "resetAnimatorTriggerOnExit": ["BeHit", "DoSkill"]
        },
        "MeleeAtk01_01_AS": {
          "$type": "ConfigMonsterStateIDInfo",
          "animatorStates": {
            "MeleeAtk01_01_AS": [
              "Audio_Monster_Eremite_Male_Standard_Polearm_01_MeleeAtk01_01_AS"
            ]
          },
          "addEndure": 0,
          "massRatio": 20,
          "canSteer": true,
          "resetAnimatorTriggerOnExit": ["BeHit", "DoSkill"]
        },
        "MeleeAtk01_02_BS": {
          "$type": "ConfigMonsterStateIDInfo",
          "animatorStates": {
            "MeleeAtk01_02_BS": [
              "Audio_Monster_Eremite_Male_Standard_Polearm_01_MeleeAtk01_02_BS"
            ]
          },
          "addEndure": 0,
          "massRatio": 20,
          "canSteer": true,
          "resetAnimatorTriggerOnExit": ["BeHit", "DoSkill"]
        },
        "MeleeAtk01_02": {
          "$type": "ConfigMonsterStateIDInfo",
          "animatorStates": {
            "MeleeAtk01_02": [
              "Monster_Eremite_Male_Standard_Polearm_Electric_MeleeAtk01_02",
              "Audio_Monster_Eremite_Male_Standard_Polearm_01_MeleeAtk01_02"
            ]
          },
          "addEndure": 0,
          "massRatio": 20,
          "canSteer": true,
          "resetAnimatorTriggerOnExit": ["BeHit", "DoSkill"]
        },
        "MeleeAtk01_02_AS": {
          "$type": "ConfigMonsterStateIDInfo",
          "animatorStates": {
            "MeleeAtk01_02_AS": [
              "Audio_Monster_Eremite_Male_Standard_Polearm_01_MeleeAtk01_02_AS"
            ]
          },
          "addEndure": 0,
          "massRatio": 20,
          "combatMove": true,
          "canSteer": true,
          "resetAnimatorTriggerOnExit": ["BeHit", "DoSkill"]
        },
        "MeleeAtk01_03_BS": {
          "$type": "ConfigMonsterStateIDInfo",
          "animatorStates": {
            "MeleeAtk01_03_BS": [
              "Monster_Eremite_Male_Standard_Polearm_Electric_MeleeAtk01_03_BS",
              "Audio_Monster_Eremite_Male_Standard_Polearm_01_MeleeAtk01_03_BS"
            ]
          },
          "addEndure": 0,
          "massRatio": 20,
          "canSteer": true,
          "resetAnimatorTriggerOnExit": ["BeHit", "DoSkill"]
        },
        "MeleeAtk01_03": {
          "$type": "ConfigMonsterStateIDInfo",
          "animatorStates": {
            "MeleeAtk01_03": [
              "Monster_Eremite_Male_Standard_Polearm_Electric_MeleeAtk01_03",
              "Audio_Monster_Eremite_Male_Standard_Polearm_01_MeleeAtk01_03"
            ]
          },
          "addEndure": 0,
          "massRatio": 20,
          "canSteer": true,
          "resetAnimatorTriggerOnExit": ["BeHit", "DoSkill"]
        },
        "MeleeAtk02": {
          "$type": "ConfigMonsterStateIDInfo",
          "animatorStates": {
            "MeleeAtk02": [
              "Monster_Eremite_Male_Standard_Polearm_Electric_MeleeAtk02",
              "Audio_Monster_Eremite_Male_Standard_Polearm_01_MeleeAtk02"
            ]
          },
          "addEndure": 0,
          "massRatio": 20,
          "canSteer": true,
          "canSyncMove": true,
          "resetAnimatorTriggerOnExit": ["BeHit", "DoSkill"]
        },
        "Improve_MeleeAtk01_01": {
          "$type": "ConfigMonsterStateIDInfo",
          "animatorStates": {
            "Improve_MeleeAtk01_01": [
              "Monster_Eremite_Male_Standard_Polearm_Electric_ImproveMeleeAtk01_01",
              "Audio_Monster_Eremite_Male_Standard_Polearm_01_Improve_MeleeAtk01_01"
            ]
          },
          "canSteer": true,
          "resetAnimatorTriggerOnExit": ["BeHit", "DoSkill", "Weak"]
        },
        "Improve_MeleeAtk01_01_AS": {
          "$type": "ConfigMonsterStateIDInfo",
          "animatorStates": {
            "Improve_MeleeAtk01_01_AS": []
          },
          "canSteer": true,
          "resetAnimatorTriggerOnExit": ["BeHit", "DoSkill", "Weak"]
        },
        "Improve_MeleeAtk01_02": {
          "$type": "ConfigMonsterStateIDInfo",
          "animatorStates": {
            "Improve_MeleeAtk01_02": [
              "Monster_Eremite_Male_Standard_Polearm_Electric_ImproveMeleeAtk01_02",
              "Audio_Monster_Eremite_Male_Standard_Polearm_01_Improve_MeleeAtk01_02"
            ]
          },
          "canSteer": true,
          "resetAnimatorTriggerOnExit": ["BeHit", "DoSkill", "Weak"]
        },
        "Improve_MeleeAtk01_02_AS": {
          "$type": "ConfigMonsterStateIDInfo",
          "animatorStates": {
            "Improve_MeleeAtk01_02_AS": [
              "Audio_Monster_Eremite_Male_Standard_Polearm_01_Improve_MeleeAtk01_02_AS"
            ]
          },
          "canSteer": true,
          "resetAnimatorTriggerOnExit": ["BeHit", "DoSkill", "Weak"]
        },
        "Improve_MeleeAtk01_03_BS": {
          "$type": "ConfigMonsterStateIDInfo",
          "animatorStates": {
            "Improve_MeleeAtk01_03_BS": [
              "Monster_Eremite_Male_Standard_Polearm_Electric_Improve_MeleeAtk01_03_BS",
              "Audio_Monster_Eremite_Male_Standard_Polearm_01_Improve_MeleeAtk01_03_BS"
            ]
          },
          "canSteer": true,
          "resetAnimatorTriggerOnExit": ["BeHit", "DoSkill", "Weak"]
        },
        "Improve_MeleeAtk01_03": {
          "$type": "ConfigMonsterStateIDInfo",
          "animatorStates": {
            "Improve_MeleeAtk01_03": [
              "Monster_Eremite_Male_Standard_Polearm_Electric_ImproveMeleeAtk01_03",
              "Audio_Monster_Eremite_Male_Standard_Polearm_01_Improve_MeleeAtk01_03"
            ]
          },
          "canSteer": true,
          "resetAnimatorTriggerOnExit": ["BeHit", "DoSkill", "Weak"]
        },
        "Improve_MeleeAtk01_02_BS": {
          "$type": "ConfigMonsterStateIDInfo",
          "animatorStates": {
            "Improve_MeleeAtk01_02_BS": []
          },
          "canSteer": true,
          "resetAnimatorTriggerOnExit": ["BeHit", "DoSkill", "Weak"]
        },
        "Improve_MeleeAtk01_04": {
          "$type": "ConfigMonsterStateIDInfo",
          "animatorStates": {
            "Improve_MeleeAtk01_04": [
              "Monster_Eremite_Male_Standard_Polearm_Electric_ImproveMeleeAtk01_02"
            ]
          },
          "canSteer": true,
          "resetAnimatorTriggerOnExit": ["BeHit", "DoSkill", "Weak"]
        },
        "Improve_MeleeAtk02": {
          "$type": "ConfigMonsterStateIDInfo",
          "animatorStates": {
            "Improve_MeleeAtk02": [
              "Monster_Eremite_Male_Standard_Polearm_Electric_ImproveMeleeAtk02",
              "Audio_Monster_Eremite_Male_Standard_Polearm_01_Improve_MeleeAtk02_NoVo"
            ]
          },
          "canSyncMove": true,
          "canSteer": true,
          "resetAnimatorTriggerOnExit": ["BeHit", "DoSkill", "Weak"]
        }
      }
    }
  },
  "abilities": [
    {
      "abilityID": "FightControl",
      "abilityName": "Monster_Eremite_Male_Standard_Polearm_Electric_FightControl"
    },
    {
      "abilityID": "ReturntoBorn",
      "abilityName": "Monster_Eremite_Male_Standard_Polearm_Electric_ReturnToBorn"
    },
    {
      "abilityID": "Alert",
      "abilityName": "Monster_Eremite_Male_Standard_Polearm_Electric_Alert"
    },
    {
      "abilityID": "Improve",
      "abilityName": "Monster_Eremite_Male_Standard_Polearm_Electric_Improve"
    },
    {
      "abilityID": "Die",
      "abilityName": "Monster_Eremite_Male_Standard_Polearm_Electric_Improve_Die"
    },
    {
      "abilityID": "Weak",
      "abilityName": "Monster_Eremite_Male_Standard_Polearm_Electric_Weak"
    },
    {
      "abilityID": "DrawWeapon",
      "abilityName": "Monster_Eremite_Male_Standard_Polearm_Electric_DrawWeapon"
    },
    {
      "abilityID": "SheathWeapon",
      "abilityName": "Monster_Eremite_Male_Standard_Polearm_Electric_SheathWeapon"
    },
    {
      "abilityID": "HideWeapon",
      "abilityName": "Monster_Eremite_Male_Standard_Polearm_Electric_HideWeapon"
    },
    {
      "abilityID": "UnhideWeapon",
      "abilityName": "Monster_Eremite_Male_Standard_Polearm_Electric_UnhideWeapon"
    },
    {
      "abilityID": "SteerControl",
      "abilityName": "Monster_Eremite_Male_Standard_Polearm_Electric_SteerControl"
    }
  ],
  "initialPoses": {
    "Default": {
      "initialPoseID": 0
    },
    "Sit": {
      "initialPoseID": 9001,
      "initialPoseParams": {
        "intParams": {
          "FreePoseMark": "9001"
        }
      }
    },
    "Exercise": {
      "initialPoseID": 9003,
      "initialPoseParams": {
        "intParams": {
          "FreePoseMark": "9003"
        }
      }
    },
    "Lie": {
      "initialPoseID": 9002,
      "initialPoseParams": {
        "intParams": {
          "FreePoseMark": "9002"
        }
      }
    }
  },
  "aibeta": {
    "enable": true,
    "moveSetting": {
      "almostReachedDistanceRun": 1.5
    },
    "neurons": {
      "DefaultSetting": ["HIT"],
      "NeverCombat": []
    },
    "aiCombat": {
      "combatRole": "FIGHTER"
    },
    "profiling": {},
    "sensing": {
      "settings": {
        "DefaultSetting": {
          "viewRange": 30.0,
          "feelRange": 8.0
        },
        "HighAlert": {
          "viewRange": 40.0,
          "feelRange": 10.0
        },
        "LowAlert": {
          "viewRange": 15.0,
          "feelRange": 6.0
        },
        "UltraLowSensing": {
          "viewRange": 10.0,
          "feelRange": 4.0,
          "hearAttractionRange": 0
        },
        "NeverCombat": {
          "enableVision": false,
          "feelRange": 0.0,
          "hearAttractionRange": 0.0
        }
      },
      "templates": {
        "DefaultTemplate": {
          "DefaultPoses": "DefaultSetting"
        },
        "NeverCombatTemplate": {
          "DefaultPoses": "NeverCombat"
        },
        "HighAlert": {
          "DefaultPoses": "HighAlert"
        },
        "LowAlert": {
          "DefaultPoses": "LowAlert"
        },
        "UltraLowSensing": {
          "DefaultPoses": "UltraLowSensing"
        }
      }
    },
    "defendArea": {
      "enable": true
    },
    "threat": {
      "clearThreatByLostPath": true,
      "clearThreatTimerByLostPath": 10,
      "clearThreatTimerByDistance": 3,
      "viewAttenuation": [
        { "x": 10.0, "y": 2.0 },
        { "x": 15.0, "y": 0.8 },
        { "x": 20.0, "y": 0.5 },
        { "x": 25.0, "y": 0.3 },
        { "x": 30.0, "y": 0.2 }
      ],
      "resistTauntLevel": "Monster_TauntLevel_2"
    },
    "skillGroupCDConfigs": [
      {
        "$type": "ConfigAISkillGroupCD",
        "skillGroupCDID": 1,
        "skillGroupCDTime": 1
      },
      {
        "$type": "ConfigAISkillGroupCD",
        "skillGroupCDID": 2,
        "skillGroupCDTime": 2
      },
      {
        "$type": "ConfigAISkillGroupCD",
        "skillGroupCDID": 3,
        "skillGroupCDTime": 3
      },
      {
        "$type": "ConfigAISkillGroupCD",
        "skillGroupCDID": 4,
        "skillGroupCDTime": 4
      }
    ],
    "returnToBornTactic": {
      "enable": true,
      "defaultSetting": {
        "speedLevel": 2
      }
    },
    "wanderTactic": {
      "enable": true,
      "condition": {
        "pose": [1]
      },
      "defaultSetting": {
        "speedLevel": 1,
        "turnSpeedOverride": 1.0,
        "cdMin": 2.5,
        "cdMax": 5.0,
        "distanceFromBorn": 15.0,
        "distanceFromCurrentMin": 4,
        "distanceFromCurrentMax": 6
      }
    },
    "investigateTactic": {
      "enable": true,
      "condition": {
        "pose": [1]
      }
    },
    "facingMoveTactic": {
      "enable": true,
      "condition": {
        "pose": [101, 102, 201]
      },
      "defaultSetting": {
        "speedLevel": 1,
        "rangeMin": 2,
        "rangeMax": 15,
        "restTimeMin": 1,
        "restTimeMax": 2,
        "facingMoveTurnInterval": 1.2,
        "obstacleDetectRange": 1,
        "facingMoveWeight": {
          "stop": 2,
          "forward": 6,
          "back": 0.5,
          "left": 3,
          "right": 3
        }
      }
    },
    "meleeChargeTactic": {
      "enable": true,
      "condition": {
        "pose": [101, 102, 201]
      },
      "defaultSetting": {
        "speedLevel": 2,
        "speedLevelInner": 1,
        "innerDistance": 3,
        "stopDistance": 3,
        "startDistanceMin": 8.0,
        "startDistanceMax": 99.0
      }
    },
    "network": {
      "syncSkill": true
    },
    "skillGCD": 2.0,
    "skills": {
      "101": {
        "name": "OnAlert",
        "stateIDs": ["Alert"],
        "skillType": "OnAlert",
        "skillQueryingTime": 3,
        "triggerGCD": false,
        "ignoreGCD": true,
        "castCondition": {
          "pose": [1, 101]
        }
      },
      "102": {
        "name": "OnAlert",
        "stateIDs": ["Alert"],
        "skillType": "OnNerve",
        "skillQueryingTime": 3,
        "triggerGCD": false,
        "ignoreGCD": true,
        "castCondition": {
          "pose": [1]
        },
        "nerveTrigger": ["HIT"]
      },
      //站立入战
      "111": {
        "name": "OnAlert_Crossleg",
        "stateIDs": ["Sit_Alert"],
        "skillType": "OnAlert",
        "skillQueryingTime": 3,
        "triggerGCD": true,
        "ignoreGCD": true,
        "castCondition": {
          "pose": [9001, 9002]
        }
      },
      "112": {
        "name": "OnAlert_Crossleg",
        "stateIDs": ["Sit_Alert"],
        "skillType": "OnNerve",
        "skillQueryingTime": 3,
        "triggerGCD": true,
        "ignoreGCD": true,
        "castCondition": {
          "pose": [9001, 9002]
        },
        "nerveTrigger": ["HIT"]
      },
      "121": {
        "name": "OnAlert_Crossleg",
        "stateIDs": ["Exercise_Alert"],
        "skillType": "OnAlert",
        "skillQueryingTime": 3,
        "triggerGCD": true,
        "ignoreGCD": true,
        "castCondition": {
          "pose": [9003]
        }
      },
      "122": {
        "name": "OnAlert_Crossleg",
        "stateIDs": ["Exercise_Alert"],
        "skillType": "OnNerve",
        "skillQueryingTime": 3,
        "triggerGCD": true,
        "ignoreGCD": true,
        "castCondition": {
          "pose": [9003]
        },
        "nerveTrigger": ["HIT"]
      },
      "201": {
        "cd": 6,
        "cdUpperRange": 2.0,
        "name": "MeleeAtk01_01",
        "triggerGCD": true,
        "ignoreGCD": false,
        "skillGroupCDID": 3,
        "skillType": "Combat",
        "flagSelfInZone": "11",
        "stateIDs": ["MeleeAtk01_01", "MeleeAtk01_02", "MeleeAtk01_02_AS"],
        "castCondition": {
          "pickRangeMin": 0.0,
          "pickRangeMax": 5.0,
          "pose": [101, 102]
        }
      },
      // "202":
      // {
      // 	"cd": 6,
      // 	"cdUpperRange": 2.0,
      // 	"name": "MeleeAtk01_02",
      // 	"triggerGCD": true,
      // 	"ignoreGCD": false,
      // 	"skillGroupCDID": 3,
      // 	"skillType": "Combat",
      // 	"flagSelfInZone": "11",
      // 	"stateIDs":
      // 	[
      // 		"MeleeAtk01_02_BS",
      // 		"MeleeAtk01_02",
      // 		"MeleeAtk01_02_AS",
      // 	],
      // 	"castCondition":
      // 	{
      // 		"pickRangeMin": 0.0,
      // 		"pickRangeMax": 3.5,
      // 		"pose": [101,102],
      // 	},
      // },
      "203": {
        "cd": 6,
        "cdUpperRange": 2.0,
        "name": "MeleeAtk01_03",
        "triggerGCD": true,
        "ignoreGCD": false,
        "skillGroupCDID": 3,
        "flagSelfInZone": "11",
        "skillType": "Combat",
        "stateIDs": ["MeleeAtk01_03_BS", "MeleeAtk01_03"],
        "castCondition": {
          "pickRangeMin": 0.0,
          "pickRangeMax": 3.5,
          "pose": [101, 102]
        }
      },
      "211": {
        "cd": 10,
        "cdUpperRange": 2,
        "initialCD": 5,
        "initialCDUpperRange": 2,
        "priority": 2,
        "triggerGCD": true,
        "ignoreGCD": false,
        "name": "MeleeAtk02",
        "skillType": "Combat",
        "stateIDs": ["MeleeAtk02"],
        "castCondition": {
          "pickRangeMin": 5,
          "pickRangeMax": 15,
          "pose": [101, 102]
        }
      },
      "301": {
        "cd": 3,
        "cdUpperRange": 2.0,
        "triggerGCD": false,
        "ignoreGCD": true,
        "name": "Improve_MeleeAtk01_02",
        "skillType": "Combat",
        "flagSelfInZone": "11",
        "stateIDs": [
          "Improve_MeleeAtk01_01",
          "Improve_MeleeAtk01_02",
          "Improve_MeleeAtk01_02_AS"
        ],
        "castCondition": {
          "pickRangeMin": 0.0,
          "pickRangeMax": 8.0,
          "pose": [201]
        }
      },
      "311": {
        "cd": 15,
        "cdUpperRange": 2.0,
        "priority": 2,
        "triggerGCD": true,
        "ignoreGCD": false,
        "skillGroupCDID": 1,
        "name": "Improve_MeleeAttk02",
        "flagSelfInZone": "11",
        "stateIDs": ["Improve_MeleeAtk02"],
        "skillType": "Combat",
        "castCondition": {
          "castRangeMin": 5,
          "castRangeMax": 15,
          "pickRangeMin": 5,
          "pickRangeMax": 15,
          "pose": [201]
        }
      },
      // "302":
      // {
      // 	"cd": 5,
      // 	"cdUpperRange": 2.0,
      // 	"initialCD": 3,
      // 	"triggerGCD": true,
      // 	"ignoreGCD": false,
      // 	"skillGroupCDID": 1,
      // 	"name": "Improve_MeleeAtk01_03",
      // 	"stateIDs":
      // 	[
      // 		"Improve_MeleeAtk01_03_BS",
      // 		"Improve_MeleeAtk01_03",
      // 	],
      // 	"skillType": "Combat",
      // 	"castCondition":
      // 	{
      // 		"pickRangeMin": 0.0,
      // 		"pickRangeMax": 5,
      // 		"pose": [201]
      // 	},
      // },
      "401": {
        "cd": 4,
        "name": "Improve",
        "stateIDs": ["Improve"],
        "triggerCDOnFail": false,
        "triggerGCD": false,
        "ignoreGCD": true,
        "skillType": "Combat",
        "skillQueryingTime": 3,
        "priority": 1,
        "flagSelfInZone": "11",
        "flagSelfOnTemplateCollider": "11",
        "flagTargetReachable": "11",
        "flagTargetInZone": "11",
        "castCondition": {
          "pose": [111]
        }
      },
      "402": {
        "cd": 30,
        "initialCD": 30,
        "name": "Improve",
        "stateIDs": ["Improve"],
        "triggerCDOnFail": false,
        "triggerGCD": false,
        "ignoreGCD": true,
        "skillType": "Combat",
        "skillQueryingTime": 3,
        "priority": 1,
        "flagSelfInZone": "11",
        "flagSelfOnTemplateCollider": "11",
        "flagTargetReachable": "11",
        "flagTargetInZone": "11",
        "castCondition": {
          "pose": [102]
        }
      }
    }
  },
  "inputKeys": [
    {
      // Slash01
      "keyID": 201,
      "inputKeyCode": 258 // 1
    },
    {
      // Slash02
      "keyID": 202,
      "inputKeyCode": 259 // 2
    },
    {
      // Slash02
      "keyID": 203,
      "inputKeyCode": 260 // 3
    },
    {
      // ChargedAttack
      "keyID": 211,
      "inputKeyCode": 261 // 4
    },
    {
      // ChargedAttack
      "keyID": 301,
      "inputKeyCode": 262 // 5
    },
    {
      // ChargedAttack
      "keyID": 302,
      "inputKeyCode": 263 // 6
    },
    {
      // ChargedAttack
      "keyID": 311,
      "inputKeyCode": 264 // 7
    },
    {
      // ChargedAttack
      "keyID": 322,
      "inputKeyCode": 265 // 8
    },
    {
      // ChargedAttack
      "keyID": 401,
      "inputKeyCode": 266 // 8
    }
  ],
  "audio": {
    "$type": "ConfigMonsterAudio",
    "animAudio": {
      "onTransitionOut": [
        {
          "currentStateName": "Exercise",
          "audioEvent": {
            "text": "Stop_sfx_monster_Eremite_Male_Standard_Polearm_exercise"
          },
          "otherStateNames": [],
          "usage": "Any"
        }
      ],
      "onTransitionIn": [
        {
          "currentStateName": "",
          "audioEvent": {
            "text": ""
          },
          "otherStateNames": [],
          "usage": "Any"
        }
      ]
    }
  }
}
