{
  "$type": "ConfigMonster",
  "hasDither": true,
  "common": {
    "effectAttachShape": {
      "$type": "ConfigEffectAttachBox",
      "emitFrom": "Volume", //EmitFrom
      "scaleX": 2.0,
      "scaleY": 3.0,
      "scaleZ": 2.0
    },
    "mass": 1000.0,
    "useGrassDisplacement": true,
    "height": 2.2,
    "viewSize": 1.5,
    "affectedByWorld": true,
    "checkInSurface": true,
    "clearAnimatorOnSetLightDeactive": true,
    "clearAIOnSetLightDeactive": true
  },
  "dither": {
    "showDitherDuration": 2.0,
    "normalBetweenCamera": {
      "detectDitherRange": 5.0
    }
  },
  "model": {
    "canBakeMesh": false
  },
  "billboard": {
    "$type": "ConfigCombatBillboard",
    "offsetType": "Character",
    "offset": {
      "x": 0,
      "y": 2,
      "z": 0
    },
    "radiusOffset": 2.0,
    "enableSelfAdapt": true,
    "showDistance": 48,
    "showHPBar": true,
    "size": "Big"
  },
  "move": {
    "$type": "ConfigAnimatorMove",
    "destroyRockWhenInit": true
  },
  "combat": {
    "property": {
      "weight": 300, //weightLevel = 4
      "endureType": "Monster_Demiboss_Other"
    },
    "combatLock": {
      "denyLockOn": false,
      "lockType": "Avatar&Monster_Lv4"
    },
    "beHit": {
      "hitBloodEffect": "",
      "hitAutoRedirect": false,
      "muteAllHit": false,
      "muteAllHitEffect": false,
      "muteAllHitText": false
    },
    "die": {
      "hasAnimatorDie": true,
      "dieDisappearEffect": "Eff_Death_Common",
      "dieDisappearEffectDelay": 0.0,
      "dieEndTime": 2.0,
      "dieForceDisappearTime": 4,
      "dieShaderData": "MonsterDie",
      "useRagDoll": true,
      "ragDollDieEndTimeDelay": 0.0,
      "muteHitBox": true,
      "dieDenyLockOn": true,
      "dieIsGhostToEnemy": true,
      "dieIgnoreTriggerBullet": true,
      "muteBillboard": true,
      "mutePushCollider": true
    },
    "animEvents": {
      "Discharge": {
        "attackPattern": {
          "$type": "ConfigAttackSphere",
          "triggerType": "TriggerNoRepeat",
          "radius": 6.0,
          "born": {
            "$type": "ConfigBornBySelf"
          }
        },
        "attackInfo": {
          "attackTag": "Apparatus_Enigma_PowerAtk",
          "attackProperty": {
            "damagePercentage": 0.769,
            "strikeType": "None",
            "enbreak": 20
          },
          "hitPattern": {
            "hitImpulseType": "LV1",
            "reboundRatio": 0,
            "hitHaltTime": 0.0,
            "hitHaltTimeScale": 0.05,
            "muteHitText": false
          }
        }
      },
      "Sting": {
        "attackPattern": {
          "$type": "ConfigAttackBox",
          "triggerType": "TriggerNoRepeat",
          "born": {
            "$type": "ConfigBornBySelf",
            "offset": {
              "x": 0.0,
              "y": 1.8,
              "z": 0.0
            }
          },
          "size": {
            "x": 4.4,
            "y": 3.0,
            "z": 3.9
          }
        },
        "attackInfo": {
          "attackTag": "Apparatus_Enigma_PowerAtk",
          "attenuationTag": "Monster_Konungmathr_Attenuation_1",
          "attenuationGroup": "Monster_Konungmathr_Attenuation_1",
          "attackProperty": {
            "damagePercentage": 1.0,
            "strikeType": "Blunt",
            "enBreak": 200.0
          },
          "hitPattern": {
            "onHitEffectName": "default",
            "hitImpulseType": "LV4",
            "retreatType": "ByHitDirection",
            "hitHaltTime": 0.06,
            "hitHaltTimeScale": 0.01,
            "muteHitText": false
          },
          "forceCameraShake": false,
          "cameraShake": {
            "shakeType": "HitVector",
            "shakeRange": 0.12,
            "shakeTime": 0.12,
            "shakeDistance": 25.0,
            "shakeDir": {
              "x": 0,
              "y": 0,
              "z": 1
            }
          }
        }
      }
    }
  },
  "inputKeys": [
    {
      "keyID": 201,
      "inputKeyCode": 257
    },
    {
      "keyID": 211,
      "inputKeyCode": 258
    },
    {
      "keyID": 221,
      "inputKeyCode": 259
    },
    {
      "keyID": 231,
      "inputKeyCode": 260
    },
    {
      "keyID": 101,
      "inputKeyCode": 261
    }
  ],
  "stateLayers": {
    "defaultLayer": {
      "$type": "ConfigNormalStateLayer",
      "stateIDs": {
        "Born": {
          "$type": "ConfigMonsterStateIDInfo",
          "animatorStates": {
            "Born": []
          },
          "combatMove": true,
          "canSyncMove": true,
          "resetAnimatorTriggerOnExit": ["DoSkill"]
        },
        "NormalIdle": {
          "$type": "ConfigMonsterStateIDInfo",
          "animatorStates": {
            "Standby": [],
            "Standby_Machinery": []
          },
          "combatMove": true,
          "canDoSkill": true,
          "canSyncMove": true,
          "resetAnimatorTriggerOnExit": ["DoSkill"]
        },
        "NormalIdle_WeakLoop": {
          "$type": "ConfigMonsterStateIDInfo",
          "animatorStates": {
            "WeakLoop": []
          },
          "combatMove": true,
          "canDoSkill": true,
          "canSyncMove": true,
          "resetAnimatorTriggerOnExit": ["DoSkill"]
        },
        "NormalIdle_PowerOff": {
          "$type": "ConfigMonsterStateIDInfo",
          "animatorStates": {
            "PowerOff": []
          },
          "combatMove": true,
          "canDoSkill": true,
          "canSyncMove": true,
          "resetAnimatorTriggerOnExit": ["DoSkill"]
        },
        "Turn": {
          "$type": "ConfigMonsterStateIDInfo",
          "animatorStates": {
            "Turn": []
          },
          "combatMove": true,
          "canDoSkill": true,
          "canSyncMove": true,
          "resetAnimatorTriggerOnExit": ["BeHit"]
        },
        "NormalMove": {
          "$type": "ConfigMonsterStateIDInfo",
          "animatorStates": {
            "RunBS": ["Audio_Apparatus_BionicNettler_RushBS"],
            "RushLoop": ["Audio_Apparatus_BionicNettler_Rush"],
            "RunAS": ["Audio_Apparatus_BionicNettler_RushBS"]
          },
          "combatMove": true,
          "canDoSkill": true,
          "canSteer": true,
          "canSyncMove": true,
          "resetAnimatorTriggerOnExit": ["DoSkill"]
        },
        "Weak_Start": {
          "$type": "ConfigMonsterStateIDInfo",
          "animatorStates": {
            "Weak_Start": [
              "Monster_Apparatus_Enigma_BionicNettler_WeakStart",
              "Audio_Apparatus_BionicNettler_Weak_Start"
            ]
          },
          "combatMove": true,
          "resetAnimatorTriggerOnEnter": [
            "BeHit",
            "WeakStartTrigger",
            "BreakTrigger"
          ],
          "resetAnimatorTriggerOnExit": ["DoSkill"]
        },
        "Weak_End": {
          "$type": "ConfigMonsterStateIDInfo",
          "animatorStates": {
            "Weak_End": ["Audio_Apparatus_BionicNettler_Weak_End"]
          },
          "combatMove": true,
          "resetAnimatorTriggerOnEnter": ["BeHit"],
          "resetAnimatorTriggerOnExit": ["DoSkill"]
        },
        "Break": {
          "$type": "ConfigMonsterStateIDInfo",
          "animatorStates": {
            "Break": [
              "Monster_Apparatus_Enigma_BionicNettler_Break",
              "Audio_Apparatus_BionicNettler_Break"
            ]
          },
          "combatMove": true,
          "resetAnimatorTriggerOnEnter": ["BeHit", "BreakTrigger"],
          "resetAnimatorTriggerOnExit": ["DoSkill"]
        },
        "Die": {
          "$type": "ConfigMonsterStateIDInfo",
          "animatorStates": {
            "Die_BS": [
              "Monster_Apparatus_Enigma_BionicNettler_Die",
              "Audio_Apparatus_BionicNettler_Die"
            ],
            "WeakDie_BS": [
              "Monster_Apparatus_Enigma_BionicNettler_WeakDie",
              "Audio_Apparatus_BionicNettler_WeakDie"
            ],
            "SwimDie": []
          }
        },
        "Die_RagDoll": {
          "$type": "ConfigMonsterStateIDInfo",
          "animatorStates": {
            "Die": [],
            "WeakDie": []
          },
          "enableRagDoll": true
        },
        "PowerOff_WakeUp": {
          "$type": "ConfigMonsterStateIDInfo",
          "animatorStates": {
            "PowerOff_WakeUp": [
              "Monster_Apparatus_Enigma_BionicNettler_WakeUp",
              "Audio_Apparatus_BionicNettler_PowerOff_WakeUp"
            ]
          },
          "combatMove": true,
          "cullingModelAlwaysAnimate": true,
          "resetAnimatorTriggerOnEnter": ["BeHit"],
          "resetAnimatorTriggerOnExit": ["DoSkill", "LevelEnterBattle"]
        },
        "CounterAtk": {
          "$type": "ConfigMonsterStateIDInfo",
          "animatorStates": {
            "CounterAtk": [
              "Monster_Apparatus_Enigma_BionicNettler_CounterAtk",
              "Audio_Apparatus_BionicNettler_CounterAtk"
            ]
          },
          "combatMove": true,
          "resetAnimatorTriggerOnExit": ["BeHit", "DoSkill"]
        },
        "Discharge": {
          "$type": "ConfigMonsterStateIDInfo",
          "animatorStates": {
            "Discharge": [
              "Monster_Apparatus_Enigma_BionicNettler_DisCharge",
              "Audio_Apparatus_BionicNettler_Discharge"
            ]
          },
          "combatMove": true,
          "resetAnimatorTriggerOnExit": ["BeHit", "DoSkill"]
        },
        "Sting": {
          "$type": "ConfigMonsterStateIDInfo",
          "animatorStates": {
            "Sting": [
              "Monster_Apparatus_Enigma_BionicNettler_Sting",
              "Audio_Apparatus_BionicNettler_Sting"
            ]
          },
          "combatMove": true,
          "resetAnimatorTriggerOnExit": ["BeHit", "DoSkill"]
        },
        // "EnergyLineStart":
        // {
        // 	"$type": "ConfigMonsterStateIDInfo",
        // 	"animatorStates":
        // 	{
        // 		"EnergyLineStart": ["Audio_Apparatus_BionicNettler_EnergyLineStart"],
        // 	},
        // 	"combatMove": true,
        // 	"resetAnimatorTriggerOnExit": ["BeHit", "DoSkill" ],
        // },
        // "EnergyLineSteer":
        // {
        // 	"$type": "ConfigMonsterStateIDInfo",
        // 	"animatorStates":
        // 	{
        // 		"EnergyLineSteer": ["Audio_Apparatus_BionicNettler_RushBS"],
        // 	},
        // 	"combatMove": true,
        // 	"resetAnimatorTriggerOnEnter": ["EnergyLineRushMove"],
        // 	"resetAnimatorTriggerOnExit": ["BeHit", "DoSkill"],
        // },
        "EnergyLineRushMove": {
          "$type": "ConfigMonsterStateIDInfo",
          "animatorStates": {
            "EnergyLineRushMove": [
              "Audio_Apparatus_BionicNettler_EnergyLineRushMove"
            ]
          },
          "combatMove": true,
          "resetAnimatorTriggerOnExit": ["BeHit", "DoSkill"]
        },
        "EnergyLine": {
          "$type": "ConfigMonsterStateIDInfo",
          "animatorStates": {
            "EnergyLine": [
              "Monster_Apparatus_Enigma_BionicNettler_EnergyLine",
              "Audio_Apparatus_BionicNettler_EnergyLine"
            ],
            "EnergyLineAS": ["Audio_Apparatus_BionicNettler_RushBS"]
          },
          "combatMove": true,
          "resetAnimatorTriggerOnEnter": ["NoRushMoveTrigger"],
          "resetAnimatorTriggerOnExit": ["BeHit", "DoSkill"]
        },
        // Machinery
        "Machinery": {
          "$type": "ConfigMonsterStateIDInfo",
          "animatorStates": {
            "Alert_Machinery": [
              "Monster_Apparatus_Enigma_BionicNettler_Alert_Machinery"
            ]
          },
          "cullingModelAlwaysAnimate": true,
          "resetAnimatorTriggerOnEnter": ["BeHit"],
          "resetAnimatorTriggerOnExit": ["DoSkill"]
        }
      }
    }
  },
  "abilities": [
    ///////通用状态
    {
      "abilityName": "AbilityResistStruggle"
    },
    {
      "abilityName": "Monster_Apparatus_Enigma_Born"
    },
    {
      "abilityName": "Monster_Apparatus_Enigma_PowerOff"
    },
    {
      "abilityName": "Monster_Apparatus_Enigma_PowerOff_Remove"
    },
    {
      "abilityName": "Monster_Apparatus_Enigma_Weakness"
    },
    {
      "abilityName": "Monster_Apparatus_Enigma_Weakness_Remove"
    },
    {
      "abilityName": "Monster_Apparatus_Enigma_Break_Remove"
    },
    {
      "abilityName": "Monster_Apparatus_Enigma_Weak"
    },
    {
      "abilityName": "Monster_Apparatus_Enigma_Weak_Effect"
    },
    {
      "abilityName": "Monster_Apparatus_Enigma_Weak_End"
    },
    {
      "abilityName": "Monster_Apparatus_Enigma_ReturnToBorn"
    },
    ///////状态维护
    {
      "abilityName": "Monster_Apparatus_Enigma_BionicNettler_Initialization"
    },
    {
      "abilityName": "Monster_Apparatus_Enigma_BionicNettler_CoreActive"
    },
    ////////CounterAtk
    {
      "abilityName": "Monster_Apparatus_Enigma_BionicNettler_CounterAtk"
    },
    ////////Sting
    {
      "abilityName": "Monster_Apparatus_Enigma_BionicNettler_Sting"
    },
    ///////EnergyLine
    {
      "abilityName": "Monster_Apparatus_Enigma_BionicNettler_EnergyLine_CreateGadget"
    },
    ///////Steer
    {
      "abilityName": "Monster_Apparatus_Enigma_BionicNettler_Steer"
    },
    ///////Machinery
    {
      "abilityName": "Monster_Apparatus_Enigma_Machinery"
    }
  ],
  "initialPoses": {
    "Default": {
      "initialPoseID": 100,
      "initialPoseParams": {
        "boolParams": {
          "PowerOff": "false"
        }
      }
    },
    "PowerOff": {
      "initialPoseID": 101,
      "initialPoseParams": {
        "boolParams": {
          "PowerOff": "true"
        }
      }
    },
    "Machinery": {
      "initialPoseID": 111,
      "initialPoseParams": {
        "boolParams": {
          "Machinery": "true"
        }
      }
    }
  },
  "aibeta": {
    "enable": true,
    "skillGCD": 3.0,
    "profiling": {
      "staticPoses": [101]
    },
    "moveSetting": {
      "almostReachedDistanceWalk": 2.0
    },
    "neurons": {
      "DefaultSetting": ["HIT"],
      "PowerOff_Passive": [],
      "NeverCombat": [],
      "Machinery": []
    },
    "sensing": {
      "settings": {
        "DefaultSetting": {
          "viewRange": 30.0,
          "horizontalFov": 120.0,
          "verticalFov": 120.0,
          "feelRange": 12.0
        },
        "PowerOff_Active": {
          "enableVision": false,
          "feelRange": 8.0
        },
        "PowerOff_Passive": {
          "enableVision": false,
          "feelRange": 0.0,
          "hearAttractionRange": 0.0
        },
        "NeverCombat": {
          "enableVision": false,
          "feelRange": 0.0,
          "hearAttractionRange": 0.0
        },
        "Machinery": {
          "enableVision": false,
          "feelRange": 0.0,
          "hearAttractionRange": 0.0
        }
      },
      "templates": {
        "DefaultTemplate": {
          "DefaultPoses": "DefaultSetting",
          "101": "PowerOff_Active"
        },
        "PowerOff_Passive": {
          "DefaultPoses": "DefaultSetting",
          "101": "PowerOff_Passive"
        },
        "NeverCombatTemplate": {
          "DefaultPoses": "NeverCombat",
          "101": "NeverCombat"
        },
        "Machinery": {
          "DefaultPoses": "DefaultSetting",
          "111": "Machinery"
        }
      }
    },
    "defendArea": {
      "defendRange": 50.0
    },
    "threat": {
      "clearThreatByLostPath": true,
      "clearThreatTimerByLostPath": 10,
      "viewAttenuation": [
        { "x": 10.0, "y": 2.0 },
        { "x": 20.0, "y": 1.0 },
        { "x": 30.0, "y": 0.5 },
        { "x": 50.0, "y": 0.1 }
      ],
      "resistTauntLevel": "Monster_TauntLevel_3"
    },
    "returnToBornTactic": {
      "enable": true,
      "defaultSetting": {
        "speedLevel": 0,
        "fadeoutBeginTime": 1.0,
        "fadeoutEndTime": 3.0
      },
      "specification": {
        "201": {
          "speedLevel": 1,
          "fadeoutBeginTime": 4.0,
          "fadeoutEndTime": 6.0 // b1456390
        }
      }
    },
    "wanderTactic": {
      "enable": true,
      "condition": {
        "pose": [100]
      },
      "defaultSetting": {
        "speedLevel": 1,
        "turnSpeedOverride": 0.25,
        "cdMin": 3.0,
        "cdMax": 5.0,
        "distanceFromBorn": 30.0,
        "distanceFromCurrentMin": 10,
        "distanceFromCurrentMax": 15
      }
    },
    "meleeChargeTactic": {
      "enable": true,
      "condition": {
        "pose": [201, 301]
      },
      "defaultSetting": {
        "speedLevel": 2,
        "stopDistance": 4.0,
        "startDistanceMin": 5.0,
        "startDistanceMax": 99.0,
        "useMeleeSlot": false
      }
    },
    "skills": {
      "101": {
        "name": "OnAlert",
        "stateIDs": [
          "PowerOff_WakeUp",
          "PowerOff_Warning",
          "PowerOff_WarningAS"
        ],
        "skillType": "OnAlert",
        "skillQueryingTime": 3,
        "triggerGCD": false,
        "castCondition": {
          "pose": [101]
        }
      },
      "102": {
        "name": "OnHitAlert",
        "stateIDs": [
          "PowerOff_WakeUp",
          "PowerOff_Warning",
          "PowerOff_WarningAS"
        ],
        "skillType": "OnNerve",
        "skillQueryingTime": 3,
        "triggerGCD": false,
        "castCondition": {
          "pose": [101]
        },
        "nerveTrigger": ["HIT"]
      },
      "111": {
        "cd": 1.0,
        "name": "WeakEnd",
        "stateIDs": ["Weak_End"],
        "ignoreGCD": true,
        "flagSelfInZone": "11",
        "flagTargetReachable": "11",
        "flagSelfOnTemplateCollider": "11",
        "castCondition": {
          "pose": [202]
        }
      },
      // Machinery
      "121": {
        "name": "OnAlert",
        "stateIDs": ["Machinery"],
        "skillType": "OnAlert",
        "skillQueryingTime": 3,
        "triggerGCD": false,
        "castCondition": {
          "pose": [111]
        }
      },
      "201": {
        "cd": 12.0,
        "initialCD": 3.0,
        "publicCDGroup": "Perpetual_Enigma_MeleeAttack",
        "name": "CounterAtk",
        "stateIDs": ["CounterAtk"],
        "castCondition": {
          "pickRangeMin": 0.0,
          "pickRangeMax": 4.0,
          "pose": [201]
        }
      },
      "202": {
        "cd": 999.0,
        "initialCD": 999.0,
        "name": "CounterAtk",
        "stateIDs": ["CounterAtk"],
        "flagSelfInZone": "11",
        "flagTargetReachable": "11",
        "ignoreGCD": true,
        "priority": 1,
        "castCondition": {
          "pose": [301]
        }
      },
      "211": {
        "cd": 12.0,
        "initialCD": 6.0,
        "publicCDGroup": "Perpetual_Enigma_MeleeAttack",
        "name": "DisCharge",
        "stateIDs": ["DisCharge"],
        "castCondition": {
          "pickRangeMin": 0.0,
          "pickRangeMax": 6,
          "pose": [201]
        }
      },
      "212": {
        "cd": 999.0,
        "initialCD": 999.0,
        "name": "DisCharge",
        "stateIDs": ["DisCharge"],
        "flagSelfInZone": "11",
        "flagTargetReachable": "11",
        "ignoreGCD": true,
        "castCondition": {
          "pose": [301]
        }
      },
      "221": {
        "cd": 999.0,
        "initialCD": 999.0,
        "name": "EnergyLine",
        "stateIDs": ["EnergyLine"],
        "flagSelfInZone": "11",
        "flagTargetReachable": "11",
        "ignoreGCD": true,
        "castCondition": {
          "pickRangeMin": 0.0,
          "pickRangeMax": 20,
          "pose": [201]
        }
      },
      "231": {
        "cd": 15.0,
        "cdUpperRange": 3.0,
        "publicCDGroup": "Perpetual_Enigma_MeleeAttack",
        "name": "Sting",
        "stateIDs": ["Sting"],
        "ignoreGCD": true,
        "castCondition": {
          "maxTargetAngleXZ": 180,
          "pickRangeMin": 2.0,
          "pickRangeMax": 10,
          "pose": [201]
        }
      }
    }
  }
}
