{
  "$type": "ConfigMonster",
  "common": {
    "mass": 30.0,
    "height": 0.7,
    "affectedByWorld": true,
    "checkInSurface": true,
    "viewSize": 1,
    "scale": 2,
    "effectAttachShape": {
      "$type": "ConfigEffectAttachSkinnedMesh",
      "mesh": "EffectMesh"
    },
    "canTriggerElementReactionText": false,
    "useGrassDisplacement": true
  },
  "animal": {
    "hasAbility": true,
    "tickAbilityElement": false,
    "hasCharacterRenderering": false
  },
  "dither": {
    "showDitherDuration": 2.0
  },
  "model": {
    "canBakeMesh": false
  },
  "captureGroup": {
    "defaultConfig": {
      "captureEffect": "Eff_SceneObj_CatchAnimal_CaughtSuccess"
    }
  },
  "billboard": {
    "$type": "ConfigCombatBillboard",
    "offsetType": "Character",
    "offset": {
      "x": 0,
      "y": 0.3,
      "z": 0
    },
    "showHPBar": false,
    "shieldBarOnly": true,
    "size": "Small",
    "showDistance": 50
  },
  "globalValue": {
    "serverGlobalValues": ["SGV_STAGE"],
    "initServerGlobalValues": {
      "SGV_STAGE": 1
    }
  },
  "combat": {
    "property": {
      "weight": 40,
      "endureType": "Monster_Minion"
    },
    "combatLock": {
      "denyLockOn": false,
      "lockType": "Animal_Lv2"
    },
    "beHit": {
      "hitBloodEffect": "",
      "muteAllHit": false,
      "muteAllHitEffect": false,
      "muteAllHitText": true
    },
    "die": {
      "fallWhenAirDie": false,
      "dieDisappearEffect": "",
      "dieEndTime": 2.0,
      "dieForceDisappearTime": 10,
      "useRagDoll": false
    }
  },
  /*"move":
	{
		"$type": "ConfigAnimatorMove",
		"velocityForce":
		{
			"excludeForces": ["AirflowType","RiseType","SpeedupType","AirflowAccType"],
		},
	},*/
  "stateLayers": {
    "defaultLayer": {
      "$type": "ConfigNormalStateLayer",
      "stateIDs": {
        "Born": {
          "$type": "ConfigMonsterStateIDInfo",
          "animatorStates": {
            "Born": ["Audio_Pigeon_FlyUp"]
          },
          "combatMove": true,
          "resetAnimatorTriggerOnExit": ["DoSkill"]
        },
        "NormalIdle": {
          "$type": "ConfigMonsterStateIDInfo",
          "animatorStates": {
            "Standby": [],
            "Standby_Aware": []
          },
          "combatMove": true,
          "canDoSkill": true,
          "canSyncMove": true,
          "resetAnimatorTriggerOnExit": ["DoSkill"]
        },
        "NormalMove": {
          "$type": "ConfigMonsterStateIDInfo",
          "animatorStates": {
            "Walk": ["Audio_Pigeon_Walk"]
          },
          "combatMove": true,
          "canDoSkill": true,
          "canSteer": true,
          "canSyncMove": true,
          "resetAnimatorTriggerOnExit": ["DoSkill"]
        },
        "FlyDown": {
          "$type": "ConfigMonsterStateIDInfo",
          "animatorStates": {
            "FlyDown": ["Audio_Pigeon_FlyUp"],
            "Land": ["Audio_Pigeon_Land"],
            "LandToGround": [
              "Animal_Pigeon_LandToGround",
              "Audio_Pigeon_LandToGround"
            ]
          },
          "combatMove": true,
          "canSteer": true,
          "canSyncMove": true,
          "resetAnimatorTriggerOnEnter": ["HitAir2HitDrop"],
          "resetAnimatorTriggerOnExit": ["DoSkill"]
        },
        "FlyUp": {
          "$type": "ConfigMonsterStateIDInfo",
          "animatorStates": {
            "TakeOff": ["Audio_Pigeon_TakeOff"],
            "FlyUp": ["Audio_Pigeon_FlyUp"],
            "Disappear": ["Audio_Pigeon_FlyUp"]
          },
          "combatMove": true,
          "canSteer": true,
          "canSyncMove": true,
          "resetAnimatorTriggerOnExit": ["DoSkill"]
        },
        "BeHit": {
          "$type": "ConfigMonsterStateIDInfo",
          "animatorStates": {
            "Hit_L": ["Audio_Pigeon_LandToGround"]
          },
          "combatMove": true,
          "resetAnimatorTriggerOnEnter": ["BeHit"],
          "resetAnimatorTriggerOnExit": ["DoSkill"]
        },
        "Die": {
          "$type": "ConfigMonsterStateIDInfo",
          "animatorStates": {
            "Die": ["Animal_Pigeon_Die", "Audio_Pigeon_LandToGround"],
            "Die_Disappear": ["Animal_Pigeon_Disappear", "Audio_Pigeon_FlyUp"]
          }
        },
        "Aware": {
          "$type": "ConfigMonsterStateIDInfo",
          "animatorStates": {
            "Aware": []
          },
          "combatMove": true,
          "canDoSkill": true,
          "resetAnimatorTriggerOnExit": ["BeHit", "DoSkill"]
        },
        "Alert": {
          "$type": "ConfigMonsterStateIDInfo",
          "animatorStates": {
            "Alert": [],
            "Alert_Scared": ["Audio_Pigeon_LandToGround"]
          },
          "combatMove": true,
          "canDoSkill": true,
          "resetAnimatorTriggerOnExit": ["BeHit", "DoSkill"]
        },
        "ToWander": {
          "$type": "ConfigMonsterStateIDInfo",
          "animatorStates": {
            "ToWander": ["Animal_Pigeon_ToWander"]
          },
          "combatMove": true,
          "canDoSkill": true,
          "resetAnimatorTriggerOnExit": ["BeHit", "DoSkill"]
        },
        "ToIdle": {
          "$type": "ConfigMonsterStateIDInfo",
          "animatorStates": {
            "ToIdle": ["Animal_Pigeon_ToIdle"]
          },
          "combatMove": true,
          "canDoSkill": true,
          "resetAnimatorTriggerOnExit": ["BeHit", "DoSkill"]
        },
        "Personality_101": {
          "$type": "ConfigMonsterStateIDInfo",
          "animatorStates": {
            "Personality_101": []
          },
          "combatMove": true,
          "canDoSkill": true,
          "resetAnimatorTriggerOnExit": ["BeHit", "DoSkill"]
        },
        "Personality_102": {
          "$type": "ConfigMonsterStateIDInfo",
          "animatorStates": {
            "Personality_102": ["Audio_Pigeon_Personality_102"]
          },
          "combatMove": true,
          "canDoSkill": true,
          "resetAnimatorTriggerOnExit": ["BeHit", "DoSkill"]
        },
        "Personality_103": {
          "$type": "ConfigMonsterStateIDInfo",
          "animatorStates": {
            "Personality_103": ["Audio_Pigeon_Personality_103"]
          },
          "combatMove": true,
          "canDoSkill": true,
          "resetAnimatorTriggerOnExit": ["BeHit", "DoSkill"]
        },
        "Personality_104": {
          "$type": "ConfigMonsterStateIDInfo",
          "animatorStates": {
            "Personality_104": ["Audio_Pigeon_LandToGround"]
          },
          "combatMove": true,
          "canDoSkill": true,
          "resetAnimatorTriggerOnExit": ["BeHit", "DoSkill"]
        },
        "Attract": {
          "$type": "ConfigMonsterStateIDInfo",
          "animatorStates": {
            "Attract": [""]
          },
          "canDoSkill": true,
          "resetAnimatorTriggerOnExit": ["BeHit", "DoSkill"]
        },
        "Search": {
          "$type": "ConfigMonsterStateIDInfo",
          "animatorStates": {
            "Search": [""]
          },
          "canDoSkill": true,
          "resetAnimatorTriggerOnExit": ["BeHit", "DoSkill"]
        }
      }
    }
  },
  "abilities": [
    // {
    // 	"abilityID": "CommonInitial",
    // 	"abilityName": "Animal_Common_Initial",
    // },
    {
      "abilityID": "AIStateInitial",
      "abilityName": "Animal_Pigeon_AIStateInitial"
    },
    {
      "abilityID": "Random",
      "abilityName": "Animal_Pigeon_Random"
    },
    {
      "abilityID": "FlyDown",
      "abilityName": "Animal_Pigeon_FlyDown"
    },
    {
      "abilityID": "FlyUp",
      "abilityName": "Animal_Pigeon_FlyUp"
    },
    {
      "abilityID": "ToWander",
      "abilityName": "Animal_Pigeon_ToWander"
    },
    {
      "abilityID": "ToIdle",
      "abilityName": "Animal_Pigeon_ToIdle"
    },
    // {
    // 	"abilityID": "Disappear",
    // 	"abilityName": "Animal_Pigeon_Disappear",
    // },
    {
      "abilityID": "Bird_Feather",
      "abilityName": "Animal_Pigeon_FlyEffect"
    },
    {
      "abilityName": "Animal_Boar_Hunt_BeCaptured_Disappear"
    },
    {
      "abilityName": "Animal_Hunt_Sneak_Attract_Effect"
    },
    {
      "abilityName": "Animal_Hunt_AlertHideBillboard"
    },
    {
      "abilityName": "Animal_Boar_Hunt_Flee_Disappear"
    }
  ],
  "initialPoses": {
    "Default": {
      "initialPoseID": 0
    },
    "FlyDown": {
      "initialPoseID": 901,
      "initialPoseParams": {
        "boolParams": {
          "FlyState": "true"
        }
      }
    },
    "Idle": {
      "initialPoseID": 2,
      "initialPoseParams": {
        "boolParams": {
          "FlyState": "false",
          "WanderState": "false"
        }
      }
    },
    "OnRoof": {
      "initialPoseID": 3,
      "initialPoseParams": {
        "boolParams": {
          "FlyState": "false",
          "RoofState": "true"
        }
      }
    },
    "Hunt_Sneak": {
      "initialPoseID": 1001,
      "initialPoseParams": {
        "boolParams": {
          "HuntSneak": "true"
        }
      }
    }
  },
  "aibeta": {
    "enable": true,
    //"friendliness": 1,
    "profiling": {
      "lodStrategy": "MinorAnimal"
    },
    "skillGCD": 2.5,
    "moveSetting": {
      "useNavMesh": false
    },
    "sensing": {
      "settings": {
        "DefaultSetting": {
          "enableVision": true,
          "viewRange": 11,
          "feelRange": 9,
          "hearAttractionRange": 8
        }
      }
    },
    "neurons": {
      "DefaultSetting": ["HIT", "WEATHER_BAD", "FEAR"],
      "NoWeatherBad": ["HIT"]
    },
    "defendArea": {
      "defendRange": 100.0
    },
    "threat": {
      "clearThreatTargetDistance": 50.0,
      "viewThreatGrow": 42,
      "feelThreatGrow": 72,
      "threatDecreaseSpeed": 100,
      "viewAttenuation": [
        { "x": 10.0, "y": 1.0 },
        { "x": 20.0, "y": 1 }
      ]
    },
    "fly": {
      "enable": true,
      "floatingPoses": [903]
    },
    "landingTactic": {
      "enable": false,
      "condition": {
        "pose": [901]
      },
      "defaultSetting": {
        "speedLevel": 2,
        "landingAngleMin": 40,
        "landingAngleMax": 40,
        "landingTerrainAltitude": 4.75
      }
    },
    "wanderTactic": {
      "enable": false,
      "condition": {
        "pose": [1, 1001]
      },
      "defaultSetting": {
        "speedLevel": 1,
        "turnSpeedOverride": 0.25,
        "cdMin": 0.0,
        "cdMax": 0.0,
        "distanceFromBorn": 5.0,
        "distanceFromCurrentMin": 2.0,
        "distanceFromCurrentMax": 3.0
      }
    },
    "moveToSpecialAlertTargetTactic": {
      "enable": true,
      "condition": {
        "pose": [1001]
      },
      "defaultSetting": {
        "beginActionWaitTime": 1.5,
        "decreaseTemperFactor": 30,
        "useArrivedSearchAction": true
      }
    },
    "fleeTactic": {
      "enable": false,
      "condition": {
        "pose": [2, 903]
      },
      //"nerveTrigger": ["HIT"],
      "defaultSetting": {
        "turnSpeedOverride": 1,
        "speedLevel": 2,
        "cd": 2.5,
        "triggerDistance": 100,
        "fleeAngle": 105,
        "fleeNumberMin": 5,
        "fleeNumberMax": 6,
        "fleeDistanceMin": 4,
        "fleeDistanceMax": 6,
        "restrictedByDefendArea": true
      }
    },
    "extractionTactic": {
      "enable": true,
      "condition": {
        "pose": [903]
      },
      "defaultSetting": {
        "speedLevel": 2,
        "extractionDistance": 30,
        "extractionAngleMin": 30,
        "extractionAngleMax": 45,
        "triggerDistance": 200
      }
    },
    "ui": {
      "hasDirectionIndicator": false
    },
    "skills": {
      "1": {
        "name": "OnAware",
        "stateIDs": ["Aware"],
        "skillType": "OnAware",
        "skillQueryingTime": 3,
        "triggerGCD": false
      },
      //3.1捕猎活动入战
      "2222": {
        "name": "OnAlert",
        "stateIDs": ["Alert"],
        "skillType": "OnAlert",
        "skillQueryingTime": 3,
        "faceTarget": false,
        "triggerGCD": false
      },
      "101": {
        "cd": 15.0,
        "cdUpperRange": 25.0,
        "initialCD": 2.5,
        "initialCDUpperRange": 5.0,
        "name": "Personality_101",
        "stateIDs": ["Personality_101"],
        "skillType": "Free",
        "castCondition": {
          "pose": [2]
        }
      },
      "102": {
        "cd": 15.0,
        "cdUpperRange": 25.0,
        "initialCD": 2.5,
        "initialCDUpperRange": 5.0,
        "name": "Personality_102",
        "stateIDs": ["Personality_102"],
        "skillType": "Free",
        "castCondition": {
          "pose": [2]
        }
      },
      "103": {
        "cd": 15.0,
        "cdUpperRange": 25.0,
        "initialCD": 2.5,
        "initialCDUpperRange": 5.0,
        "name": "Personality_103",
        "stateIDs": ["Personality_103"],
        "skillType": "Free",
        "castCondition": {
          "pose": [2]
        }
      },
      // "104":
      // {
      // 	"cd": 15.0,
      // 	"cdUpperRange": 25.0,
      // 	"initialCD": 2.5,
      // 	"initialCDUpperRange": 5.0,
      // 	"name": "Personality_104",
      // 	"stateIDs": ["Personality_104"],
      // 	"skillType": "Free",
      // 	"castCondition":
      // 	{
      // 		"pose": [2],
      // 	},
      // },
      "201": {
        "priority": 1,
        "cd": 7.5,
        "cdUpperRange": 7.5,
        "initialCD": 7.5,
        "initialCDUpperRange": 12.5,
        "name": "ToWander",
        "stateIDs": ["ToWander"],
        "skillType": "Free",
        "castCondition": {
          "pose": [2]
        }
      },
      "202": {
        "priority": 1,
        "cd": 2,
        "cdUpperRange": 4,
        "initialCD": 2,
        "initialCDUpperRange": 4,
        "name": "ToIdle",
        "stateIDs": ["ToIdle"],
        "skillType": "Free",
        "castCondition": {
          "pose": [1]
        }
      }
    }
  }
}
