{
  "$type": "ConfigMonster",
  "headControl": {
    "$type": "ConfigHeadControl",
    "useHeadControl": true,
    "maxYawDegree": 60,
    "maxPitchDegree": 30,
    "animStates": [
      "NormalIdle/Standby",
      "NormalMove/WalkForward",
      "NormalMove/WalkBack",
      "NormalMove/WalkRight",
      "NormalMove/WalkLeft",
      "NormalMove/Run",
      "Turn/TurnLeft",
      "Turn/TurnRight"
    ]
  },
  "common": {
    "effectAttachShape": {
      "$type": "ConfigEffectAttachSkinnedMesh",
      "mesh": "EffectMesh"
    },
    "mass": 30.0,
    "height": 1.7,
    "modelHeight": 1.7,
    "viewSize": 1.1,
    "scale": 1.1,
    "useGrassDisplacement": true,
    "affectedByWorld": true,
    "checkInSurface": true,
    "clearAnimatorOnSetLightDeactive": true,
    "clearAIOnSetLightDeactive": true,
    "recoverByInitPose": true
  },
  "move": {
    "$type": "ConfigAnimatorMove",
    "facingMove": "FourDirection",
    "monsterSizeType": "StoopType"
  },
  "model": {
    "bornEffect": "Eff_Monster_Common_Born"
  },
  "dither": {
    "showDitherDuration": 1.0
  },
  "equipController": {
    "attachPoints": {
      "equip01": "WeaponR",
      "equip02": "WeaponL"
    },
    "sheathPoint": ""
  },
  "billboard": {
    "$type": "ConfigCombatBillboard",
    "offsetType": "Character",
    "offset": {
      "x": -0.05,
      "y": 0,
      "z": 0
    },
    "showHPBar": true,
    "radiusOffset": 0.25,
    "size": "Normal"
  },
  "combat": {
    "property": {
      "weight": 70, //weightLevel = 2
      "endureType": "Monster_Minion",
      "endureShake": 0
    },
    "combatLock": {
      "denyLockOn": false,
      "lockType": "Avatar&Monster_Lv4"
    },
    "beHit": {
      "hitBloodEffect": "",
      "muteAllHit": false,
      "muteAllHitEffect": false,
      "muteAllHitText": false
    },
    "die": {
      "hasAnimatorDie": true,
      "dieDisappearEffect": "Eff_Death_Sand_Eremite",
      "dieShaderData": "EremiteSandDie",
      "dieShaderEnableDurationTime": 1.0,
      "dieEndTime": 2.0,
      "dieForceDisappearTime": 8.0,
      "useRagDoll": true,
      "ragDollDieEndTimeDelay": 8.0,
      "muteHitBox": true,
      "dieDenyLockOn": true,
      "dieIsGhostToEnemy": true,
      "dieIgnoreTriggerBullet": true,
      "muteBillboard": true,
      "mutePushCollider": true
    },

    // d88888b db    db d88888b d8b   db d888888b
    // 88'     88    88 88'     888o  88 `~~88~~'
    // 88ooooo Y8    8P 88ooooo 88V8o 88    88
    // 88~~~~~ `8b  d8' 88~~~~~ 88 V8o88    88
    // 88.      `8bd8'  88.     88  V888    88
    // Y88888P    YP    Y88888P VP   V8P    YP
    "animEvents": {}
  },
  "stateLayers": {
    "defaultLayer": {
      "$type": "ConfigNormalStateLayer",
      "stateIDs": {
        // db    db d8b   db d888888b db    db
        // 88    88 888o  88   `88'   88    88
        // 88    88 88V8o 88    88    Y8    8P
        // 88    88 88 V8o88    88    `8b  d8'
        // 88b  d88 88  V888   .88.    `8bd8'
        // ~Y8888P' VP   V8P Y888888P    YP
        "NormalIdle": {
          "$type": "ConfigMonsterStateIDInfo",
          "animatorStates": {
            "Standby": []
          },
          "canDoSkill": true,
          "canSyncMove": true,
          "resetAnimatorTriggerOnExit": ["DoSkill"]
        },
        "NormalBorn": {
          "$type": "ConfigMonsterStateIDInfo",
          "animatorStates": {
            "Born": []
          },
          "canDoSkill": true,
          "resetAnimatorTriggerOnExit": ["DoSkill"]
        },
        "NormalMove": {
          "$type": "ConfigMonsterStateIDInfo",
          "animatorStates": {
            "WalkForward": [
              "Audio_Monste_Eremite_Male_Standard_Crossbow_01_walk"
            ],
            "WalkBack": ["Audio_Monste_Eremite_Male_Standard_Crossbow_01_walk"],
            "WalkRight": [
              "Audio_Monste_Eremite_Male_Standard_Crossbow_01_walk"
            ],
            "WalkLeft": ["Audio_Monste_Eremite_Male_Standard_Crossbow_01_walk"],
            "Run": ["Audio_Monste_Eremite_Male_Standard_Crossbow_01_run"]
          },
          "canDoSkill": true,
          "canSteer": true,
          "canSyncMove": true,
          "resetAnimatorTriggerOnExit": ["DoSkill"]
        },
        "Turn": {
          "$type": "ConfigMonsterStateIDInfo",
          "animatorStates": {
            "TurnLeft": ["Audio_Monste_Eremite_Male_Standard_Crossbow_01_walk"],
            "TurnRight": ["Audio_Monste_Eremite_Male_Standard_Crossbow_01_walk"]
          },
          "canDoSkill": true,
          "canSteer": true,
          "autoSteer": false,
          "canSyncMove": true,
          "resetAnimatorTriggerOnExit": ["DoSkill"]
        },
        "BeHit": {
          "$type": "ConfigMonsterStateIDInfo",
          "animatorStates": {
            "Hit_L": [],
            "Hit_H": ["Audio_Monste_Eremite_Male_Standard_Crossbow_01_hit_H"]
          },
          "resetAnimatorTriggerOnEnter": ["BeHit"],
          "resetAnimatorTriggerOnExit": ["DoSkill"]
        },
        "BeHitThrow": {
          "$type": "ConfigMonsterStateIDInfo",
          "animatorStates": {
            "HitThrow": [],
            "HitThrowDrop": []
          },
          "resetAnimatorTriggerOnEnter": ["BeHit", "HitAir2HitDrop"],
          "resetAnimatorTriggerOnExit": ["DoSkill", "BeHit"],
          "setAnimatorBoolean": [
            {
              "$type": "ConfigAnimatorBoolean",
              "name": "AirDie"
            }
          ]
        },
        "BeHitThrowToStandby": {
          "$type": "ConfigMonsterStateIDInfo",
          "animatorStates": {
            "HitThrowToGround": [
              "Audio_Monste_Eremite_Male_Standard_Crossbow_01_hitthrowtoground"
            ]
          },
          "resetAnimatorTriggerOnEnter": ["BeHit", "HitAir2HitDrop"],
          "resetAnimatorTriggerOnExit": ["DoSkill", "BeHit"],
          "setAnimatorBoolean": [
            {
              "$type": "ConfigAnimatorBoolean",
              "name": "AirDie",
              "normalizeEnd": 0.5
            }
          ]
        },
        "Struggle": {
          "$type": "ConfigMonsterStateIDInfo",
          "animatorStates": {
            "Struggle": []
          },
          "resetAnimatorTriggerOnEnter": ["BeHit", "HitAir2HitDrop"],
          "resetAnimatorTriggerOnExit": ["DoSkill"]
        },

        // d8888b. d888888b d88888b
        // 88  `8D   `88'   88'
        // 88   88    88    88ooooo
        // 88   88    88    88~~~~~
        // 88  .8D   .88.   88.
        // Y8888D' Y888888P Y88888P
        "Die": {
          "$type": "ConfigMonsterStateIDInfo",
          "animatorStates": {
            "Die1": [
              "Monster_Eremite_Crossbow_Die",
              "Audio_Monste_Eremite_Male_Standard_Crossbow_01_die"
            ],
            "Die2": [
              "Monster_Eremite_Crossbow_Die",
              "Audio_Monste_Eremite_Male_Standard_Crossbow_01_die"
            ],
            "SwimDie_BS": [],
            "SwimDie": ["Monster_Eremite_SwimDie"],
            "SwimDie_AS": []
          }
        },
        "Die_RagDoll": {
          "$type": "ConfigMonsterStateIDInfo",
          "animatorStates": {
            "AirDie": ["Monster_Eremite_AirDie"]
          },
          "enableRagDoll": true
        },

        // d8888b.  .d8b.  d888888b d888888b db      d88888b
        // 88  `8D d8' `8b `~~88~~' `~~88~~' 88      88'
        // 88oooY' 88ooo88    88       88    88      88ooooo
        // 88~~~b. 88~~~88    88       88    88      88~~~~~
        // 88   8D 88   88    88       88    88booo. 88.
        // Y8888P' YP   YP    YP       YP    Y88888P Y88888P

        "Alert": {
          "$type": "ConfigMonsterStateIDInfo",
          "animatorStates": {
            "Alert": [
              "Monster_Eremite_Crossbow_ShowWeapon",
              "Monster_Eremite_Clear_FreePoseMark",
              "Audio_Monste_Eremite_Male_Standard_Crossbow_01_rapidshoot_alert"
            ]
          },
          "addEndure": 0,
          "resetAnimatorTriggerOnExit": ["BeHit", "DoSkill"]
        },
        "Crossleg_Alert": {
          "$type": "ConfigMonsterStateIDInfo",
          "animatorStates": {
            "CrosslegAlert": [
              "Monster_Eremite_Crossbow_ShowWeapon_SpecialAlert",
              "Monster_Eremite_Clear_FreePoseMark",
              "Audio_Monste_Eremite_Male_Standard_Crossbow_01_crosslegalert"
            ]
          },
          "addEndure": 0,
          "resetAnimatorTriggerOnExit": ["BeHit", "DoSkill"]
        },
        "SheathWeapon": {
          "$type": "ConfigMonsterStateIDInfo",
          "animatorStates": {
            "SheathWeapon": [
              "Monster_Eremite_Crossbow_SheathWeapon",
              "Audio_Monste_Eremite_Male_Standard_Crossbow_01_sheathweapon"
            ]
          },
          "canDoSkill": false,
          "resetAnimatorTriggerOnExit": ["BeHit", "DoSkill"]
        },

        // .d8888. d888888b d8b   db  d888b  db      d88888b
        // 88'  YP   `88'   888o  88 88' Y8b 88      88'
        // `8bo.      88    88V8o 88 88      88      88ooooo
        //   `Y8b.    88    88 V8o88 88  ooo 88      88~~~~~
        // db   8D   .88.   88  V888 88. ~8~ 88booo. 88.
        // `8888Y' Y888888P VP   V8P  Y888P  Y88888P Y88888P
        "SingleShoot_Aim": {
          "$type": "ConfigMonsterStateIDInfo",
          "animatorStates": {
            "SingleShoot_Aim": [
              "Audio_Monste_Eremite_Male_Standard_Crossbow_01_rapidshoot_aim01"
            ]
          },
          "resetAnimatorTriggerOnExit": ["BeHit", "DoSkill"]
        },
        "SingleShoot_Fire": {
          "$type": "ConfigMonsterStateIDInfo",
          "animatorStates": {
            "SingleShoot_Fire": [
              "Monster_Eremite_Crossbow_SingleShoot_Fire",
              "Audio_Monste_Eremite_Male_Standard_Crossbow_01_projectshoot_fire01"
            ]
          },
          "resetAnimatorTriggerOnExit": ["BeHit", "DoSkill"]
        },
        "SingleShoot_Exit": {
          "$type": "ConfigMonsterStateIDInfo",
          "animatorStates": {
            "SingleShoot_Exit": [
              "Audio_Monste_Eremite_Male_Standard_Crossbow_01_projectshoot_fire01"
            ]
          },
          "resetAnimatorTriggerOnExit": ["BeHit", "DoSkill"]
        },

        "FastShoot_BS": {
          "$type": "ConfigMonsterStateIDInfo",
          "animatorStates": {
            "FastShoot_BS": [
              "Audio_Monste_Eremite_Male_Standard_Crossbow_01_rapidshoot_aim01"
            ]
          },
          "resetAnimatorTriggerOnExit": ["BeHit", "DoSkill"]
        },
        "FastShoot": {
          "$type": "ConfigMonsterStateIDInfo",
          "animatorStates": {
            "FastShoot": [
              "Monster_Eremite_Crossbow_SingleShoot_Fire",
              "Audio_Monste_Eremite_Male_Standard_Crossbow_01_projectshoot_fire01"
            ]
          },
          "resetAnimatorTriggerOnExit": ["BeHit", "DoSkill"]
        },

        // d8888b.  .d8b.  d8888b. d888888b d8888b.
        // 88  `8D d8' `8b 88  `8D   `88'   88  `8D
        // 88oobY' 88ooo88 88oodD'    88    88   88
        // 88`8b   88~~~88 88~~~      88    88   88
        // 88 `88. 88   88 88        .88.   88  .8D
        // 88   YD YP   YP 88      Y888888P Y8888D'
        "RapidShoot_BS": {
          "$type": "ConfigMonsterStateIDInfo",
          "animatorStates": {
            "RapidShoot_BS": [
              "Audio_Monste_Eremite_Male_Standard_Crossbow_01_Rapidshoot_BS"
            ]
          },
          "resetAnimatorTriggerOnExit": [
            "BeHit",
            "DoSkill",
            "RapidShootEndTrigger"
          ]
        },
        "RapidShoot_Loop": {
          "$type": "ConfigMonsterStateIDInfo",
          "animatorStates": {
            "RapidShoot_Aim": [
              "Audio_Monste_Eremite_Male_Standard_Crossbow_01_rapidshoot_aim01"
            ],
            "RapidShoot_Fire": [
              "Monster_Eremite_Crossbow_RapidShoot_Fire",
              "Audio_Monste_Eremite_Male_Standard_Crossbow_01_rapidshoot_fire"
            ]
          },
          "resetAnimatorTriggerOnExit": ["BeHit", "DoSkill"]
        },
        "RapidShoot_AS": {
          "$type": "ConfigMonsterStateIDInfo",
          "animatorStates": {
            "RapidShoot_AS": [
              "Audio_Monste_Eremite_Male_Standard_Crossbow_01_rapidshoot_AS"
            ]
          },
          "resetAnimatorTriggerOnExit": [
            "BeHit",
            "DoSkill",
            "RapidShootEndTrigger"
          ]
        },
        "RapidShoot_AS_Loaded": {
          "$type": "ConfigMonsterStateIDInfo",
          "animatorStates": {
            "RapidShoot_AS_Loaded": []
          },
          "resetAnimatorTriggerOnExit": [
            "BeHit",
            "DoSkill",
            "RapidShootEndTrigger"
          ]
        },
        // d8888b. d88888b d8b   db d8888b. d8888b.  .d88b.
        // 88  `8D 88'     888o  88 88  `8D 88  `8D .8P  Y8.
        // 88   88 88ooooo 88V8o 88 88   88 88oobY' 88    88
        // 88   88 88~~~~~ 88 V8o88 88   88 88`8b   88    88
        // 88  .8D 88.     88  V888 88  .8D 88 `88. `8b  d8'
        // Y8888D' Y88888P VP   V8P Y8888D' 88   YD  `Y88P'
        "ProjectileShoot_Load": {
          "$type": "ConfigMonsterStateIDInfo",
          "animatorStates": {
            "ProjectileShoot_Load": [
              "Monster_Eremite_Crossbow_ProjectileShoot_Load",
              "Audio_Monste_Eremite_Male_Standard_Crossbow_01_rapidshoot_AS_loaded"
            ]
          },
          "resetAnimatorTriggerOnExit": ["BeHit", "DoSkill"]
        },
        "ProjectileShoot_Aim01": {
          "$type": "ConfigMonsterStateIDInfo",
          "animatorStates": {
            "ProjectileShoot_Aim01": [
              "Audio_Monste_Eremite_Male_Standard_Crossbow_01_rapidshoot_aim01"
            ]
          },
          "resetAnimatorTriggerOnExit": ["BeHit", "DoSkill"]
        },
        "ProjectileShoot_Aim02": {
          "$type": "ConfigMonsterStateIDInfo",
          "animatorStates": {
            "ProjectileShoot_Aim02": [
              "Audio_Monste_Eremite_Male_Standard_Crossbow_01_rapidshoot_aim02"
            ]
          },
          "resetAnimatorTriggerOnExit": ["BeHit", "DoSkill"]
        },
        "ProjectileShoot_Fire01": {
          "$type": "ConfigMonsterStateIDInfo",
          "animatorStates": {
            "ProjectileShoot_Fire01": [
              "Monster_Eremite_Crossbow_ProjectileShoot_Fire_Hov",
              "Audio_Monste_Eremite_Male_Standard_Crossbow_01_projectshoot_fire01"
            ]
          },
          "resetAnimatorTriggerOnExit": [
            "BeHit",
            "DoSkill",
            "ProjectileTrigger"
          ]
        },
        "ProjectileShoot_Fire02": {
          "$type": "ConfigMonsterStateIDInfo",
          "animatorStates": {
            "ProjectileShoot_Fire02": [
              "Monster_Eremite_Crossbow_ProjectileShoot_Fire",
              "Audio_Monste_Eremite_Male_Standard_Crossbow_01_projectshoot_fire02"
            ]
          },
          "resetAnimatorTriggerOnExit": [
            "BeHit",
            "DoSkill",
            "ProjectileTrigger"
          ]
        },

        // d88888b d8888b. d88888b d88888b      d8888b.  .d88b.  .d8888. d88888b
        // 88'     88  `8D 88'     88'          88  `8D .8P  Y8. 88'  YP 88'
        // 88ooo   88oobY' 88ooooo 88ooooo      88oodD' 88    88 `8bo.   88ooooo
        // 88~~~   88`8b   88~~~~~ 88~~~~~      88~~~   88    88   `Y8b. 88~~~~~
        // 88      88 `88. 88.     88.          88      `8b  d8' db   8D 88.
        // YP      88   YD Y88888P Y88888P      88       `Y88P'  `8888Y' Y88888P
        "FreePose_HoldArm_Idle": {
          "$type": "ConfigMonsterStateIDInfo",
          "animatorStates": {
            "HoldArm_Idle": []
          },
          "canDoSkill": true,
          "resetAnimatorTriggerOnExit": ["BeHit", "DoSkill"]
        },
        "FreePose_Downcast_Idle": {
          "$type": "ConfigMonsterStateIDInfo",
          "animatorStates": {
            "Downcast_Idle": []
          },
          "canDoSkill": true,
          "resetAnimatorTriggerOnExit": ["BeHit", "DoSkill"]
        },
        "FreePose_LeanOnWall_Idle": {
          "$type": "ConfigMonsterStateIDInfo",
          "animatorStates": {
            "LeanOnWall_Idle": []
          },
          "canDoSkill": true,
          "resetAnimatorTriggerOnExit": ["BeHit", "DoSkill"]
        },
        "FreePose_Arrange_Idle": {
          "$type": "ConfigMonsterStateIDInfo",
          "animatorStates": {
            "Arrange_Idle": []
          },
          "canDoSkill": true,
          "resetAnimatorTriggerOnExit": ["BeHit", "DoSkill"]
        },
        "FreePose_Investigate_Idle": {
          "$type": "ConfigMonsterStateIDInfo",
          "animatorStates": {
            "Investigate_Idle": []
          },
          "canDoSkill": true,
          "resetAnimatorTriggerOnExit": ["BeHit", "DoSkill"]
        },
        "FreePose_StandingTalk_Idle": {
          "$type": "ConfigMonsterStateIDInfo",
          "animatorStates": {
            "StandingTalk_Idle": []
          },
          "canDoSkill": true,
          "resetAnimatorTriggerOnExit": ["BeHit", "DoSkill"]
        },
        "FreePose_StandingTalk_Skill": {
          "$type": "ConfigMonsterStateIDInfo",
          "animatorStates": {
            "StandingTalk01_Skill": [],
            "StandingTalk02_Skill": [],
            "StandingTalk03_Skill": []
          },
          "canDoSkill": true,
          "resetAnimatorTriggerOnExit": ["BeHit", "DoSkill"]
        },

        // 所有盘腿坐共用这个StateID
        "FreePose_Crossleg_Idle": {
          "$type": "ConfigMonsterStateIDInfo",
          "animatorStates": {
            "Crossleg_Idle": []
          },
          "canDoSkill": true,
          "resetAnimatorTriggerOnExit": ["BeHit", "DoSkill"]
        },

        "FreePose_Crossleg_Chat_Skill": {
          "$type": "ConfigMonsterStateIDInfo",
          "animatorStates": {
            "Crossleg_Chat01_Skill": [
              "Audio_Monste_Eremite_Male_Standard_Crossbow_01_chat01"
            ],
            "Crossleg_Chat02_Skill": [
              "Audio_Monste_Eremite_Male_Standard_Crossbow_01_chat02"
            ]
          },
          "canDoSkill": true,
          "resetAnimatorTriggerOnExit": ["BeHit", "DoSkill"]
        },
        "FreePose_Crossleg_Drink_Skill": {
          "$type": "ConfigMonsterStateIDInfo",
          "animatorStates": {
            "Crossleg_Drink_Skill_01": [
              "Audio_Monste_Eremite_Male_Standard_Crossbow_01_drink"
            ],
            "Crossleg_Drink_Skill_02": [],
            "Crossleg_Drink_Skill_03": ["Monster_Eremite_Drinking_WaterDrop"],
            "Crossleg_Drink_Skill_04": [],
            "Crossleg_Drink_Skill_05": []
          },
          "canDoSkill": true,
          "resetAnimatorTriggerOnExit": ["BeHit", "DoSkill"]
        },
        "FreePose_Crossleg_Sleeping_Skill": {
          "$type": "ConfigMonsterStateIDInfo",
          "animatorStates": {
            "Crossleg_Sleeping_Skill": []
          },
          "canDoSkill": true,
          "resetAnimatorTriggerOnExit": ["BeHit", "DoSkill"]
        },

        "FreePose_Crossleg_Gambling_Bet_Skill": {
          "$type": "ConfigMonsterStateIDInfo",
          "animatorStates": {
            "Crossleg_Gambling_Bet_Skill": [
              "Audio_Monste_Eremite_Male_Standard_Crossbow_Gamebling_bet"
            ]
          },
          "canDoSkill": true,
          "resetAnimatorTriggerOnExit": ["BeHit", "DoSkill"]
        },
        "FreePose_Crossleg_Gambling_Roll": {
          "$type": "ConfigMonsterStateIDInfo",
          "animatorStates": {
            "Crossleg_Gambling_Roll": [
              "Monster_Eremite_Gambling_GetResult",
              "Audio_Monste_Eremite_Male_Standard_Crossbow_Gamebling_Roll"
            ]
          },
          "canDoSkill": true,
          "resetAnimatorTriggerOnExit": ["BeHit", "DoSkill"]
        },
        "FreePose_Crossleg_Gambling_Lose": {
          "$type": "ConfigMonsterStateIDInfo",
          "animatorStates": {
            "Crossleg_Gambling_Lose": [
              "Audio_Monste_Eremite_Male_Standard_Crossbow_01_gambling_lose"
            ]
          },
          "canDoSkill": true,
          "resetAnimatorTriggerOnExit": ["BeHit", "DoSkill"]
        },
        "FreePose_Crossleg_Gambling_Win": {
          "$type": "ConfigMonsterStateIDInfo",
          "animatorStates": {
            "Crossleg_Gambling_Win": [
              "Audio_Monste_Eremite_Male_Standard_Crossbow_01_gambling_win"
            ]
          },
          "canDoSkill": true,
          "resetAnimatorTriggerOnExit": ["BeHit", "DoSkill"]
        },
        "FreePose_Crossleg_PlayDaff_Idle": {
          "$type": "ConfigMonsterStateIDInfo",
          "animatorStates": {
            "Crossleg_PlayDaff_Idle": []
          },
          "canDoSkill": true,
          "resetAnimatorTriggerOnExit": ["BeHit", "DoSkill"]
        },
        "FreePose_Crossleg_PlayOud_Idle": {
          "$type": "ConfigMonsterStateIDInfo",
          "animatorStates": {
            "Crossleg_OudIdle": [],
            "Crossleg_PlayOud_BS": [],
            "Crossleg_PlayOud_Loop": [],
            "Crossleg_PlayOud_AS": []
          },
          "canDoSkill": true,
          "resetAnimatorTriggerOnExit": ["BeHit", "DoSkill"]
        }
      }
    }
  },

  //  .d8b.  d8888b. d888888b db      d888888b d888888b db    db
  // d8' `8b 88  `8D   `88'   88        `88'   `~~88~~' `8b  d8'
  // 88ooo88 88oooY'    88    88         88       88     `8bd8'
  // 88~~~88 88~~~b.    88    88         88       88       88
  // 88   88 88   8D   .88.   88booo.   .88.      88       88
  // YP   YP Y8888P' Y888888P Y88888P Y888888P    YP       YP
  "abilities": [
    { "abilityName": "Eremite_TurnState_AnimatorSteer" }, // Turn 角度调整
    { "abilityName": "Eremite_Crossbow_AnimatorSteer" }, // 攻击动画旋转
    { "abilityName": "Eremite_ReturnToBorn" }, // 脱战收刀
    { "abilityName": "Eremite_Equip_Display_Manager" }, // 拔出武器与表现管理
    { "abilityName": "Eremite_Equip_SheathWeapon" }, // 收起武器
    { "abilityName": "Eremite_Crossbow_ProjectileShoot_Load" }, // 抛物线距离计算
    { "abilityName": "Eremite_Crossbow_SingleShoot_Fire" }, // 普攻射击
    { "abilityName": "Eremite_Crossbow_RapidShoot_Fire" }, // 连发射击
    { "abilityName": "Eremite_Crossbow_Fire_Dendro_Bomb" }, // 抛物线射击
    { "abilityName": "Eremite_Crossbow_Fire_Dendro_Bomb_Hov" }, // 抛物线射击(更水平)
    { "abilityName": "Eremite_Universal_Alert" }, // 镀金初级怪通用入战Pose处理
    { "abilityName": "Eremite_Gambling_Logic" }, // 打牌的表现逻辑
    { "abilityName": "Eremite_FreePose_Display_Manager" }, // 战前特效表现配置
    { "abilityName": "Eremite_FreePose_Male_Drinking_Display_Manager" } // 喝水表现
  ],
  "initialPoses": {
    "Default": {
      "initialPoseID": 0
    },

    // 9501 ~ 9600    站姿及其他直接 入战进常规Alert
    //	- 9001 抱胸
    //	- 9002 垂头丧气
    //  - 9003 靠墙站立
    //  - 9004 站立整理
    //  - 9005 站立谈话 (随机动作)
    //  - 9006 蹲姿检查
    "HoldArm": {
      "initialPoseID": 9001,
      "initialPoseParams": {
        "intParams": {
          "FreePoseMark": "9001"
        }
      }
    },
    "Downcast": {
      "initialPoseID": 9002,
      "initialPoseParams": {
        "intParams": {
          "FreePoseMark": "9002"
        }
      }
    },
    "LeanOnWall": {
      "initialPoseID": 9003,
      "initialPoseParams": {
        "intParams": {
          "FreePoseMark": "9003"
        }
      }
    },
    "Arrange": {
      "initialPoseID": 9004,
      "initialPoseParams": {
        "intParams": {
          "FreePoseMark": "9004"
        }
      }
    },
    "StandingTalk": {
      "initialPoseID": 9005,
      "initialPoseParams": {
        "intParams": {
          "FreePoseMark": "9005"
        }
      }
    },
    "Investigate": {
      "initialPoseID": 9006,
      "initialPoseParams": {
        "intParams": {
          "FreePoseMark": "9006"
        }
      }
    },

    // 9501 ~ 9600  盘腿坐状态下的Pose 入战进特殊Alert
    // 	- 9501： 只会随机使用谈话相关的动作
    // 	- 9502： 通用坐姿，随机使用谈话和饮酒动作
    // 	- 9503： 只会使用饮酒动作
    // 	- 9504： 昏昏欲睡
    //	- 9505： 演奏乌德琴
    //  - 9506： 演奏铃鼓
    // 	- 951x： 打牌专用Pose序列   每个体型通用  与Ability逻辑耦合
    // 		- 9511： 打牌 - 信号发出
    //		- 9512： 打牌 - 信号接收
    //  3.1新增 9555-演奏乌德琴(真弹)  (但是不存于InitialPose中)
    "CrossLeg_Talk_Only": {
      "initialPoseID": 9501,
      "initialPoseParams": {
        "intParams": {
          "FreePoseMark": "9501"
        }
      }
    },
    "CrossLeg_Universal": {
      "initialPoseID": 9502,
      "initialPoseParams": {
        "intParams": {
          "FreePoseMark": "9502"
        }
      }
    },
    "CrossLeg_Drink_Only": {
      "initialPoseID": 9503,
      "initialPoseParams": {
        "intParams": {
          "FreePoseMark": "9503"
        }
      }
    },
    "CrossLeg_Sleeping": {
      "initialPoseID": 9504,
      "initialPoseParams": {
        "intParams": {
          "FreePoseMark": "9504"
        }
      }
    },
    "CrossLeg_PlayOud": {
      "initialPoseID": 9505,
      "initialPoseParams": {
        "intParams": {
          "FreePoseMark": "9505"
        }
      }
    },
    "CrossLeg_PlayDaff": {
      "initialPoseID": 9506,
      "initialPoseParams": {
        "intParams": {
          "FreePoseMark": "9506"
        }
      }
    },

    "CrossLeg_Gambling_Banker": {
      "initialPoseID": 9511,
      "initialPoseParams": {
        "intParams": {
          "FreePoseMark": "9511"
        }
      }
    },
    "CrossLeg_Gambling_Receiver": {
      "initialPoseID": 9512,
      "initialPoseParams": {
        "intParams": {
          "FreePoseMark": "9512"
        }
      }
    }
  },
  "aibeta": {
    "enable": true,
    "moveSetting": {
      "almostReachedDistanceRun": 1.5
    },
    "neurons": {
      "DefaultSetting": ["HIT"],
      "NeverCombat": []
    },
    "sensing": {
      "settings": {
        "DefaultSetting": {
          "viewRange": 30.0,
          "feelRange": 8.0
        },
        "HighAlert": {
          "viewRange": 40.0,
          "feelRange": 10.0
        },
        "LowAlert": {
          "viewRange": 15.0,
          "feelRange": 6.0
        },
        "UltraLowSensing": {
          "viewRange": 10.0,
          "feelRange": 4.0,
          "hearAttractionRange": 0
        },
        "EarshotFix": {
          "viewRange": 30.0,
          "feelRange": 8.0,
          "hearAttractionRange": 9
        },
        "NeverCombat": {
          "enableVision": false,
          "feelRange": 0.0,
          "hearAttractionRange": 0.0
        }
      },
      "templates": {
        "DefaultTemplate": {
          "DefaultPoses": "DefaultSetting"
        },
        "HighAlert": {
          "DefaultPoses": "HighAlert"
        },
        "LowAlert": {
          "DefaultPoses": "LowAlert"
        },
        "UltraLowSensing": {
          "DefaultPoses": "UltraLowSensing"
        },
        "EarshotFix": {
          "DefaultPoses": "EarshotFix"
        },
        "NeverCombat": {
          "DefaultPoses": "NeverCombat"
        }
      }
    },
    "defendArea": {
      "enable": true
    },
    "threat": {
      "viewThreatGrow": 30,
      "feelThreatGrow": 60,
      "threatDecreaseSpeed": 100,
      "clearThreatTimerByDistance": 3.0,
      "clearThreatByLostPath": true,
      "clearThreatTimerByLostPath": 10,
      "viewAttenuation": [
        { "x": 10.0, "y": 2.0 },
        { "x": 15.0, "y": 0.8 },
        { "x": 20.0, "y": 0.5 },
        { "x": 25.0, "y": 0.3 },
        { "x": 30.0, "y": 0.2 }
      ]
    },
    // 3.1 新增，用于大世界BGM控制怪物演奏状态功能
    // 需要Pose状态机有两个参数：
    // IsMusicSilent: bool
    // MusicLeftTime: float
    // 音乐长度调整之后需要改变Animator的持续长度
    "precombat": {
      "needMusicSlient": true
    },
    // d888888b  .d8b.   .o88b. d888888b d888888b  .o88b.
    // `~~88~~' d8' `8b d8P  Y8 `~~88~~'   `88'   d8P  Y8
    //    88    88ooo88 8P         88       88    8P
    //    88    88~~~88 8b         88       88    8b
    //    88    88   88 Y8b  d8    88      .88.   Y8b  d8
    //    YP    YP   YP  `Y88P'    YP    Y888888P  `Y88P'
    "returnToBornTactic": {
      "enable": true,
      "defaultSetting": {
        "speedLevel": 2
      }
    },
    "wanderTactic": {
      "enable": true,
      "condition": {
        "pose": [1]
      },
      "defaultSetting": {
        "speedLevel": 1,
        "cdMin": 1.5,
        "cdMax": 3.0,
        "distanceFromBorn": 15.0,
        "distanceFromCurrentMin": 3.75,
        "distanceFromCurrentMax": 7.5
      }
    },
    "investigateTactic": {
      "enable": true,
      "condition": {
        "pose": [1]
      }
    },
    "meleeChargeTactic": {
      "enable": true,
      "defaultSetting": {
        "speedLevel": 2,
        "speedLevelInner": 1,
        "innerDistance": 13,
        "stopDistance": 15,
        "startDistanceMin": 23.0,
        "startDistanceMax": 50
      },
      "condition": {
        "pose": [1001, 10]
      }
    },
    "facingMoveTactic": {
      "enable": true,
      "defaultSetting": {
        "speedLevel": 1,
        "rangeMin": 7,
        "rangeMax": 14,
        "facingMoveWeight": {
          "stop": 6,
          "forward": 0.5,
          "back": 1.5,
          "left": 1,
          "right": 1
        }
      },
      "condition": {
        "pose": [1001, 10]
      }
    },
    // .d8888. db   dD d888888b db      db
    // 88'  YP 88 ,8P'   `88'   88      88
    // `8bo.   88,8P      88    88      88
    //   `Y8b. 88`8b      88    88      88
    // db   8D 88 `88.   .88.   88booo. 88booo.
    // `8888Y' YP   YD Y888888P Y88888P Y88888P     mark@skill
    "skillGCD": 3.5,
    "skillGroupCDConfigs": [
      {
        "skillGroupCDID": 1,
        "skillGroupCDTime": 2.5
      }
    ],
    "skills": {
      // 不同姿态下的不同入战动作
      "101": {
        "name": "OnAlert",
        "stateIDs": ["Alert"],
        "skillType": "OnAlert",
        "skillQueryingTime": 3,
        "triggerGCD": true,
        "ignoreGCD": true,
        "castCondition": {
          "pose": [1, 9001, 9002, 9003, 9004, 9005, 9006]
        }
      },
      "102": {
        "name": "OnAlert_Combat",
        "stateIDs": ["Alert"],
        "skillType": "Combat",
        "skillQueryingTime": 3,
        "triggerGCD": true,
        "ignoreGCD": true,
        "priority": 1,
        "castCondition": {
          "pose": [1, 9001, 9002, 9003, 9004, 9005, 9006, 10]
          // 注意，这里多了一个10，是为了保证在没有拔出武器的情况下入战，可以通过使用这个技能正常拔出武器
        }
      },
      "111": {
        "name": "OnAlert_Crossleg",
        "stateIDs": ["Alert"],
        "skillType": "OnAlert",
        "skillQueryingTime": 3,
        "triggerGCD": true,
        "ignoreGCD": true,
        "castCondition": {
          "pose": [9501, 9502, 9503, 9504, 9505, 9506, 9511, 9512, 9555]
        }
      },
      "112": {
        "name": "OnAlert_Crossleg_Combat",
        "stateIDs": ["Alert"],
        "skillType": "Combat",
        "skillQueryingTime": 3,
        "triggerGCD": true,
        "ignoreGCD": true,
        "castCondition": {
          "pose": [9501, 9502, 9503, 9504, 9505, 9506, 9511, 9512, 9555]
        }
      },

      // ----------------------------------------

      "201": {
        "cd": 6.0,
        "priority": 5,
        "name": "SingleShoot",
        "stateIDs": ["SingleShoot_Aim", "SingleShoot_Fire", "SingleShoot_Exit"],
        "ignoreGCD": false,
        "triggerGCD": true,
        "flagSelfInZone": "11",
        "flagTargetReachable": "11",
        "flagSelfOnTemplateCollider": "11",
        "combatSkillType": "RangedAttack",
        "castCondition": {
          "pickRangeMin": 4,
          "pickRangeMax": 15,
          "pose": [1001, 10]
        }
      },
      "202": {
        "cd": 6.0,
        "priority": 5,
        "name": "FastShoot",
        "stateIDs": ["FastShoot_BS", "FastShoot"],
        "ignoreGCD": false,
        "triggerGCD": true,
        "flagSelfInZone": "11",
        "flagTargetReachable": "11",
        "flagSelfOnTemplateCollider": "11",
        "combatSkillType": "RangedAttack",
        "castCondition": {
          "pickRangeMin": 0,
          "pickRangeMax": 4,
          "pose": [1001, 10]
        }
      },
      "301": {
        "cd": 9.0,
        "priority": 2,
        "name": "RapidShoot",
        "stateIDs": [
          "RapidShoot_BS",
          "RapidShoot_Loop",
          "RapidShoot_AS",
          "RapidShoot_AS_Loaded"
        ],
        "ignoreGCD": false,
        "triggerGCD": true,
        "flagSelfInZone": "11",
        "flagTargetReachable": "11",
        "flagSelfOnTemplateCollider": "11",
        "combatSkillType": "RangedAttack",
        "castCondition": {
          "pickRangeMin": 4,
          "pickRangeMax": 14,
          "pose": [1001, 10]
        }
      },
      "401": {
        "cd": 12.0,
        "priority": 2,
        "name": "ProjectileShoot",
        "stateIDs": [
          "ProjectileShoot_Load",
          "ProjectileShoot_Aim01",
          "ProjectileShoot_Aim02",
          "ProjectileShoot_Fire01",
          "ProjectileShoot_Fire02"
        ],
        "ignoreGCD": false,
        "triggerGCD": true,
        "flagSelfInZone": "11",
        "flagTargetReachable": "11",
        "flagSelfOnTemplateCollider": "11",
        "combatSkillType": "RangedAttack",
        "castCondition": {
          "pickRangeMin": 6,
          "pickRangeMax": 20,
          "pose": [1001, 10]
        }
      },

      //  d88888b d8888b. d88888b d88888b      d8888b.  .d88b.  .d8888. d88888b
      //  88'     88  `8D 88'     88'          88  `8D .8P  Y8. 88'  YP 88'
      //  88ooo   88oobY' 88ooooo 88ooooo      88oodD' 88    88 `8bo.   88ooooo
      //  88~~~   88`8b   88~~~~~ 88~~~~~      88~~~   88    88   `Y8b. 88~~~~~
      //  88      88 `88. 88.     88.          88      `8b  d8' db   8D 88.
      //  YP      88   YD Y88888P Y88888P      88       `Y88P'  `8888Y' Y88888P

      "90051": {
        // 站立交谈01
        "cd": 1,
        "cdUpperRange": 4,
        "skillGroupCDID": 1,
        "skillType": "Free",
        "ignoreGCD": true,
        "name": "Chat01",
        "stateIDs": ["FreePose_StandingTalk_Skill"],
        "castCondition": {
          "pose": [9005]
        }
      },
      "90052": {
        // 站立交谈02
        "cd": 1,
        "cdUpperRange": 4,
        "skillGroupCDID": 1,
        "ignoreGCD": true,
        "skillType": "Free",
        "name": "Chat01",
        "stateIDs": ["FreePose_StandingTalk_Skill"],
        "castCondition": {
          "pose": [9005]
        }
      },
      "90053": {
        // 站立交谈03
        "cd": 1,
        "cdUpperRange": 4,
        "skillGroupCDID": 1,
        "ignoreGCD": true,
        "skillType": "Free",
        "name": "Chat01",
        "stateIDs": ["FreePose_StandingTalk_Skill"],
        "castCondition": {
          "pose": [9005]
        }
      },

      "95011": {
        // 盘坐交谈01
        "cd": 1,
        "cdUpperRange": 4,
        "skillGroupCDID": 1,
        "ignoreGCD": true,
        "skillType": "Free",
        "name": "Chat01",
        "stateIDs": ["FreePose_Crossleg_Chat_Skill"],
        "castCondition": {
          "pose": [9501, 9502]
        }
      },
      "95012": {
        // 盘坐交谈02
        "cd": 1,
        "cdUpperRange": 4,
        "skillGroupCDID": 1,
        "ignoreGCD": true,
        "skillType": "Free",
        "initialCD": 12,
        "name": "Chat02",
        "stateIDs": ["FreePose_Crossleg_Chat_Skill"],
        "castCondition": {
          "pose": [9501, 9502]
        }
      },
      "95031": {
        // 饮水
        "cd": 12,
        "cdUpperRange": 12.0,
        "skillType": "Free",
        "initialCD": 6,
        "name": "Drink",
        "stateIDs": ["FreePose_Crossleg_Drink_Skill"],
        "castCondition": {
          "pose": [9502, 9503]
        }
      },
      "95041": {
        // 打瞌睡
        "cd": 3.5,
        "cdUpperRange": 8.0,
        "skillGroupCDID": 1,
        "skillType": "Free",
        "initialCD": 2,
        "name": "Sleeping",
        "stateIDs": ["FreePose_Crossleg_Sleeping_Skill"],
        "castCondition": {
          "pose": [9504]
        }
      },

      "95111": {
        // 打牌 整套逻辑
        "cd": 0,
        "cdUpperRange": 2.0,
        "skillType": "Free",
        "initialCD": 6,
        "name": "Gambling",
        "stateIDs": [
          "FreePose_Crossleg_Gambling_Bet_Skill",
          "FreePose_Crossleg_Gambling_Roll",
          "FreePose_Crossleg_Gambling_Lose",
          "FreePose_Crossleg_Gambling_Win"
        ],
        "castCondition": {
          "pose": [9511]
        }
      }
    }
  },
  "inputKeys": [
    {
      // 普攻 SingleShoot
      "keyID": 201,
      "inputKeyCode": 257 // 1
    },
    {
      // 连发射击 RapidShoot
      "keyID": 301,
      "inputKeyCode": 258 // 2
    },
    {
      // 抛物线射击 ProjectileShoot
      "keyID": 401,
      "inputKeyCode": 259 // 3
    }
  ],
  "audio": {
    "$type": "ConfigMonsterAudio",
    "animAudio": {
      "onTransitionOut": [
        {
          "currentStateName": "Crossleg_PlayDaff_Idle",
          "audioEvent": {
            "text": "Stop_sfx_monster_Eremite_freePose_playDaff_Loop"
          },
          "otherStateNames": ["Crossleg_PlayDaff_Idle"],
          "usage": "Except"
        },
        {
          "currentStateName": "Crossleg_Chat01_Skill",
          "audioEvent": {
            "text": "Stop_sfx_monster_Human_Male_Standard_CrossBow_crossleg_chat01"
          },
          "otherStateNames": [],
          "usage": "Any"
        },
        {
          "currentStateName": "Crossleg_Chat02_Skill",
          "audioEvent": {
            "text": "Stop_sfx_monster_Human_Male_Standard_CrossBow_crossleg_chat02"
          },
          "otherStateNames": [],
          "usage": "Any"
        },
        {
          "currentStateName": "Crossleg_Drink_Skill",
          "audioEvent": {
            "text": "Stop_sfx_monster_Human_Male_Standard_CrossBow_crossleg_drink"
          },
          "otherStateNames": [],
          "usage": "Any"
        },
        {
          "currentStateName": "Crossleg_Gambling_Lose",
          "audioEvent": {
            "text": "Stop_sfx_monster_Human_Male_Standard_CrossBow_crossleg_gambling_lose"
          },
          "otherStateNames": [],
          "usage": "Any"
        },
        {
          "currentStateName": "Crossleg_Gambling_Win",
          "audioEvent": {
            "text": "Stop_sfx_monster_Human_Male_Standard_CrossBow_crossleg_gambling_win"
          },
          "otherStateNames": [""],
          "usage": "Any"
        },
        {
          "currentStateName": "Crossleg_Gambling_Bet_Skill",
          "audioEvent": {
            "text": "Stop_sfx_monster_Human_Male_Standard_CrossBow_gambling_bet"
          },
          "otherStateNames": [],
          "usage": "Any"
        },
        {
          "currentStateName": "Crossleg_Gambling_Roll",
          "audioEvent": {
            "text": "Stop_sfx_monster_Human_Male_Standard_CrossBow_gambling_roll"
          },
          "otherStateNames": [],
          "usage": "Any"
        },
        {
          "currentStateName": "Crossleg_PlayOud_Loop",
          "audioEvent": {
            "text": "Stop_sfx_monster_Eremite_freePose_playDaff_Loop_oud"
          },
          "otherStateNames": ["Crossleg_PlayOud_Loop"],
          "usage": "Except"
        }
      ],
      "onTransitionIn": [
        {
          "currentStateName": "Crossleg_PlayDaff_Idle",
          "audioEvent": {
            "text": "Play_sfx_monster_Eremite_freePose_playDaff_Loop"
          },
          "otherStateNames": ["Crossleg_PlayDaff_Idle"],
          "usage": "Except"
        },
        {
          "currentStateName": "Crossleg_PlayOud_Loop",
          "audioEvent": {
            "text": "Play_sfx_monster_Eremite_freePose_playDaff_Loop_oud"
          },
          "otherStateNames": ["Crossleg_PlayOud_Loop"],
          "usage": "Except"
        }
      ]
    }
  }
}
