{
  "$type": "ConfigMonster",
  "common": {
    "mass": 100.0,
    "height": 3,
    "affectedByWorld": true,
    "checkInSurface": true,
    "scale": 1.0,
    "viewSize": 1.75,
    "effectAttachShape": {
      "$type": "ConfigEffectAttachSkinnedMesh",
      "mesh": "Body",
      "normalOffset": 0,
      "scaleX": 0.8,
      "scaleY": 0.8,
      "scaleZ": 0.8
    }
  },
  "dither": {
    "showDitherDuration": 2.0
  },
  "equipController": {
    "attachPoints": {
      "equip01": "WeaponR",
      "equip02": "WeaponL"
    },
    "sheathPoint": ""
  },
  "billboard": {
    "$type": "ConfigCombatBillboard",
    "offset": {
      "x": 0,
      "y": 1.5,
      "z": 0
    },
    "radiusOffset": 1.0,
    "enableSelfAdapt": true,
    "showHPBar": true,
    "size": "Big"
  },
  "model": {
    "canBakeMesh": false
  },
  "combat": {
    "property": {
      "endureType": "Monster_Boss_Other",
      "weight": 150 //weightLevel = 3
    },
    "combatLock": {
      "denyLockOn": false,
      "lockType": "Avatar&Monster_Lv4"
    },
    "beHit": {
      "hitBloodEffect": "",
      "hitAutoRedirect": false,
      "muteAllHit": false,
      "muteAllHitEffect": false,
      "muteAllHitText": false
    },
    "die": {
      "hasAnimatorDie": true,
      "dieDisappearEffect": "Eff_Death_Common",
      "dieDisappearEffectDelay": 0.0,
      "dieEndTime": 2.0,
      "dieForceDisappearTime": 4,
      "dieShaderData": "MonsterDie",
      "muteHitBox": true,
      "dieDenyLockOn": true,
      "dieIsGhostToEnemy": true,
      "dieIgnoreTriggerBullet": true,
      "muteBillboard": true,
      "mutePushCollider": true
    },
    "animEvents": {}
  },
  "inputKeys": [
    {
      "keyID": 1,
      "inputKeyCode": 257
    },
    {
      "keyID": 3,
      "inputKeyCode": 258
    },
    {
      "keyID": 5,
      "inputKeyCode": 259
    }
  ],
  "stateLayers": {
    "defaultLayer": {
      "$type": "ConfigNormalStateLayer",
      "stateIDs": {
        "Born": {
          "$type": "ConfigMonsterStateIDInfo",
          "animatorStates": {
            "Born": ["Monster_Elemental_Wind_Born"]
          },
          "combatMove": true,
          "canSyncMove": true,
          "resetAnimatorTriggerOnExit": ["DoSkill"]
        },
        "NormalIdle": {
          "$type": "ConfigMonsterStateIDInfo",
          "animatorStates": {
            "Standby": []
          },
          "combatMove": true,
          "canDoSkill": true,
          "canSyncMove": true,
          "resetAnimatorTriggerOnExit": ["DoSkill"]
        },
        "Turn": {
          "$type": "ConfigMonsterStateIDInfo",
          "animatorStates": {
            "Turn": []
          },
          "combatMove": true,
          "canDoSkill": true,
          "canSyncMove": true,
          "canSteer": true,
          "autoSteer": true,
          "resetAnimatorTriggerOnExit": ["DoSkill"]
        },
        "NormalMove": {
          "$type": "ConfigMonsterStateIDInfo",
          "animatorStates": {
            "Walk": [],
            "Run": []
          },
          "combatMove": true,
          "canDoSkill": true,
          "canSteer": true,
          "canSyncMove": true,
          "resetAnimatorTriggerOnExit": ["DoSkill"]
        },
        "BeHit": {
          "$type": "ConfigMonsterStateIDInfo",
          "animatorStates": {
            "Hit_L": [],
            "Hit_H": ["Audio_Element_Wind_Hit_H"]
          },
          "combatMove": true,
          "resetAnimatorTriggerOnEnter": ["BeHit"],
          "resetAnimatorTriggerOnExit": ["DoSkill"]
        },
        "BeHitThrow": {
          "$type": "ConfigMonsterStateIDInfo",
          "animatorStates": {
            "HitThrow": [],
            "HitThrowDrop": [],
            "HitThrowToGround": []
          },
          "combatMove": true,
          "resetAnimatorTriggerOnEnter": ["BeHit", "HitAir2HitDrop"],
          "resetAnimatorTriggerOnExit": ["DoSkill"]
        },
        "Struggle": {
          "$type": "ConfigMonsterStateIDInfo",
          "animatorStates": {
            "Struggle": []
          },
          "combatMove": true,
          "resetAnimatorTriggerOnEnter": ["BeHit", "HitAir2HitDrop"],
          "resetAnimatorTriggerOnExit": ["DoSkill"]
        },
        "Die": {
          "$type": "ConfigMonsterStateIDInfo",
          "animatorStates": {
            "Die": ["Monster_Elemental_Wind_Die", "Audio_Element_Wind_Die"],
            "SwimDie": []
          }
        },
        "Warning": {
          "$type": "ConfigMonsterStateIDInfo",
          "animatorStates": {
            "Warning": []
          },
          "combatMove": true,
          "resetAnimatorTriggerOnExit": ["BeHit", "DoSkill"]
        },
        "HurricaneRush_Drop": {
          "$type": "ConfigMonsterStateIDInfo",
          "animatorStates": {
            "HurricaneRush_Drop": []
          },
          "combatMove": true,
          "resetAnimatorTriggerOnEnter": ["HitAir2HitDrop"],
          "resetAnimatorTriggerOnExit": ["BeHit", "DoSkill"]
        },
        "HurricaneRush_BS": {
          "$type": "ConfigMonsterStateIDInfo",
          "animatorStates": {
            "HurricaneRush_BS": ["Monster_Elemental_Wind_HurricaneRush_BS"]
          },
          "combatMove": true,
          "resetAnimatorTriggerOnExit": ["BeHit", "DoSkill"]
        },
        "HurricaneRush_Loop": {
          "$type": "ConfigMonsterStateIDInfo",
          "animatorStates": {
            "HurricaneRush_Loop": ["Monster_Elemental_Wind_HurricaneRush_Loop"]
          },
          "combatMove": true,
          "resetAnimatorTriggerOnExit": ["BeHit", "DoSkill"]
        },
        "HurricaneRush_AS": {
          "$type": "ConfigMonsterStateIDInfo",
          "animatorStates": {
            "HurricaneRush_AS": []
          },
          "combatMove": true,
          "resetAnimatorTriggerOnExit": ["BeHit", "DoSkill"]
        },
        "Shock_BS": {
          "$type": "ConfigMonsterStateIDInfo",
          "animatorStates": {
            "Shock_BS": []
          },
          "combatMove": true,
          "resetAnimatorTriggerOnEnter": ["HitAir2HitDrop"],
          "resetAnimatorTriggerOnExit": ["BeHit", "DoSkill"]
        },
        "Shock_Fall": {
          "$type": "ConfigMonsterStateIDInfo",
          "animatorStates": {
            "Shock_Drop": [],
            "Shock_Fall": []
          },
          "combatMove": true,
          "resetAnimatorTriggerOnExit": ["BeHit", "DoSkill"]
        },
        "Shock_AS": {
          "$type": "ConfigMonsterStateIDInfo",
          "animatorStates": {
            "Shock_AS": ["Monster_Elemental_Wind_Shock_AS"],
            "Shock_OnGround": []
          },
          "combatMove": true,
          "resetAnimatorTriggerOnExit": ["BeHit", "DoSkill"]
        },
        "Shock_Up": {
          "$type": "ConfigMonsterStateIDInfo",
          "animatorStates": {
            "Shock_Up": ["Monster_Elemental_Wind_Shock_Up"]
          },
          "combatMove": true,
          "resetAnimatorTriggerOnExit": ["BeHit", "DoSkill"]
        },
        "EarthWrath_BS": {
          "$type": "ConfigMonsterStateIDInfo",
          "animatorStates": {
            "EarthWrath_BS": ["Monster_Elemental_Wind_EarthWrath_BS"]
          },
          "combatMove": true,
          "resetAnimatorTriggerOnExit": ["BeHit", "DoSkill"]
        },
        "EarthWrath_Burst": {
          "$type": "ConfigMonsterStateIDInfo",
          "animatorStates": {
            "EarthWrath_Burst": ["Monster_Elemental_Wind_EarthWrath_Burst"]
          },
          "combatMove": true,
          "resetAnimatorTriggerOnExit": ["BeHit", "DoSkill"]
        },
        "RandomWalk": {
          "$type": "ConfigMonsterStateIDInfo",
          "animatorStates": {
            "RandomWalk_Left": [],
            "RandomWalk_Right": [],
            "RandomWalk_Back": []
          },
          "combatMove": true,
          "resetAnimatorTriggerOnExit": ["BeHit", "DoSkill"]
        },
        "Weak_Start": {
          "$type": "ConfigMonsterStateIDInfo",
          "animatorStates": {
            "Weak_Start": ["Monster_Elemental_Wind_Weak_Start"]
          },
          "combatMove": true,
          "resetAnimatorTriggerOnEnter": ["HitAir2HitDrop"],
          "resetAnimatorTriggerOnExit": ["BeHit", "DoSkill"]
        },
        "Weak_Drop": {
          "$type": "ConfigMonsterStateIDInfo",
          "animatorStates": {
            "Weak_Drop": []
          },
          "combatMove": true,
          "resetAnimatorTriggerOnExit": ["BeHit", "DoSkill"]
        },
        "Weak_ToGround": {
          "$type": "ConfigMonsterStateIDInfo",
          "animatorStates": {
            "Weak_ToGround": ["Monster_Elemental_Wind_Weak_ToGround"]
          },
          "combatMove": true,
          "resetAnimatorTriggerOnExit": ["BeHit", "DoSkill"]
        },
        "WeakEnd": {
          "$type": "ConfigMonsterStateIDInfo",
          "animatorStates": {
            "WeakEnd": ["Monster_Elemental_Wind_WeakEnd"]
          },
          "combatMove": true,
          "resetAnimatorTriggerOnExit": ["BeHit", "DoSkill"]
        }
      }
    }
  },
  "abilities": [
    {
      "abilityID": "ResistStruggle",
      "abilityName": "AbilityResistStruggle"
    },
    {
      "abilityID": "WindEffect",
      "abilityName": "Elemental_Wind_WindEffect"
    },
    {
      "abilityID": "RandomWalk",
      "abilityName": "Elemental_Wind_RandomWalk"
    },
    {
      "abilityID": "FlyState",
      "abilityName": "Elemental_Wind_FlyState"
    },
    {
      "abilityID": "Die",
      "abilityName": "Elemental_Wind_Die"
    },
    {
      "abilityID": "WeakStart",
      "abilityName": "Elemental_Wind_WeakStart"
    },
    {
      "abilityID": "WeakTimer",
      "abilityName": "Elemental_Wind_WeakTimer"
    },
    {
      "abilityID": "HurricaneRush_Drop",
      "abilityName": "Elemental_Wind_HurricaneRush_Drop"
    },
    {
      "abilityID": "HurricaneRush",
      "abilityName": "Elemental_Wind_HurricaneRush"
    },
    {
      "abilityID": "Shock_BS",
      "abilityName": "Elemental_Wind_Shock_BS"
    },
    {
      "abilityID": "Shock_AS",
      "abilityName": "Elemental_Wind_Shock_AS"
    },
    {
      "abilityID": "EarthWrath_BS",
      "abilityName": "Elemental_Wind_EarthWrath_BS"
    },
    {
      "abilityID": "EarthWrath_Over",
      "abilityName": "Elemental_Wind_EarthWrath_Over"
    },
    {
      "abilityID": "EarthWrath_Burst",
      "abilityName": "Elemental_Wind_EarthWrath_Burst"
    },
    {
      "abilityID": "Monster_Common_WindMuteHurt",
      "abilityName": "Monster_Common_WindMuteHurt"
    }
  ],
  "initialPoses": {
    "Default": {
      "initialPoseID": 0
    }
  },
  "aibeta": {
    "enable": true,
    "moveSetting": {
      "useNavMesh": false
    },
    "skillGCD": 10.0,
    "sensing": {
      "settings": {
        "DefaultSetting": {
          "viewPanoramic": true,
          "feelRange": 8.75
        }
      },
      "templates": {
        "DefaultTemplate": {
          "DefaultPoses": "DefaultSetting"
        }
      }
    },
    "defendArea": {
      "defendRange": 60.0
    },
    "fly": {
      "enable": true,
      "floatingPoses": [100, 101, 102, 103, 104]
    },
    "threat": {
      "clearThreatTargetDistance": 30.0,
      "clearThreatTimerByDistance": 2.0,
      "clearThreatEdgeDistance": 5.0,
      "viewThreatGrow": 35.0,
      "feelThreatGrow": 100.0,
      "threatDecreaseSpeed": 10.0,
      "resistTauntLevel": "Monster_TauntLevel_3"
    },
    "returnToBornTactic": {
      "enable": true,
      "defaultSetting": {
        "spacial": true
      }
    },
    "spacialProbeTactic": {
      "enable": true,
      "condition": {
        "pose": [100]
      },
      "defaultSetting": {
        "speedLevel": 1,
        "cdMin": 3,
        "cdMax": 5,
        "terrainOffsetMin": 5,
        "terrainOffsetMax": 8,
        "distanceFromBorn": 30,
        "distanceFromCurrentMin": 8,
        "distanceFromCurrentMax": 12
      }
    },
    "spacialAdjustTactic": {
      "enable": true,
      "condition": {
        "pose": [101, 102, 103]
      },
      "defaultSetting": {
        "speedLevel": 1,
        "yLow": 3,
        "yHigh": 4
      }
    },
    "spacialChaseTactic": {
      "enable": true,
      "condition": {
        "pose": [101, 102, 103]
      },
      "defaultSetting": {
        "speedLevel": 2,
        "chaseStartDistance": 12.5,
        "chaseStopDistance": 7.5,
        "yOffsetMin": 3.0,
        "yOffsetMax": 4.0
      }
    },
    "skills": {
      "100": {
        "name": "OnAlert",
        "stateIDs": ["Warning"],
        "skillType": "OnAlert",
        "skillQueryingTime": 3,
        "triggerGCD": false,
        "faceTarget": true
      },
      "1": {
        "cd": 15.0,
        "name": "HurricaneRush",
        "stateIDs": [
          "HurricaneRush_Drop",
          "HurricaneRush_BS",
          "HurricaneRush_Loop",
          "HurricaneRush_AS"
        ],
        "priority": 2,
        "flagSelfOnTemplateCollider": "11",
        "castCondition": {
          "pickRangeMin": 7.5,
          "pickRangeMax": 25.0,
          "pose": [101, 103]
        }
      },
      "2": {
        "cd": 0.0,
        "name": "HurricaneRush",
        "stateIDs": [
          "HurricaneRush_Drop",
          "HurricaneRush_BS",
          "HurricaneRush_Loop",
          "HurricaneRush_AS"
        ],
        "priority": 1,
        "ignoreGCD": true,
        "flagSelfInZone": "01",
        "flagTargetInZone": "10",
        "flagSelfOnTemplateCollider": "11",
        "castCondition": {
          "pose": [101, 103]
        }
      },
      "3": {
        "cd": 25.0,
        "name": "Shock",
        "stateIDs": ["Shock_BS", "Shock_Fall", "Shock_AS"],
        "priority": 2,
        "flagSelfOnTemplateCollider": "11",
        "castCondition": {
          "pickRangeMin": 0.0,
          "pickRangeMax": 10.0,
          "pose": [101, 103]
        }
      },
      "5": {
        "cd": 60.0,
        "initialCD": 30.0,
        "name": "EarthWrath",
        "stateIDs": ["EarthWrath_BS", "EarthWrath_Burst"],
        "priority": 1,
        "flagSelfOnTemplateCollider": "11",
        "castCondition": {
          "pickRangeMin": 0.0,
          "pickRangeMax": 15.0,
          "pose": [101, 103]
        }
      },
      "901": {
        "cd": 3.0,
        "name": "RandomWalk",
        "stateIDs": ["RandomWalk"],
        "ignoreGCD": true,
        "triggerGCD": false,
        "flagSelfInZone": "11",
        "flagSelfOnTemplateCollider": "11",
        "castCondition": {
          "pose": [103]
        }
      }
    }
  },
  "audio": {
    "$type": "ConfigMonsterAudio",
    "animAudio": {
      "onTransitionIn": [
        {
          "currentStateName": "Born",
          "audioEvent": {
            "text": "Play_sfx_monster_elemental_wind_born"
          },
          "otherStateNames": [],
          "usage": "Any"
        },
        {
          "currentStateName": "Die",
          "audioEvent": {
            "text": "Play_sfx_monster_elemental_wind_die"
          },
          "otherStateNames": [],
          "usage": "Any"
        },
        {
          "currentStateName": "SwimDie",
          "audioEvent": {
            "text": "Play_sfx_monster_elemental_wind_die"
          },
          "otherStateNames": [],
          "usage": "Any"
        },

        {
          "currentStateName": "EarthWrath_Burst",
          "audioEvent": {
            "text": "Play_sfx_monster_elemental_wind_earthWrath_strike"
          },
          "otherStateNames": [],
          "usage": "Any"
        },

        {
          "currentStateName": "HurricaneRush_BS",
          "audioEvent": {
            "text": "Play_sfx_monster_elemental_wind_hurricaneRush_BS"
          },
          "otherStateNames": [],
          "usage": "Any"
        },
        {
          "currentStateName": "HurricaneRush_Loop",
          "audioEvent": {
            "text": "Play_sfx_monster_elemental_wind_hurricaneRush_loop"
          },
          "otherStateNames": [],
          "usage": "Any"
        },
        {
          "currentStateName": "HurricaneRush_AS",
          "audioEvent": {
            "text": "Play_sfx_monster_elemental_wind_hurricaneRush_AS"
          },
          "otherStateNames": [],
          "usage": "Any"
        },

        {
          "currentStateName": "Shock_BS",
          "audioEvent": {
            "text": "Play_sfx_monster_elemental_wind_shock_BS"
          },
          "otherStateNames": [],
          "usage": "Any"
        },
        {
          "currentStateName": "Shock_Fall",
          "audioEvent": {
            "text": "Play_sfx_monster_elemental_wind_shock_fall"
          },
          "otherStateNames": [],
          "usage": "Any"
        },
        {
          "currentStateName": "Shock_AS",
          "audioEvent": {
            "text": "Play_sfx_monster_elemental_wind_shock_AS"
          },
          "otherStateNames": [],
          "usage": "Any"
        },

        {
          "currentStateName": "Weak_Start",
          "audioEvent": {
            "text": "Play_sfx_monster_elemental_wind_weak_start"
          },
          "otherStateNames": [],
          "usage": "Any"
        },
        {
          "currentStateName": "Weak_loop",
          "audioEvent": {
            "text": "Play_sfx_monster_elemental_wind_weak_loop"
          },
          "otherStateNames": [],
          "usage": "Any"
        },
        {
          "currentStateName": "Weak_ToGround",
          "audioEvent": {
            "text": "Play_sfx_monster_elemental_wind_weak_end"
          },
          "otherStateNames": [],
          "usage": "Any"
        },
        {
          "currentStateName": "Weak_ToGround",
          "audioEvent": {
            "text": "Play_sfx_monster_elemental_wind_weak_end"
          },
          "otherStateNames": [],
          "usage": "Any"
        },
        {
          "currentStateName": "HitThrowToGround",
          "audioEvent": {
            "text": "Play_sfx_monster_elemental_wind_weak_end"
          },
          "otherStateNames": [],
          "usage": "Any"
        },
        {
          "currentStateName": "WeakEnd",
          "audioEvent": {
            "text": "Play_sfx_monster_elemental_wind_born"
          },
          "otherStateNames": [],
          "usage": "Any"
        },
        {
          "currentStateName": "Shock_Up",
          "audioEvent": {
            "text": "Play_sfx_monster_elemental_wind_born"
          },
          "otherStateNames": [],
          "usage": "Any"
        },

        {
          "currentStateName": "Ani_Monster_Elemental_Wind_WeakLoop",
          "audioEvent": {
            "text": "Play_sfx_monster_elemental_wind_weak_loop"
          },
          "otherStateNames": [],
          "usage": "Any"
        },

        {
          "currentStateName": "Walk",
          "audioEvent": {
            "text": "Play_sfx_monster_elemental_wind_walk_loop"
          },
          "otherStateNames": [],
          "usage": "Any"
        },

        {
          "currentStateName": "Standby",
          "audioEvent": {
            "text": "Play_sfx_monster_elemental_wind_idle"
          },
          "otherStateNames": [],
          "usage": "Any"
        }
      ],

      "onTransitionOut": [
        {
          "currentStateName": "HurricaneRush_Loop",
          "audioEvent": {
            "text": "Stop_sfx_monster_elemental_wind_hurricaneRush_loop"
          },
          "otherStateNames": [],
          "usage": "Any"
        },

        {
          "currentStateName": "Weak_loop",
          "audioEvent": {
            "text": "Stop_sfx_monster_elemental_wind_weak_loop"
          },
          "otherStateNames": [],
          "usage": "Any"
        },
        {
          "currentStateName": "Ani_Monster_Elemental_Wind_WeakLoop",
          "audioEvent": {
            "text": "Stop_sfx_monster_elemental_wind_weak_loop"
          },
          "otherStateNames": [],
          "usage": "Any"
        },

        {
          "currentStateName": "Walk",
          "audioEvent": {
            "text": "Stop_sfx_monster_elemental_wind_walk_loop"
          },
          "otherStateNames": [],
          "usage": "Any"
        },

        //idle音效激活的状态下，8个行为的互相屏蔽
        {
          "currentStateName": "Standby",
          "audioEvent": {
            "text": "Stop_sfx_monster_elemental_wind_idle"
          },
          "otherStateNames": [
            "Walk",
            "Turn",
            "Run",
            "RandomWalk_Left",
            "RandomWalk_Right",
            "RandomWalk_Back",
            "HurricaneRush_Drop"
          ],
          "usage": "Except"
        },
        {
          "currentStateName": "Walk",
          "audioEvent": {
            "text": "Stop_sfx_monster_elemental_wind_idle"
          },
          "otherStateNames": [
            "Standby",
            "Turn",
            "Run",
            "RandomWalk_Left",
            "RandomWalk_Right",
            "RandomWalk_Back",
            "HurricaneRush_Drop"
          ],
          "usage": "Except"
        },
        {
          "currentStateName": "Turn",
          "audioEvent": {
            "text": "Stop_sfx_monster_elemental_wind_idle"
          },
          "otherStateNames": [
            "Walk",
            "Standby",
            "Run",
            "RandomWalk_Left",
            "RandomWalk_Right",
            "RandomWalk_Back",
            "HurricaneRush_Drop"
          ],
          "usage": "Except"
        },
        {
          "currentStateName": "Run",
          "audioEvent": {
            "text": "Stop_sfx_monster_elemental_wind_idle"
          },
          "otherStateNames": [
            "Standby",
            "Turn",
            "Walk",
            "RandomWalk_Left",
            "RandomWalk_Right",
            "RandomWalk_Back",
            "HurricaneRush_Drop"
          ],
          "usage": "Except"
        },
        {
          "currentStateName": "RandomWalk_Left",
          "audioEvent": {
            "text": "Stop_sfx_monster_elemental_wind_idle"
          },
          "otherStateNames": [
            "Walk",
            "Turn",
            "Run",
            "Standby",
            "RandomWalk_Right",
            "RandomWalk_Back",
            "HurricaneRush_Drop"
          ],
          "usage": "Except"
        },
        {
          "currentStateName": "RandomWalk_Right",
          "audioEvent": {
            "text": "Stop_sfx_monster_elemental_wind_idle"
          },
          "otherStateNames": [
            "Standby",
            "Turn",
            "Run",
            "RandomWalk_Left",
            "Walk",
            "RandomWalk_Back",
            "HurricaneRush_Drop"
          ],
          "usage": "Except"
        },
        {
          "currentStateName": "RandomWalk_Back",
          "audioEvent": {
            "text": "Stop_sfx_monster_elemental_wind_idle"
          },
          "otherStateNames": [
            "Walk",
            "Turn",
            "Run",
            "RandomWalk_Left",
            "RandomWalk_Right",
            "Standby",
            "HurricaneRush_Drop"
          ],
          "usage": "Except"
        },
        {
          "currentStateName": "HurricaneRush_Drop",
          "audioEvent": {
            "text": "Stop_sfx_monster_elemental_wind_idle"
          },
          "otherStateNames": [
            "Standby",
            "Turn",
            "Run",
            "RandomWalk_Left",
            "RandomWalk_Right",
            "RandomWalk_Back",
            "Walk"
          ],
          "usage": "Except"
        }
      ]
    }
  }
}
