{
  "$type": "ConfigMonster",
  "headControl": {
    "$type": "ConfigHeadControl",
    "useHeadControl": true,
    "maxYawDegree": 75,
    "maxPitchDegree": 30,
    "animStates": [
      "NormalIdle/Standby",
      "NormalMove/WalkForward",
      "NormalMove/WalkBack",
      "NormalMove/WalkRight",
      "NormalMove/WalkLeft",
      "NormalMove/Run",
      "Turn/TurnLeft",
      "Turn/TurnRight"
    ]
  },
  "common": {
    "effectAttachShape": {
      "$type": "ConfigEffectAttachSkinnedMesh",
      "mesh": "EffectMesh"
    },
    "mass": 150.0,
    "height": 2.1,
    "modelHeight": 1.9,
    "viewSize": 1.2,
    "scale": 1.2,
    "useGrassDisplacement": true,
    "affectedByWorld": true,
    "checkInSurface": true
  },
  "move": {
    "$type": "ConfigAnimatorMove",
    "facingMove": "FourDirection",
    "monsterSizeType": "StoopType"
  },
  "model": {
    "bornEffect": "Eff_Monster_Common_Born"
  },
  "dither": {
    "showDitherDuration": 1.0
  },
  "equipController": {
    "attachPoints": {
      "equip01": "WeaponR",
      "equip02": "WeaponL"
    },
    "sheathPoint": ""
  },
  "billboard": {
    "$type": "ConfigCombatBillboard",
    "offsetType": "Character",
    "offset": {
      "x": -0.05,
      "y": 0,
      "z": 0
    },
    "showHPBar": true,
    "radiusOffset": 0.25,
    "size": "Normal"
  },
  "combat": {
    "property": {
      "weight": 100, //weightLevel = 2
      "endureType": "Monster_Grunt_Humanoid",
      "endureShake": 0
    },
    "combatLock": {
      "denyLockOn": false,
      "lockType": "Avatar&Monster_Lv4"
    },
    "beHit": {
      "hitBloodEffect": "",
      "muteAllHit": false,
      "muteAllHitEffect": false,
      "muteAllHitText": false
    },
    "die": {
      "hasAnimatorDie": true,
      "dieDisappearEffect": "",
      // "dieDisappearEffectDelay": 1.0,
      "dieEndTime": 4.0,
      "dieForceDisappearTime": 15.0,
      // "dieShaderData": "MonsterDie",
      "useRagDoll": true,
      "ragDollDieEndTimeDelay": 15.0,
      "muteHitBox": true,
      "dieDenyLockOn": true,
      "dieIsGhostToEnemy": true,
      "dieIgnoreTriggerBullet": true,
      "muteBillboard": true,
      "mutePushCollider": true
    },
    "animEvents": {
      "QuickCombo01": {
        "attackPattern": {
          "$type": "ConfigAttackCircle",
          "duration": 0.0,
          "triggerType": "TriggerNoRepeat",
          "height": 1.2,
          "fanAngle": 150.0,
          "radius": 2.0,
          "born": {
            "$type": "ConfigBornBySelf",
            "offset": {
              "x": 0.0,
              "y": 0.7,
              "z": 0.3
            },
            "direction": {
              "$type": "ConfigDirectionByEntity",
              "angleOffset": {
                "x": 0.0,
                "y": -20.0, //角度偏移
                "z": 0.0
              }
            }
          }
        },
        "attackInfo": {
          "attackProperty": {
            "damagePercentage": 1.0,
            "strikeType": "Blunt",
            "attackType": "Melee",
            "enBreak": 200.0
          },
          "hitPattern": {
            "onHitEffectName": "default",
            "hitImpulseType": "LV3",
            "reboundRatio": 0,
            "hitHaltTime": 0.0,
            "hitHaltTimeScale": 0.01,
            "muteHitText": false
          },
          "forceCameraShake": true,
          "cameraShake": {
            "shakeType": "CustomVector",
            "shakeRange": 0.12,
            "shakeTime": 0.15,
            "shakeDistance": 20.0,
            "shakeDir": {
              "x": -1,
              "y": 0,
              "z": 0
            }
          }
        }
      },
      "QuickCombo02": {
        "attackPattern": {
          "$type": "ConfigAttackCircle",
          "duration": 0.0,
          "triggerType": "TriggerNoRepeat",
          "height": 1.2,
          "fanAngle": 240.0,
          "radius": 2.0,
          "born": {
            "$type": "ConfigBornBySelf",
            "offset": {
              "x": 0.0,
              "y": 0.7,
              "z": 0.3
            },
            "direction": {
              "$type": "ConfigDirectionByEntity",
              "angleOffset": {
                "x": 0.0,
                "y": 30.0, //角度偏移
                "z": 0.0
              }
            }
          }
        },
        "attackInfo": {
          "attackProperty": {
            "damagePercentage": 1.0,
            "strikeType": "Blunt",
            "attackType": "Melee",
            "enBreak": 200.0
          },
          "hitPattern": {
            "onHitEffectName": "default",
            "hitImpulseType": "LV4",
            "reboundRatio": 0,
            "hitHaltTime": 0.0,
            "hitHaltTimeScale": 0.01,
            "muteHitText": false
          },
          "forceCameraShake": true,
          "cameraShake": {
            "shakeType": "CustomVector",
            "shakeRange": 0.12,
            "shakeTime": 0.15,
            "shakeDistance": 20.0,
            "shakeDir": {
              "x": 1,
              "y": 0,
              "z": 0
            }
          }
        }
      },
      "PowerCombo01": {
        "attackPattern": {
          "$type": "ConfigAttackCircle",
          "duration": 0.0,
          "triggerType": "TriggerNoRepeat",
          "height": 1.2,
          "fanAngle": 180.0,
          "radius": 3.0,
          "born": {
            "$type": "ConfigBornBySelf",
            "offset": {
              "x": 0.0,
              "y": 0.7,
              "z": 0.5
            },
            "direction": {
              "$type": "ConfigDirectionByEntity",
              "angleOffset": {
                "x": 0.0,
                "y": -40.0, //角度偏移
                "z": 0.0
              }
            }
          }
        },
        "attackInfo": {
          "attackProperty": {
            "damagePercentage": 2.0,
            "strikeType": "Blunt",
            "attackType": "Melee",
            "enBreak": 200.0
          },
          "hitPattern": {
            "onHitEffectName": "default",
            "hitImpulseType": "LV5",
            "reboundRatio": 0,
            "hitHaltTime": 0.0,
            "hitHaltTimeScale": 0.01,
            "muteHitText": false
          },
          "forceCameraShake": true,
          "cameraShake": {
            "shakeType": "CustomVector",
            "shakeRange": 0.15,
            "shakeTime": 0.2,
            "shakeDistance": 25.0,
            "shakeDir": {
              "x": -1,
              "y": 0,
              "z": 0
            }
          }
        }
      },
      "PowerCombo02": {
        "attackPattern": {
          "$type": "ConfigAttackCircle",
          "duration": 0.0,
          "triggerType": "TriggerNoRepeat",
          "height": 1.5,
          "fanAngle": 180.0,
          "radius": 3.0,
          "born": {
            "$type": "ConfigBornBySelf",
            "offset": {
              "x": 0.0,
              "y": 0.6,
              "z": 1.5
            },
            "direction": {
              "$type": "ConfigDirectionByEntity",
              "angleOffset": {
                "x": 0.0,
                "y": 30.0, //角度偏移
                "z": 0.0
              }
            }
          }
        },
        "attackInfo": {
          "attackProperty": {
            "damagePercentage": 2.0,
            "strikeType": "Blunt",
            "attackType": "Melee",
            "enBreak": 200.0
          },
          "hitPattern": {
            "onHitEffectName": "default",
            "hitImpulseType": "LV5",
            "reboundRatio": 0,
            "hitHaltTime": 0.0,
            "hitHaltTimeScale": 0.01,
            "muteHitText": false
          },
          "forceCameraShake": true,
          "cameraShake": {
            "shakeType": "CustomVector",
            "shakeRange": 0.2,
            "shakeTime": 0.2,
            "shakeDistance": 25.0,
            "shakeDir": {
              "x": 1,
              "y": 0,
              "z": 0
            }
          }
        }
      }
    }
  },
  "inputKeys": [
    {
      "keyID": 201,
      "inputKeyCode": 257
    },
    {
      "keyID": 202,
      "inputKeyCode": 258
    },
    {
      "keyID": 203,
      "inputKeyCode": 259
    },
    {
      "keyID": 211,
      "inputKeyCode": 260
    },
    {
      "keyID": 212,
      "inputKeyCode": 262
    },
    {
      "keyID": 212,
      "inputKeyCode": 261
    }
    // {
    // 	"keyID": 301,
    // 	"inputKeyCode": 264,
    // },
    // {
    // 	"keyID": 311,
    // 	"inputKeyCode": 265,
    // },
  ],
  "stateLayers": {
    "defaultLayer": {
      "$type": "ConfigNormalStateLayer",
      "stateIDs": {
        //////////////////////////////////////////////////
        //	Idle states
        //////////////////////////////////////////////////
        "NormalIdle": {
          "$type": "ConfigMonsterStateIDInfo",
          "animatorStates": {
            "Standby": [],
            "Born": []
          },
          "combatMove": true,
          "canDoSkill": true,
          "canSyncMove": true,
          "resetAnimatorTriggerOnExit": ["DoSkill"]
        },
        //////////////////////////////////////////////////
        //	Move states
        //////////////////////////////////////////////////
        "NormalMove": {
          "$type": "ConfigMonsterStateIDInfo",
          "animatorStates": {
            "WalkForward": [
              "Audio_Monster_Thoarder_Normal_Male_Muscle_NoWeapon_Walk"
            ],
            "WalkBack": [
              "Audio_Monster_Thoarder_Normal_Male_Muscle_NoWeapon_Walk"
            ],
            "WalkRight": [
              "Audio_Monster_Thoarder_Normal_Male_Muscle_NoWeapon_Walk"
            ],
            "WalkLeft": [
              "Audio_Monster_Thoarder_Normal_Male_Muscle_NoWeapon_Walk"
            ],
            "Run": ["Audio_Monster_Thoarder_Normal_Male_Muscle_NoWeapon_Run"]
          },
          "combatMove": true,
          "canDoSkill": true,
          "canSteer": true,
          "canSyncMove": true,
          "resetAnimatorTriggerOnExit": ["DoSkill"]
        },
        "Turn": {
          "$type": "ConfigMonsterStateIDInfo",
          "animatorStates": {
            "TurnLeft": [
              "Audio_Monster_Thoarder_Normal_Male_Muscle_NoWeapon_Walk"
            ],
            "TurnRight": [
              "Audio_Monster_Thoarder_Normal_Male_Muscle_NoWeapon_Walk"
            ]
          },
          "combatMove": true,
          "canDoSkill": true,
          "canSteer": true,
          "autoSteer": false,
          "canSyncMove": true,
          "resetAnimatorTriggerOnExit": ["DoSkill"]
        },
        //////////////////////////////////////////////////
        //	BeHit states
        //////////////////////////////////////////////////
        "BeHit": {
          "$type": "ConfigMonsterStateIDInfo",
          "animatorStates": {
            "Hit_L": ["Audio_Monster_Thoarder_Normal_Male_Muscle_Hammer_Hit_L"],
            "Hit_H": ["Audio_Monster_Thoarder_Normal_Male_Muscle_Hammer_Hit_H"],
            "DHit": []
          },
          "combatMove": true,
          "resetAnimatorTriggerOnEnter": ["BeHit"],
          "resetAnimatorTriggerOnExit": ["DoSkill"]
        },
        "BeHitThrow": {
          "$type": "ConfigMonsterStateIDInfo",
          "animatorStates": {
            "HitThrow": [
              "Audio_Monster_Thoarder_Normal_Male_Muscle_Hammer_HitThrow"
            ],
            "HitThrowDrop": [],
            "HitThrowToGround": [
              "Audio_Monster_Thoarder_Normal_Male_Muscle_Hammer_HitThrowToGround"
            ]
          },
          "combatMove": true,
          "resetAnimatorTriggerOnEnter": ["BeHit", "HitAir2HitDrop"],
          "resetAnimatorTriggerOnExit": ["DoSkill"]
        },
        "Struggle": {
          "$type": "ConfigMonsterStateIDInfo",
          "animatorStates": {
            "Struggle": []
          },
          "combatMove": true,
          "resetAnimatorTriggerOnEnter": ["BeHit", "HitAir2HitDrop"],
          "resetAnimatorTriggerOnExit": ["DoSkill"]
        },
        //////////////////////////////////////////////////
        //	Die states
        //////////////////////////////////////////////////
        "Die": {
          "$type": "ConfigMonsterStateIDInfo",
          "animatorStates": {
            "Die1": [
              "Monster_Thoarder_MuscleMan_Die",
              "Audio_Monster_Thoarder_Normal_Male_Muscle_Hammer_Die"
            ],
            "Die2": [
              "Monster_Thoarder_MuscleMan_Die",
              "Audio_Monster_Thoarder_Normal_Male_Muscle_Hammer_Die"
            ],
            "SwimDie": ["Audio_Monster_Thoarder_NoWeapon_Knife_SwimDie"],
            "SwimDie_AS": [
              "Monster_Thoarder_Common_SwimDie",
              "Audio_Monster_Thoarder_NoWeapon_Knife_SwimDie"
            ]
          }
        },
        "Die_RagDoll": {
          "$type": "ConfigMonsterStateIDInfo",
          "animatorStates": {
            "AirDie": [
              "Monster_Thoarder_Common_AirDie",
              "Audio_Monster_Thoarder_Normal_Male_Muscle_Hammer_Die"
            ]
          },
          "enableRagDoll": true
        },
        //////////////////////////////////////////////////
        //	Alert states
        //////////////////////////////////////////////////
        "Life_Alert": {
          "$type": "ConfigMonsterStateIDInfo",
          "animatorStates": {
            "Alert": ["Audio_Monster_Thoarder_Normal_Male_Muscle_Hammer_Alert"]
          },
          "combatMove": true,
          "resetAnimatorTriggerOnExit": ["BeHit", "DoSkill"]
        },
        "Life_Warning": {
          "$type": "ConfigMonsterStateIDInfo",
          "animatorStates": {
            "Warning": [
              "Monster_Undead01_Warning",
              "Monster_Thoarder_Alert",
              "Monster_Thoarder_DrawWeapon",
              "Audio_Monster_Thoarder_Normal_Male_Muscle_Hammer_Alert"
            ],
            "Alert_Armed": [
              "Monster_Undead01_Warning",
              "Monster_Thoarder_Alert",
              "Monster_Thoarder_DrawWeapon",
              "Audio_Monster_Thoarder_Normal_Male_Muscle_Hammer_Alert"
            ]
          },
          "combatMove": true,
          "resetAnimatorTriggerOnExit": ["BeHit", "DoSkill"]
        },
        //////////////////////////////////////////////////
        //	Attack states
        //////////////////////////////////////////////////
        "QuickCombo01": {
          "$type": "ConfigMonsterStateIDInfo",
          "animatorStates": {
            "QuickCombo01": [
              "Monster_Thoarder_MuscleMan_Hammer_QuickCombo01",
              "Audio_Monster_Thoarder_Normal_Male_Muscle_Hammer_QuickCombo01"
            ],
            "QuickCombo01_2": [
              "Monster_Thoarder_MuscleMan_Hammer_QuickCombo01",
              "Audio_Monster_Thoarder_Normal_Male_Muscle_Hammer_QuickCombo01"
            ]
          },
          "addEndure": 0.5,
          "combatMove": true,
          "resetAnimatorTriggerOnExit": ["BeHit", "DoSkill"]
        },
        "QuickCombo02": {
          "$type": "ConfigMonsterStateIDInfo",
          "animatorStates": {
            "QuickCombo02": [
              "Monster_Thoarder_MuscleMan_Hammer_QuickCombo02",
              "Audio_Monster_Thoarder_Normal_Male_Muscle_Hammer_QuickCombo02"
            ],
            "QuickCombo02_2": [
              "Monster_Thoarder_MuscleMan_Hammer_QuickCombo02",
              "Audio_Monster_Thoarder_Normal_Male_Muscle_Hammer_QuickCombo02"
            ]
          },
          "addEndure": 0.5,
          "combatMove": true,
          "resetAnimatorTriggerOnExit": ["BeHit", "DoSkill"]
        },
        "PowerCombo01": {
          "$type": "ConfigMonsterStateIDInfo",
          "animatorStates": {
            "PowerCombo01": [
              "Monster_Thoarder_MuscleMan_Hammer_PowerCombo01",
              "Audio_Monster_Thoarder_Normal_Male_Muscle_Hammer_PowerCombo01"
            ]
          },
          "addEndure": 0.5,
          "combatMove": true,
          "resetAnimatorTriggerOnExit": ["BeHit", "DoSkill"]
        },
        "PowerCombo02": {
          "$type": "ConfigMonsterStateIDInfo",
          "animatorStates": {
            "PowerCombo02": [
              "Monster_Thoarder_MuscleMan_Hammer_PowerCombo02",
              "Audio_Monster_Thoarder_Normal_Male_Muscle_Hammer_PowerCombo02"
            ]
          },
          "addEndure": 0.5,
          "combatMove": true,
          "resetAnimatorTriggerOnExit": ["BeHit", "DoSkill"]
        },
        //////////////////////////////////////////////////
        //	SpecialStates states
        //////////////////////////////////////////////////
        "Armed": {
          "$type": "ConfigMonsterStateIDInfo",
          "animatorStates": {
            "Armed": []
          },
          "combatMove": true,
          "canDoSkill": true,
          "resetAnimatorTriggerOnExit": ["BeHit", "DoSkill"]
        },
        "Chat": {
          "$type": "ConfigMonsterStateIDInfo",
          "animatorStates": {
            "Chat": []
          },
          "combatMove": true,
          "canDoSkill": true,
          "resetAnimatorTriggerOnExit": ["BeHit", "DoSkill"]
        },
        "ChatFree01": {
          "$type": "ConfigMonsterStateIDInfo",
          "animatorStates": {
            "ChatFree01": [""]
          },
          "combatMove": true,
          "canDoSkill": true,
          "resetAnimatorTriggerOnExit": ["BeHit", "DoSkill"]
        },
        "Laugh": {
          "$type": "ConfigMonsterStateIDInfo",
          "animatorStates": {
            "Laugh": []
          },
          "combatMove": true,
          "canDoSkill": true,
          "resetAnimatorTriggerOnExit": ["BeHit", "DoSkill"]
        },
        "LaughFree01": {
          "$type": "ConfigMonsterStateIDInfo",
          "animatorStates": {
            "LaughFree01": [""]
          },
          "combatMove": true,
          "canDoSkill": true,
          "resetAnimatorTriggerOnExit": ["BeHit", "DoSkill"]
        },
        //////////////////////////////////////////////////
        //	Other states
        //////////////////////////////////////////////////
        "SheathWeapon": {
          "$type": "ConfigMonsterStateIDInfo",
          "animatorStates": {
            "SheathWeapon": [
              "Monster_Thoarder_SheathWeapon",
              "Audio_Monster_Thoarder_Normal_Male_Muscle_Hammer_SheathWeapon"
            ]
          },
          "combatMove": true,
          "resetAnimatorTriggerOnExit": ["SheathWeaponTrigger"]
        }
      }
    }
  },
  "abilities": [
    //////////////////////////////////////////////////
    //	Alert abilities
    //////////////////////////////////////////////////
    {
      "abilityID": "Alert",
      "abilityName": "Thoarder_Alert",
      "lightWeightRemove": true
    },
    //////////////////////////////////////////////////
    //	Steer abilities
    //////////////////////////////////////////////////
    {
      "abilityID": "SteerAttack",
      "abilityName": "Thoarder_MuscleMan_Hammer_SteerAttack"
    },
    //////////////////////////////////////////////////
    //	Attack abilities
    //////////////////////////////////////////////////
    //////////////////////////////////////////////////
    //	WeaponState abilities
    //////////////////////////////////////////////////
    {
      "abilityID": "WeaponOnBack",
      "abilityName": "Thoarder_WeaponOnBack"
    },
    {
      "abilityID": "DrawWeapon",
      "abilityName": "Thoarder_DrawWeapon"
    },
    {
      "abilityID": "SheathWeapon",
      "abilityName": "Thoarder_SheathWeapon"
    },
    {
      "abilityID": "HideWeapon",
      "abilityName": "Thoarder_HideWeapon"
    },
    //////////////////////////////////////////////////
    //	SpecialStates abilities
    //////////////////////////////////////////////////
    {
      "abilityID": "SpecialsState_Weapon",
      "abilityName": "Thoarder_SpecialsState_Weapon",
      "lightWeightRemove": true
    },
    //////////////////////////////////////////////////
    //	Other abilities
    //////////////////////////////////////////////////
    {
      "abilityID": "ReturnToBorn",
      "abilityName": "Thoarder_ReturnToBorn",
      "lightWeightRemove": true
    },
    {
      "abilityID": "SteerMove",
      "abilityName": "Thoarder_SteerMove"
    }
  ],
  "initialPoses": {
    "Default": {
      "initialPoseID": 0
    },
    "FixedPos": {
      "initialPoseID": 2,
      "initialPoseParams": {
        "boolParams": {
          "FixedPos": "true"
        }
      }
    },
    "FixedPosArmed": {
      "initialPoseID": 3,
      "initialPoseParams": {
        "boolParams": {
          "FixedPosArmed": "true"
        }
      }
    },
    "Armed": {
      "initialPoseID": 4,
      "initialPoseParams": {
        "boolParams": {
          "Armed": "true"
        }
      }
    },
    "Chat": {
      "initialPoseID": 9006,
      "initialPoseParams": {
        "boolParams": {
          "Chat": "true"
        }
      }
    },
    "Laugh": {
      "initialPoseID": 9009,
      "initialPoseParams": {
        "boolParams": {
          "Laugh": "true"
        }
      }
    }
  },
  "aibeta": {
    "enable": true,
    "skillGCD": 2.0,
    "moveSetting": {
      "almostReachedDistanceRun": 1.5
    },
    "neurons": {
      "DefaultSetting": ["HIT"]
    },
    "profiling": {
      // For reference:
      // "staticPoses": [9002, 9003],
    },
    "sensing": {
      "settings": {
        "DefaultSetting": {
          "viewRange": 30.0,
          "feelRange": 8.0
        },
        "HighAlert": {
          "viewRange": 40.0,
          "feelRange": 10.0
        },
        "LowAlert": {
          "viewRange": 10.0,
          "feelRange": 5.0
        },
        "Sleep": {
          "viewRange": 0.0,
          "feelRange": 3.0
        }
      },
      "templates": {
        "DefaultTemplate": {
          "DefaultPoses": "DefaultSetting",
          "9006": "LowAlert",
          "9009": "LowAlert"
        },
        "HighAlertTemplate": {
          "DefaultPoses": "HighAlert",
          "9006": "DefaultSetting",
          "9009": "DefaultSetting"
        }
      }
    },
    // For reference:
    // "precombat":
    // {
    // 	"bioClockSleepFrom": 11,
    // 	"bioClockSleepTo": 12,
    // },
    "defendArea": {
      "enable": true
    },
    "threat": {
      //"clearThreatTargetDistance": 10,
      "clearThreatTimerByDistance": 3.0,
      "clearThreatByLostPath": true,
      "clearThreatTimerByLostPath": 10,
      "viewAttenuation": [
        { "x": 10.0, "y": 2.0 },
        { "x": 15.0, "y": 0.8 },
        { "x": 20.0, "y": 0.5 },
        { "x": 25.0, "y": 0.3 },
        { "x": 30.0, "y": 0.2 }
      ]
    },
    "returnToBornTactic": {
      "enable": true,
      "defaultSetting": {
        "speedLevel": 2
      }
    },
    "investigateTactic": {
      "enable": true,
      "condition": {
        "pose": [1, 4]
      }
    },
    // For later use
    "reactActionPointTactic": {
      "enable": true,
      "defaultSetting": {
        "reactList": [
          // For reference:
          // {
          // 	"pointType": "SleepPoint",
          // 	"detectDistance": 15,
          // 	"pose": [1, 101, 401, 402, 201, 301],
          // 	"nerveTrigger": ["ASLEEP"],
          // 	"skillID": 111,
          // },
        ]
      }
    },
    "wanderTactic": {
      "enable": true,
      "condition": {
        "pose": [1, 4]
      },
      "defaultSetting": {
        "speedLevel": 1,
        "cdMin": 1.5,
        "cdMax": 3.0,
        "distanceFromBorn": 15.0,
        "distanceFromCurrentMin": 3.75,
        "distanceFromCurrentMax": 7.5
      }
    },
    "meleeChargeTactic": {
      "enable": true,
      "condition": {
        "pose": [1001, 1002]
      },
      "defaultSetting": {
        "speedLevel": 2,
        "speedLevelInner": 1,
        "innerDistance": 7,
        "stopDistance": 7,
        "startDistanceMin": 14.0,
        "startDistanceMax": 50
      }
    },
    "facingMoveTactic": {
      "enable": true,
      "condition": {
        "pose": [1001, 1002]
      },
      "defaultSetting": {
        "speedLevel": 1,
        "rangeMin": 2.0,
        "rangeMax": 5.0,
        "facingMoveWeight": {
          "stop": 5.0,
          "forward": 0.0,
          "back": 0.0,
          "left": 1.0,
          "right": 1.0
        }
      },
      "specification": {
        // For reference:
        // "1401":
        // {
        // 	"rangeMin": 5,
        // 	"rangeMax": 30,
        // 	"facingMoveWeight":
        // 	{
        // 		"stop": 1,
        // 		"forward": 0.0,
        // 		"back": 0.0,
        // 		"left": 0.0,
        // 		"right": 0.0,
        // 	},
        // },
      }
    },
    "skillGroupCDConfigs": [
      {
        //Melee
        "skillGroupCDID": 1,
        "skillGroupCDTime": 2.0
      }
    ],
    "skills": {
      //////////////////////////////////////////////////
      //	Alert Skills 101~199
      //////////////////////////////////////////////////
      "101": {
        "name": "OnAlert",
        "stateIDs": ["Life_Warning"],
        "skillType": "OnAlert",
        "skillQueryingTime": 3,
        "triggerGCD": false,
        "ignoreGCD": true,
        "faceTarget": true,
        "castCondition": {
          "pose": [1, 2, 9002, 9003, 9004, 9005, 9006, 9008, 9009]
        }
      },
      "103": {
        "name": "OnAlert_Armed",
        "stateIDs": ["Life_Warning"],
        "skillType": "OnAlert",
        "skillQueryingTime": 3,
        "triggerGCD": false,
        "ignoreGCD": true,
        "faceTarget": true,
        "castCondition": {
          "pose": [3, 4, 9007]
        }
      },
      //////////////////////////////////////////////////
      //	Attack Skills 201 ~ 899
      //////////////////////////////////////////////////
      "201": {
        "cd": 3.5,
        "skillGroupCDID": 1,
        "initialCD": 2.0,
        "combatSkillType": "MeleeAttack",
        "name": "QuickCombo01",
        "stateIDs": ["QuickCombo01", "QuickCombo02", "PowerCombo02"],
        "enableSkillPrepare": true,
        "castCondition": {
          "pickRangeMin": 0.0,
          "pickRangeMax": 6.0,
          "castRangeMin": 0.0,
          "castRangeMax": 2.5,
          "pose": [1001]
        }
      },
      "202": {
        "priority": 2,
        "cd": 3.5,
        "cdUpperRange": 3.5,
        "initialCD": 7.0,
        "skillGroupCDID": 1,
        "publicCDGroup": "meleeAttack_long",
        "name": "QuickCombo02",
        "stateIDs": ["QuickCombo01", "QuickCombo02"], //, "QuickCombo01_2", "QuickCombo02_2"],
        "enableSkillPrepare": true,
        "castCondition": {
          "pickRangeMin": 0.0,
          "pickRangeMax": 6.0,
          "castRangeMin": 0.0,
          "castRangeMax": 3.0,
          "pose": [1001]
        }
      },
      "203": {
        "priority": 2,
        "cd": 7.0,
        "cdUpperRange": 3.5,
        "initialCD": 7.0,
        "skillGroupCDID": 1,
        "publicCDGroup": "meleeAttack_long",
        "name": "QuickCombo02",
        "stateIDs": ["QuickCombo01", "PowerCombo02"],
        "enableSkillPrepare": true,
        "castCondition": {
          "pickRangeMin": 0.0,
          "pickRangeMax": 6.0,
          "castRangeMin": 0.0,
          "castRangeMax": 3.0,
          "pose": [1001]
        }
      },
      "211": {
        "cd": 10.0,
        "cdUpperRange": 5.0,
        "initialCD": 15.0,
        "skillGroupCDID": 1,
        "combatSkillType": "MeleeAttack",
        "name": "PowerCombo01",
        "stateIDs": ["PowerCombo01", "PowerCombo02"],
        "enableSkillPrepare": true,
        "castCondition": {
          "pickRangeMin": 0.0,
          "pickRangeMax": 6.0,
          "castRangeMin": 0.0,
          "castRangeMax": 3.0,
          "pose": [1001]
        }
      },
      // "212":
      // {
      // 	"priority": 2,
      // 	"cd": 5.0,
      // 	"cdUpperRange": 5.0,
      // 	"skillGroupCDID": 1,
      // 	"publicCDGroup": "meleeAttack_long",
      // 	"name": "PowerCombo02",
      // 	"stateIDs": ["PowerCombo01", "PowerCombo02"],
      // 	"enableSkillPrepare": true,
      // 	"castCondition":
      // 	{
      // 		"pickRangeMin": 0.0,
      // 		"pickRangeMax": 6.0,
      // 		"castRangeMin": 0.0,
      // 		"castRangeMax": 3.0,
      // 		"pose": [1001],
      // 	},
      // },
      //////////////////////////////////////////////////
      //	Taunt Skills 901~999
      //////////////////////////////////////////////////
      //////////////////////////////////////////////////
      //	SpecialState Skills 1001~1999
      //////////////////////////////////////////////////
      "90061": {
        "cd": 3.0,
        "cdUpperRange": 5.0,
        "ignoreGCD": false,
        "initialCD": 1.0,
        "initialCDUpperRange": 5.0,
        "name": "ChatFree01",
        "stateIDs": ["ChatFree01"],
        "skillType": "Free",
        "castCondition": {
          "pose": [9006]
        }
      },
      "90091": {
        "cd": 6.0,
        "cdUpperRange": 5.0,
        "ignoreGCD": false,
        "initialCD": 1.0,
        "initialCDUpperRange": 5.0,
        "name": "LaughFree01",
        "stateIDs": ["LaughFree01"],
        "skillType": "Free",
        "castCondition": {
          "pose": [9009]
        }
      }
    }
  },
  "audio": {
    "$type": "ConfigMonsterAudio",
    "animAudio": {
      "onTransitionOut": [],
      "onTransitionIn": []
    },
    "disableEvent": {},
    "destroyEvent": {},
    "randomVariantSwitchGroup": {
      "text": ""
    },
    "randomVariantSwitchValues": [
      {
        "text": ""
      }
    ]
  }
}
