{
  "$type": "ConfigMonster",
  "headControl": {
    "$type": "ConfigHeadControl",
    "useHeadControl": true,
    "maxYawDegree": 75,
    "maxPitchDegree": 30,
    "animStates": [
      "NormalIdle/Standby",
      "NormalMove/WalkForward",
      "NormalMove/WalkBack",
      "NormalMove/WalkRight",
      "NormalMove/WalkLeft",
      "NormalMove/Run",
      "Turn/TurnLeft",
      "Turn/TurnRight"
    ]
  },
  "common": {
    "effectAttachShape": {
      "$type": "ConfigEffectAttachSkinnedMesh",
      "mesh": "EffectMesh"
    },
    "mass": 850.0,
    "height": 1.5,
    "modelHeight": 1.65,
    "viewSize": 1.0,
    "useGrassDisplacement": true,
    "affectedByWorld": true,
    "checkInSurface": true,
    "clearAIOnSetLightDeactive": true,
    "clearAnimatorOnSetLightDeactive": true
  },
  "move": {
    "$type": "ConfigAnimatorMove",
    "facingMove": "FourDirection",
    "monsterSizeType": "StoopType"
  },
  "model": {
    "bornEffect": "Eff_Monster_Common_Born"
  },
  "dither": {
    "showDitherDuration": 1.0
  },
  "equipController": {
    "attachPoints": {
      "equip01": "WeaponR",
      "equip02": "WeaponL"
    },
    "sheathPoint": ""
  },
  "billboard": {
    "$type": "ConfigCombatBillboard",
    "offsetType": "Character",
    "offset": {
      "x": -0.05,
      "y": 0,
      "z": 0
    },
    "showHPBar": true,
    "radiusOffset": 0.25,
    "size": "Normal"
  },
  "combat": {
    "property": {
      "weight": 70, //weightLevel = 2
      "endureType": "Monster_Minion",
      "endureShake": 0
    },
    "combatLock": {
      "denyLockOn": false,
      "lockType": "Avatar&Monster_Lv4"
    },
    "beHit": {
      "hitBloodEffect": "",
      "muteAllHit": false,
      "muteAllHitEffect": false,
      "muteAllHitText": false
    },
    "die": {
      "hasAnimatorDie": true,
      "dieDisappearEffect": "",
      // "dieDisappearEffectDelay": 1.0,
      "dieEndTime": 4.0,
      "dieForceDisappearTime": 15.0,
      // "dieShaderData": "MonsterDie",
      "useRagDoll": true,
      "ragDollDieEndTimeDelay": 15.0,
      "muteHitBox": true,
      "dieDenyLockOn": true,
      "dieIsGhostToEnemy": true,
      "dieIgnoreTriggerBullet": true,
      "muteBillboard": true,
      "mutePushCollider": true
    },
    "animEvents": {
      "NormalAtk": {
        "attackPattern": {
          "$type": "ConfigAttackCircle",
          "triggerType": "TriggerNoRepeat",
          "fanAngle": 90.0,
          "radius": 1.75,
          "born": {
            "$type": "ConfigBornBySelf",
            "offset": {
              "x": 0.0,
              "y": 0.0,
              "z": 0.3
            }
          }
        },
        "attackInfo": {
          "attackProperty": {
            "damagePercentage": 1.0,
            "strikeType": "Slash",
            "attackType": "Melee",
            "enBreak": 100.0
          },
          "hitPattern": {
            "onHitEffectName": "default",
            "hitImpulseType": "LV3",
            "hitHaltTime": 0.0,
            "hitHaltTimeScale": 0.01,
            "muteHitText": false
          }
        }
      },
      "TripleAtk01": {
        "attackPattern": {
          "$type": "ConfigAttackCircle",
          "triggerType": "TriggerNoRepeat",
          "fanAngle": 100.0,
          "radius": 2.0,
          "born": {
            "$type": "ConfigBornBySelf",
            "offset": {
              "x": 0.0,
              "y": 0.0,
              "z": 0.0
            }
          }
        },
        "attackInfo": {
          "attackProperty": {
            "damagePercentage": 0.5,
            "strikeType": "Slash",
            "attackType": "Melee",
            "enBreak": 100.0
          },
          "hitPattern": {
            "onHitEffectName": "default",
            "hitImpulseType": "LV3",
            "hitHaltTime": 0,
            "hitHaltTimeScale": 0,
            "muteHitText": false
          }
          // "forceCameraShake": false,
          // "cameraShake":
          // {
          // 	"shakeType": "HitVector",
          // 	"shakeRange": 0.16,
          // 	"shakeTime": 0.12,
          // 	"shakeDistance": 35,
          // 	"shakeDir":
          // 	{
          // 		"x":-1,
          // 		"y":1,
          // 		"z":0,
          // 	},
          // },
        }
      },
      "TripleAtk02": {
        "attackPattern": {
          "$type": "ConfigAttackCircle",
          "triggerType": "TriggerNoRepeat",
          "fanAngle": 90.0,
          "radius": 2.0,
          "born": {
            "$type": "ConfigBornBySelf",
            "offset": {
              "x": 0.0,
              "y": 0.0,
              "z": 0.5
            }
          }
        },
        "attackInfo": {
          "attackProperty": {
            "damagePercentage": 0.5,
            "strikeType": "Slash",
            "attackType": "Melee",
            "enBreak": 100.0
          },
          "hitPattern": {
            "onHitEffectName": "default",
            "hitImpulseType": "LV3",
            "reboundRatio": 0,
            "hitHaltTime": 0,
            "hitHaltTimeScale": 0,
            "muteHitText": false
          }
          // "forceCameraShake": false,
          // "cameraShake":
          // {
          // 	"shakeType": "HitVector",
          // 	"shakeRange": 0.16,
          // 	"shakeTime": 0.12,
          // 	"shakeDistance": 35,
          // 	"shakeDir":
          // 	{
          // 		"x":1,
          // 		"y":0,
          // 		"z":1,
          // 	},
          // },
        }
      },
      "TripleAtk03": {
        "attackPattern": {
          "$type": "ConfigAttackCircle",
          "triggerType": "TriggerNoRepeat",
          "fanAngle": 75.0,
          "radius": 2.0,
          "born": {
            "$type": "ConfigBornBySelf",
            "offset": {
              "x": 0.0,
              "y": 0.0,
              "z": 0.5
            }
          }
        },
        "attackInfo": {
          "attackProperty": {
            "damagePercentage": 0.75,
            "strikeType": "Slash",
            "attackType": "Melee",
            "enBreak": 200.0
          },
          "hitPattern": {
            "onHitEffectName": "default",
            "hitImpulseType": "LV4",
            "hitHaltTime": 0,
            "hitHaltTimeScale": 0,
            "muteHitText": false
          },
          "forceCameraShake": false,
          "cameraShake": {
            "shakeType": "HitVector",
            "shakeRange": 0.04,
            "shakeTime": 0.09,
            "shakeDistance": 20,
            "shakeDir": {
              "x": 0,
              "y": -1,
              "z": 0
            }
          }
        }
      },
      "JumpAtk01": {
        "attackPattern": {
          "$type": "ConfigAttackCircle",
          "triggerType": "TriggerNoRepeat",
          "fanAngle": 75.0,
          "radius": 1.75,
          "born": {
            "$type": "ConfigBornBySelf",
            "offset": {
              "x": 0.0,
              "y": 0.0,
              "z": 0.5
            }
          }
        },
        "attackInfo": {
          "attackProperty": {
            "damagePercentage": 0.75,
            "strikeType": "Slash",
            "attackType": "Melee",
            "enBreak": 200.0
          },
          "hitPattern": {
            "onHitEffectName": "default",
            "hitImpulseType": "LV5",
            "hitHaltTime": 0,
            "hitHaltTimeScale": 0,
            "muteHitText": false
          },
          "forceCameraShake": false,
          "cameraShake": {
            "shakeType": "HitVector",
            "shakeRange": 0.06,
            "shakeTime": 0.09,
            "shakeDistance": 20,
            "shakeDir": {
              "x": 0,
              "y": -1,
              "z": 0
            }
          }
        }
      }
    }
  },
  "inputKeys": [
    {
      "keyID": 201,
      "inputKeyCode": 257
    },
    {
      "keyID": 202,
      "inputKeyCode": 258
    },
    {
      "keyID": 203,
      "inputKeyCode": 259
    },
    {
      "keyID": 301,
      "inputKeyCode": 260
    },
    {
      "keyID": 321,
      "inputKeyCode": 262
    },
    {
      "keyID": 331,
      "inputKeyCode": 261
    }
    // {
    // 	"keyID": 301,
    // 	"inputKeyCode": 264,
    // },
    // {
    // 	"keyID": 311,
    // 	"inputKeyCode": 265,
    // },
  ],
  "stateLayers": {
    "defaultLayer": {
      "$type": "ConfigNormalStateLayer",
      "stateIDs": {
        //////////////////////////////////////////////////
        //	Idle states
        //////////////////////////////////////////////////
        "NormalIdle": {
          "$type": "ConfigMonsterStateIDInfo",
          "animatorStates": {
            "Standby": [],
            "Born": []
          },
          "canDoSkill": true,
          "canSyncMove": true,
          "resetAnimatorTriggerOnExit": ["DoSkill"]
        },
        //////////////////////////////////////////////////
        //	Move states
        //////////////////////////////////////////////////
        "NormalMove": {
          "$type": "ConfigMonsterStateIDInfo",
          "animatorStates": {
            "WalkForward": [
              "Audio_Monster_Thoarder_BlackRacoon_Hatchet_02_Walk"
            ],
            "WalkBack": ["Audio_Monster_Thoarder_BlackRacoon_Hatchet_02_Walk"],
            "WalkRight": ["Audio_Monster_Thoarder_BlackRacoon_Hatchet_02_Walk"],
            "WalkLeft": ["Audio_Monster_Thoarder_BlackRacoon_Hatchet_02_Walk"],
            "Run": ["Audio_Monster_Thoarder_BlackRacoon_Hatchet_02_Run"]
          },
          "canDoSkill": true,
          "canSteer": true,
          "canSyncMove": true,
          "resetAnimatorTriggerOnExit": ["DoSkill"]
        },
        "Turn": {
          "$type": "ConfigMonsterStateIDInfo",
          "animatorStates": {
            "TurnLeft": ["Audio_Monster_Thoarder_BlackRacoon_Hatchet_02_Walk"],
            "TurnRight": ["Audio_Monster_Thoarder_BlackRacoon_Hatchet_02_Walk"]
          },
          "canDoSkill": true,
          "canSteer": true,
          "autoSteer": false,
          "canSyncMove": true,
          "resetAnimatorTriggerOnExit": ["DoSkill"]
        },
        //////////////////////////////////////////////////
        //	BeHit states
        //////////////////////////////////////////////////
        "BeHit": {
          "$type": "ConfigMonsterStateIDInfo",
          "animatorStates": {
            "Hit_L": ["Audio_Monster_Thoarder_BlackRacoon_Hatchet_02_Hit_L"],
            "Hit_H": ["Audio_Monster_Thoarder_BlackRacoon_Hatchet_02_Hit_H"],
            "DHit": []
          },
          "resetAnimatorTriggerOnEnter": ["BeHit"],
          "resetAnimatorTriggerOnExit": ["DoSkill", "DodgeTrigger"]
        },
        "BeHitThrow": {
          "$type": "ConfigMonsterStateIDInfo",
          "animatorStates": {
            "HitThrow": [
              "Audio_Monster_Thoarder_BlackRacoon_Hatchet_02_HitThrow"
            ],
            "HitThrowDrop": [],
            "HitThrowToGround": [
              "Audio_Monster_Thoarder_BlackRacoon_Hatchet_02_HitThrowToGround"
            ]
          },
          "resetAnimatorTriggerOnEnter": ["BeHit", "HitAir2HitDrop"],
          "resetAnimatorTriggerOnExit": ["DoSkill"]
        },
        "Struggle": {
          "$type": "ConfigMonsterStateIDInfo",
          "animatorStates": {
            "Struggle": []
          },
          "resetAnimatorTriggerOnEnter": ["BeHit", "HitAir2HitDrop"],
          "resetAnimatorTriggerOnExit": ["DoSkill"]
        },
        //////////////////////////////////////////////////
        //	Die states
        //////////////////////////////////////////////////
        "Die": {
          "$type": "ConfigMonsterStateIDInfo",
          "animatorStates": {
            "Die1": [
              "Monster_Thoarder_Female_Hatchet_Die",
              "Audio_Monster_Thoarder_BlackRacoon_Hatchet_02_Die"
            ],
            "Die2": [
              "Monster_Thoarder_Female_Hatchet_Die",
              "Audio_Monster_Thoarder_BlackRacoon_Hatchet_02_Die"
            ],
            "SwimDie": ["Audio_Monster_Thoarder_NoWeapon_SwimDie"],
            "SwimDie_AS": [
              "Monster_Thoarder_Common_SwimDie",
              "Audio_Monster_Thoarder_NoWeapon_SwimDie"
            ]
          }
        },
        "Die_RagDoll": {
          "$type": "ConfigMonsterStateIDInfo",
          "animatorStates": {
            "AirDie": ["Monster_Thoarder_Common_AirDie"]
          },
          "enableRagDoll": true
        },
        //////////////////////////////////////////////////
        //	Alert states
        //////////////////////////////////////////////////
        "Life_Alert": {
          "$type": "ConfigMonsterStateIDInfo",
          "animatorStates": {
            "Alert": ["Audio_Monster_Thoarder_Hatchet_Alert"]
          },
          "resetAnimatorTriggerOnExit": ["BeHit", "DoSkill"]
        },
        "Life_Warning": {
          "$type": "ConfigMonsterStateIDInfo",
          "animatorStates": {
            "Warning": [
              "Monster_Undead01_Warning",
              "Monster_Thoarder_DrawWeapon",
              "Audio_Monster_Thoarder_BlackRacoon_Hatchet_02_Alert"
            ]
          },
          "resetAnimatorTriggerOnExit": ["BeHit", "DoSkill"]
        },
        //////////////////////////////////////////////////
        //	Attack states
        //////////////////////////////////////////////////
        "NormalAtk": {
          "$type": "ConfigMonsterStateIDInfo",
          "animatorStates": {
            "NormalAtk": [
              "Monster_Thoarder_Female_Hatchet_Anego_NormalAtk",
              "Audio_Monster_Thoarder_BlackRacoon_Hatchet_02_NormalAtk"
            ]
          },
          "resetAnimatorTriggerOnExit": ["BeHit", "DoSkill", "FirecrackerHit"]
        },
        "TripleAttack": {
          "$type": "ConfigMonsterStateIDInfo",
          "animatorStates": {
            "TripleAttack": [
              "Monster_Thoarder_Female_Hatchet_Anego_TripleAttack",
              "Audio_Monster_Thoarder_BlackRacoon_Hatchet_02_TripleAttack"
            ]
            // "Sword_TripleAttack_First": ["Monster_Thoarder_Female_Hatchet_TripleAttack_First"],
            // "Sword_TripleAttack_Second": ["Monster_Thoarder_Female_Hatchet_TripleAttack_Second"],
            // "Sword_TripleAttack_Thrid": ["Monster_Thoarder_Female_Hatchet_TripleAttack_Thrid"],
          },
          "resetAnimatorTriggerOnExit": ["BeHit", "DoSkill", "FirecrackerHit"],
          "addEndure": 0.6
        },
        "JumpAttack": {
          "$type": "ConfigMonsterStateIDInfo",
          "animatorStates": {
            //"Sword_ThumpAttack": ["Monster_Undead01_ThumpAttack", "Audio_Hili_ThumpAtk"],
            "JumpAttack_BS": [
              "Monster_Thoarder_Female_Hatchet_Anego_JumpAttack"
            ],
            "JumpAttack_Halt": [
              "Monster_Thoarder_Female_Hatchet_Anego_JumpAttack"
            ],
            "JumpAttack": [
              "Monster_Thoarder_Female_Hatchet_Anego_JumpAttack",
              "Audio_Monster_Thoarder_BlackRacoon_Hatchet_02_JumpAttack"
            ]
          },
          "resetAnimatorTriggerOnExit": ["BeHit", "DoSkill", "FirecrackerHit"],
          "addEndure": 0.6
        },
        "Throw": {
          "$type": "ConfigMonsterStateIDInfo",
          "animatorStates": {
            "Throw": [
              "Monster_Thoarder_Female_Hatchet_Anego_Throw",
              "Audio_Monster_Thoarder_BlackRacoon_Hatchet_02_RangedAtk_Throw"
            ],
            "Pick": [
              "Monster_Thoarder_Female_Hatchet_Anego_Pick",
              "Audio_Monster_Thoarder_BlackRacoon_Hatchet_02_RangedAtk_Pick"
            ]
          },
          "resetAnimatorTriggerOnExit": ["BeHit", "DoSkill", "FirecrackerHit"]
        },
        "ThrowBS": {
          "$type": "ConfigMonsterStateIDInfo",
          "animatorStates": {
            "ThrowBS": ["Audio_Monster_Thoarder_Hatchet_RangedAtk_Throw"]
          },
          "resetAnimatorTriggerOnExit": ["BeHit", "DoSkill", "FirecrackerHit"]
        },
        "ThrowAS": {
          "$type": "ConfigMonsterStateIDInfo",
          "animatorStates": {
            "ThrowAS": ["Monster_Thoarder_Female_Hatchet_Anego_Throw"]
          },
          "resetAnimatorTriggerOnExit": ["BeHit", "DoSkill", "FirecrackerHit"]
        },
        "PickBS": {
          "$type": "ConfigMonsterStateIDInfo",
          "animatorStates": {
            "PickBS": ["Audio_Monster_Thoarder_Hatchet_RangedAtk_Pick"]
          },
          "resetAnimatorTriggerOnExit": ["BeHit", "DoSkill", "FirecrackerHit"]
        },
        "PickAS": {
          "$type": "ConfigMonsterStateIDInfo",
          "animatorStates": {
            "PickAS": []
          },
          "resetAnimatorTriggerOnExit": ["BeHit", "DoSkill", "FirecrackerHit"]
        },
        "ThrowPlus": {
          "$type": "ConfigMonsterStateIDInfo",
          "animatorStates": {
            "ThrowPlus": [
              "Monster_Thoarder_Female_Hatchet_Anego_ThrowPlus",
              "Audio_Monster_Thoarder_BlackRacoon_Hatchet_02_RangedAtk_Throw"
            ],
            "PickPlus": [
              "Monster_Thoarder_Female_Hatchet_Anego_Pick",
              "Audio_Monster_Thoarder_BlackRacoon_Hatchet_02_RangedAtk_Pick"
            ]
          },
          "resetAnimatorTriggerOnExit": ["BeHit", "DoSkill", "FirecrackerHit"]
        },
        "MoveAtk": {
          "$type": "ConfigMonsterStateIDInfo",
          "animatorStates": {
            "MoveAtkBS": ["Monster_Thoarde_Female_Hatchet_Anego_MoveAtkBS"],
            "MoveAtkAS": ["Monster_Thoarde_Female_Hatchet_Anego_MoveAtkAS"]
          },
          "resetAnimatorTriggerOnExit": ["BeHit", "DoSkill", "FirecrackerHit"]
        },
        "Order": {
          "$type": "ConfigMonsterStateIDInfo",
          "animatorStates": {
            "Order": [
              "Monster_Thoarde_Female_Hatchet_Anego_Order",
              "Audio_Monster_Thoarder_BlackRacoon_Hatchet_02_Order"
            ]
          },
          "canSteer": true,
          "combatMove": true,
          "resetAnimatorTriggerOnExit": ["BeHit", "DoSkill", "FirecrackerHit"]
        },
        "Dodge": {
          "$type": "ConfigMonsterStateIDInfo",
          "animatorStates": {
            "Dodge": [
              "Monster_Thoarde_Female_Hatchet_Anego_Dodge",
              "Audio_Monster_Thoarder_BlackRacoon_Hatchet_02_Retreat"
            ]
          },
          "resetAnimatorTriggerOnExit": [
            "BeHit",
            "DoSkill",
            "DodgeTrigger",
            "FirecrackerHit"
          ]
        },
        //////////////////////////////////////////////////
        //	Activity states
        //////////////////////////////////////////////////
        "ActivitySkill": {
          "$type": "ConfigMonsterStateIDInfo",
          "animatorStates": {
            "ActivitySkill": [
              "Monster_Thoarde_Female_Hatchet_Anego_ActivitySkill",
              "Audio_Monster_Thoarder_BlackRacoon_Hatchet_02_ActivitySkill"
            ]
          },
          "resetAnimatorTriggerOnExit": ["BeHit", "DoSkill", "FirecrackerHit"],
          "canSteer": true,
          "addEndure": 0
        },
        "FirecrackerHit": {
          "$type": "ConfigMonsterStateIDInfo",
          "animatorStates": {
            "FirecrackerHit": [
              "Audio_Monster_Thoarder_BlackRacoon_Hatchet_02_FirecrackerHit"
            ]
          },
          "canSteer": true
        },
        //////////////////////////////////////////////////
        //	Taunt states
        //////////////////////////////////////////////////
        "Taunt": {
          "$type": "ConfigMonsterStateIDInfo",
          "animatorStates": {
            "Taunt_1": ["Audio_Monster_Thoarder_BlackRacoon_Hatchet_02_Taunt1"],
            "Taunt_2": ["Audio_Monster_Thoarder_BlackRacoon_Hatchet_02_Taunt2"],
            "Taunt_3": ["Audio_Monster_Thoarder_BlackRacoon_Hatchet_02_Taunt3"]
          },
          "resetAnimatorTriggerOnExit": ["BeHit", "DoSkill"]
        },
        //////////////////////////////////////////////////
        //	SpecialStates states
        //////////////////////////////////////////////////

        //////////////////////////////////////////////////
        //	Other states
        //////////////////////////////////////////////////
        "SheathWeapon": {
          "$type": "ConfigMonsterStateIDInfo",
          "animatorStates": {
            "SheathWeapon": [
              "Monster_Thoarde_Female_Hatchet_Anego_SheathWeapon",
              "Audio_Monster_Thoarder_BlackRacoon_Hatchet_02_SheathWeapon"
            ]
          },
          "resetAnimatorTriggerOnExit": ["SheathWeaponTrigger"]
        }
      }
    }
  },
  "abilities": [
    //////////////////////////////////////////////////
    //	Alert abilities
    //////////////////////////////////////////////////

    //////////////////////////////////////////////////
    //	Attack abilities
    //////////////////////////////////////////////////
    {
      "abilityID": "SteerAttack",
      "abilityName": "Thoarder_Female_Hatchet_Anego_SteerAttack"
    },
    {
      "abilityID": "Throw",
      "abilityName": "Thoarder_Female_Hatchet_Anego_Throw"
    },
    {
      "abilityID": "Throw_Effect",
      "abilityName": "Thoarder_Female_Hatchet_Anego_Throw_Effect"
    },
    {
      "abilityID": "JumpAttack_RushMove01",
      "abilityName": "Thoarder_Female_Hatchet_Anego_JumpAttack_RushMove01"
    },
    {
      "abilityID": "JumpAttack_RushMove02",
      "abilityName": "Thoarder_Female_Hatchet_Anego_JumpAttack_RushMove02"
    },
    {
      "abilityID": "NormalAtk_RushMove02",
      "abilityName": "Thoarder_Female_Hatchet_Anego_NormalAtk_RushMove01"
    },
    {
      "abilityID": "Order",
      "abilityName": "Thoarder_Female_Hatchet_Anego_Order"
    },
    // {
    // 	"abilityID": "Dodge",
    // 	"abilityName": "Thoarder_Female_Hatchet_Anego_Dodge",
    // },
    //////////////////////////////////////////////////
    //	Activity abilities
    //////////////////////////////////////////////////
    {
      "abilityID": "ActivitySkill",
      "abilityName": "Thoarder_Female_Hatchet_Anego_ActivitySkill"
    },
    //////////////////////////////////////////////////
    //	WeaponState abilities
    //////////////////////////////////////////////////
    {
      "abilityID": "WeaponOnBack",
      "abilityName": "Thoarder_WeaponOnBack"
    },
    // {
    // 	"abilityID": "DrawWeapon",
    // 	"abilityName": "Thoarder_DrawWeapon",
    // },
    // {
    // 	"abilityID": "SheathWeapon",
    // 	"abilityName": "Thoarder_SheathWeapon",
    // },
    // {
    // 	"abilityID": "HideWeapon",
    // 	"abilityName": "Thoarder_HideWeapon",
    // },
    // {
    // 	"abilityID": "UnhideWeapon",
    // 	"abilityName": "Thoarder_UnhideWeapon",
    // },
    {
      "abilityID": "Axe_StateHolder",
      "abilityName": "Axe_StateHolder"
    },
    //////////////////////////////////////////////////
    //	SpecialStates abilities
    //////////////////////////////////////////////////
    //////////////////////////////////////////////////
    //	Other abilities
    //////////////////////////////////////////////////
    {
      "abilityID": "ReturnToBorn",
      "abilityName": "Thoarder_ReturnToBorn"
    },
    {
      "abilityID": "SmokeBombInHandR_Start",
      "abilityName": "Thoarder_Die_SmokeBombInHandR_Start"
    },
    {
      "abilityID": "SmokeBombEffect_End",
      "abilityName": "Thoarder_Die_SmokeBombEffect_End"
    },
    {
      "abilityID": "SteerMove",
      "abilityName": "Thoarder_SteerMove"
    },
    {
      "abilityID": "EndureModifier",
      "abilityName": "Thoarder_EndureModifier"
    }
  ],
  "initialPoses": {
    "Default": {
      "initialPoseID": 0
    }
    // For reference:
    // "CrossBow_Fixed":
    // {
    // 	"initialPoseID" : 402,
    // 	"initialPoseParams":
    // 	{
    // 		"boolParams":
    // 		{
    // 			"CrossBow_Fixed": "true",
    // 		},
    // 	},
    // },
  },
  "aibeta": {
    "enable": true,
    "skillGCD": 3.0,
    "moveSetting": {
      "almostReachedDistanceRun": 1.5
    },
    "neurons": {
      "DefaultSetting": ["HIT"]
    },
    "profiling": {
      // For reference:
      // "staticPoses": [9002, 9003],
    },
    "sensing": {
      "settings": {
        "DefaultSetting": {
          "viewRange": 30.0,
          "feelRange": 8.0
        },
        "HighAlert": {
          "viewRange": 40.0,
          "feelRange": 10.0
        }
      },
      "templates": {
        "DefaultTemplate": {
          "DefaultPoses": "DefaultSetting"
        },
        "HighAlertTemplate": {
          "DefaultPoses": "HighAlert"
        }
      }
    },
    // For reference:
    // "precombat":
    // {
    // 	"bioClockSleepFrom": 11,
    // 	"bioClockSleepTo": 12,
    // },
    "defendArea": {
      "enable": true
    },
    "threat": {
      //"clearThreatTargetDistance": 10,
      "clearThreatTimerByDistance": 3.0,
      "clearThreatByLostPath": true,
      "clearThreatTimerByLostPath": 18,
      "clearThreatTimerByTargetOutOfZone": 5,
      "clearThreatByTargetOutOfZone": true,
      "viewAttenuation": [
        { "x": 10.0, "y": 2.0 },
        { "x": 15.0, "y": 0.8 },
        { "x": 20.0, "y": 0.5 },
        { "x": 25.0, "y": 0.3 },
        { "x": 30.0, "y": 0.2 }
      ]
    },
    "buddySetting": {
      "enable": true,
      "buddyFeatureTagIDs": [4006]
    },
    "returnToBornTactic": {
      "enable": true,
      "defaultSetting": {
        "speedLevel": 2
      }
    },
    "investigateTactic": {
      "enable": true,
      "condition": {
        "pose": [1]
      }
    },
    // For later use
    "reactActionPointTactic": {
      "enable": true,
      "defaultSetting": {
        "reactList": [
          // For reference:
          // {
          // 	"pointType": "SleepPoint",
          // 	"detectDistance": 15,
          // 	"pose": [1, 101, 401, 402, 201, 301],
          // 	"nerveTrigger": ["ASLEEP"],
          // 	"skillID": 111,
          // },
        ]
      }
    },
    "wanderTactic": {
      "enable": true,
      "condition": {
        "pose": [1]
      },
      "defaultSetting": {
        "speedLevel": 1,
        "cdMin": 1.5,
        "cdMax": 3.0,
        "distanceFromBorn": 15.0,
        "distanceFromCurrentMin": 3.75,
        "distanceFromCurrentMax": 7.5
      }
    },
    "meleeChargeTactic": {
      "enable": true,
      "condition": {
        "pose": [1001]
      },
      "defaultSetting": {
        "speedLevel": 2,
        "speedLevelInner": 1,
        "innerDistance": 12,
        "stopDistance": 10,
        "startDistanceMin": 12.0,
        "startDistanceMax": 50
      }
    },
    "facingMoveTactic": {
      "enable": true,
      "condition": {
        "pose": [1001]
      },
      "defaultSetting": {
        "speedLevel": 1,
        "rangeMin": 2.0,
        "rangeMax": 10.0,
        "facingMoveWeight": {
          "stop": 1.0,
          "forward": 0.0,
          "back": 0.0,
          "left": 2.0,
          "right": 2.0
        }
      },
      "specification": {
        // For reference:
        // "1401":
        // {
        // 	"rangeMin": 5,
        // 	"rangeMax": 30,
        // 	"facingMoveWeight":
        // 	{
        // 		"stop": 1,
        // 		"forward": 0.0,
        // 		"back": 0.0,
        // 		"left": 0.0,
        // 		"right": 0.0,
        // 	},
        // },
      }
    },
    "skillGroupCDConfigs": [
      {
        //Melee
        "skillGroupCDID": 1,
        "skillGroupCDTime": 3.0
      },
      {
        "skillGroupCDID": 2,
        "skillGroupCDTime": 2
      }
    ],
    "skillSetting": {
      "skillEliteSet": {
        "1": [401]
      }
    },
    "network": {
      "syncSkill": true
    },
    "skills": {
      //////////////////////////////////////////////////
      //	Alert Skills 101~199
      //////////////////////////////////////////////////
      "101": {
        "name": "OnAlert",
        "stateIDs": ["Life_Warning"],
        "skillType": "OnAlert",
        "skillQueryingTime": 3,
        "triggerGCD": false,
        "ignoreGCD": true,
        "faceTarget": true
      },
      "202": {
        "priority": 3,
        "cd": 5.0,
        "cdUpperRange": 1.0,
        "initialCD": 5.0,
        "triggerGCD": false,
        "combatSkillType": "MeleeAttack",
        "name": "JumpAttack",
        "stateIDs": ["JumpAttack"],
        "castCondition": {
          "pickRangeMin": 1.5,
          "pickRangeMax": 5,
          "pose": [1001]
        }
      },
      "203": {
        "priority": 3,
        "cd": 3.0,
        "cdUpperRange": 1.0,
        "initialCD": 6.0,
        "initialCDUpperRange": 5.0,
        "combatSkillType": "MeleeAttack",
        "name": "TripleAttack",
        "stateIDs": ["TripleAttack"],
        "triggerGCD": true,
        "castCondition": {
          "pickRangeMin": 0.0,
          "pickRangeMax": 3.25,
          "castRangeMin": 0.0,
          "castRangeMax": 3.25,
          "pose": [1001]
        }
      },
      "301": {
        "cd": 3,
        "priority": 2,
        "skillGroupCDID": 2,
        "combatSkillType": "RangedAttack",
        "name": "HatchetThrow",
        "stateIDs": ["ThrowBS", "ThrowAS", "PickAS", "PickBS"],
        "triggerGCD": false,
        "castCondition": {
          "pickRangeMin": 5.0,
          "pickRangeMax": 15.0,
          "pose": [1001]
        }
      },
      // "321":
      // {
      // 	"cd":15,
      // 	"cdUpperRange": 5,
      // 	"priority": 3,
      // 	"name": "Dodge",
      // 	"stateIDs": ["Dodge"],
      // 	"castCondition":
      // 	{
      // 		"pickRangeMin": 0,
      // 		"pickRangeMax": 3,
      // 		"pose": [1001]
      // 	},
      // },//屏蔽闪避在活动中
      "331": {
        "cd": 25,
        "cdUpperRange": 5,
        "triggerGCD": true,
        "initialCD": 10,
        "skillGroupCDID": 2,
        "name": "Order",
        "stateIDs": ["Order"],
        "skillType": "CombatBuddy",
        "skillQueryingTime": 3,
        "castCondition": {
          "pose": [1001]
        },
        "buddySkillCondition": {
          "selectRange": 30,
          "buddyScoring": {
            "hpFactor": 1,
            "distFactor": -1,
            "roleScores": [1, 1, 1, 1]
          }
        }
      },
      //////////////////////////////////////////////////
      //	Activity Skills
      //////////////////////////////////////////////////
      "401": {
        "cd": 500.0,
        "cdUpperRange": 5,
        "skillGroupCDID": 1,
        "priority": 1,
        "triggerGCD": false,
        "name": "ActivitySkill",
        "stateIDs": ["ActivitySkill"],
        "enableSkillPrepare": false,
        "castCondition": {
          "pickRangeMin": 0,
          "pickRangeMax": 20
        }
      }
    }
  },
  "audio": {
    "$type": "ConfigMonsterAudio",
    "animAudio": {
      "onTransitionOut": [],
      "onTransitionIn": []
    },
    "disableEvent": {},
    "destroyEvent": {},
    "randomVariantSwitchGroup": {
      "text": ""
    },
    "randomVariantSwitchValues": [
      {
        "text": ""
      }
    ]
  }
}
