{
  "$type": "ConfigMonster",
  "common": {
    "mass": 1000.0,
    "height": 1.2,
    "modelHeight": 0.4,
    "affectedByWorld": true,
    "checkInSurface": true,
    "scale": 4.0,
    "viewSize": 2.0,
    "shadowViewSizeRatio": 0.5,
    "useGrassDisplacement": true,
    "effectAttachShape": {
      "$type": "ConfigEffectAttachSkinnedMesh",
      "mesh": "EffectMesh"
    }
  },
  "model": {
    "canBakeMesh": false
  },
  "equipController": {
    "attachPoints": {
      "equip01": "WeaponR",
      "equip02": "WeaponL"
    },
    "sheathPoint": ""
  },
  "move": {
    "$type": "ConfigAnimatorMove",
    "monsterSizeType": "SlimeType"
  },
  "partControl": {
    "parts": [
      {
        "$type": "ConfigControlPart",
        "partRootName": "AntennaControl",
        "angularSpeed": 180.0,
        "forwardBy": "EntityForward",
        "rotateBy": "WorldXZ",
        "doOnUnEabled": "RotateToForward",
        "limitHorizontal": 360.0,
        "limitVertical": 0.0
      }
    ]
  },
  "face": {
    "baseFaceAnimation": "Default",
    "intervalFaceAnimation": "Blink",
    "characterName": "Slime_02",
    "minInterval": 1.5,
    "maxInterval": 5.5
  },
  "billboard": {
    "$type": "ConfigCombatBillboard",
    "offsetType": "Character",
    "offset": {
      "x": 0,
      "y": 0,
      "z": 0
    },
    "showHPBar": true,
    "radiusOffset": 1.0,
    "size": "Big"
  },
  "combat": {
    "property": {
      "weight": 100, //weightLevel = 2
      "endureType": "Monster_Grunt_Other"
    },
    "combatLock": {
      "denyLockOn": false,
      "lockType": "Avatar&Monster_Lv4"
    },
    "beHit": {
      "hitBloodEffect": "",
      "hitAutoRedirect": false,
      "muteAllHit": false,
      "muteAllHitEffect": false,
      "muteAllHitText": false
    },
    "die": {
      "dieDisappearEffect": "",
      "dieEndTime": 2,
      "dieForceDisappearTime": 8,
      "muteHitBox": true,
      "dieDenyLockOn": true,
      "dieIsGhostToEnemy": true,
      "dieIgnoreTriggerBullet": true,
      "muteBillboard": true,
      "mutePushCollider": true
    },
    "animEvents": {
      "NormalAtk": {
        "attackPattern": {
          "$type": "ConfigAttackCircle",
          "duration": 0.0,
          "triggerType": "TriggerNoRepeat",
          "fanAngle": 150.0,
          "radius": 1.5,
          "born": {
            "$type": "ConfigBornBySelf",
            "offset": {
              "x": 0.0,
              "y": 0.0,
              "z": 0.5
            }
          }
        },
        "attackInfo": {
          "attackProperty": {
            "damagePercentage": 0.333,
            "strikeType": "Blunt",
            "attackType": "Melee",
            "enBreak": 50.0
          },
          "hitPattern": {
            "onHitEffectName": "default",
            "hitImpulseType": "LV4",
            "reboundRatio": 0,
            "hitHaltTime": 0,
            "hitHaltTimeScale": 0.01,
            "muteHitText": false
          }
          // "forceCameraShake": false,
          // "cameraShake":
          // {
          // 	"shakeType": "HitVector",
          // 	"shakeRange": 0.12,
          // 	"shakeTime": 0.15,
          // 	"shakeDistance": 30.0,
          // 	"shakeDir":
          // 	{
          // 		"x":0,
          // 		"y":0,
          // 		"z":1,
          // 	},
          // },
        }
      },
      "NormalAtk_Electric": {
        "attackPattern": {
          "$type": "ConfigAttackCircle",
          "duration": 0.0,
          "triggerType": "TriggerNoRepeat",
          "fanAngle": 150.0,
          "radius": 1.5,
          "born": {
            "$type": "ConfigBornBySelf",
            "offset": {
              "x": 0.0,
              "y": 0.0,
              "z": 0.5
            }
          }
        },
        "attackInfo": {
          "attackProperty": {
            "damagePercentage": 0.333,
            "elementType": "Electric",
            "elementDurability": 50,
            "strikeType": "Blunt",
            "attackType": "Melee",
            "enBreak": 100.0
          },
          "hitPattern": {
            "onHitEffectName": "default",
            "hitImpulseType": "LV4",
            "reboundRatio": 0,
            "hitHaltTime": 0,
            "hitHaltTimeScale": 0.01,
            "muteHitText": false
          }
          // "forceCameraShake": false,
          // "cameraShake":
          // {
          // 	"shakeType": "HitVector",
          // 	"shakeRange": 0.12,
          // 	"shakeTime": 0.15,
          // 	"shakeDistance": 30.0,
          // 	"shakeDir":
          // 	{
          // 		"x":0,
          // 		"y":0,
          // 		"z":1,
          // 	},
          // },
        }
      }
    }
  },
  "inputKeys": [
    {
      "keyID": 1,
      "inputKeyCode": 257
    },
    {
      "keyID": 201,
      "inputKeyCode": 258
    },
    {
      "keyID": 301,
      "inputKeyCode": 259
    },
    {
      "keyID": 5,
      "inputKeyCode": 260
    },
    {
      "keyID": 701,
      "inputKeyCode": 261
    },
    {
      "keyID": 9,
      "inputKeyCode": 262
    }
  ],
  "stateLayers": {
    "defaultLayer": {
      "$type": "ConfigNormalStateLayer",
      "stateIDs": {
        "Born": {
          "$type": "ConfigMonsterStateIDInfo",
          "animatorStates": {
            "Born": ["Monster_Slime_Born_03", "Audio_Slime_03_Born_H"]
          },
          "combatMove": true,
          "canSyncMove": true,
          "resetAnimatorTriggerOnExit": ["DoSkill"]
        },
        "NormalIdle": {
          "$type": "ConfigMonsterStateIDInfo",
          "animatorStates": {
            "Standby": []
          },
          "combatMove": true,
          "canDoSkill": true,
          "canSyncMove": true,
          "resetAnimatorTriggerOnExit": ["DoSkill"]
        },
        "NormalMove": {
          "$type": "ConfigMonsterStateIDInfo",
          "animatorStates": {
            "Walk": ["Audio_Slime_03_Walk_H"],
            "Run": ["Audio_Slime_03_Run_H"]
          },
          "combatMove": true,
          "canDoSkill": true,
          "canSteer": true,
          "canSyncMove": true,
          "resetAnimatorTriggerOnExit": ["DoSkill"]
        },
        "Turn": {
          "$type": "ConfigMonsterStateIDInfo",
          "animatorStates": {
            "Turn": ["Audio_Slime_03_Run_H"]
          },
          "combatMove": true,
          "canDoSkill": true,
          "canSyncMove": true,
          "resetAnimatorTriggerOnExit": ["DoSkill"]
        },
        "BeHit": {
          "$type": "ConfigMonsterStateIDInfo",
          "animatorStates": {
            "Hit_L": ["Monster_Slime_BeHit", "Audio_Slime_03_Hit_L"],
            "Hit_H": ["Monster_Slime_BeHit", "Audio_Slime_03_Hit_H"]
          },
          "combatMove": true,
          "resetAnimatorTriggerOnEnter": ["BeHit"],
          "resetAnimatorTriggerOnExit": ["DoSkill"]
        },
        "BeHitThrow": {
          "$type": "ConfigMonsterStateIDInfo",
          "animatorStates": {
            "HitThrow": ["Monster_Slime_BeHit", "Audio_Slime_03_HitThrow_H"],
            "HitThrowDrop": [],
            "HitThrowToGround": [
              "Monster_Slime_ThrowToGround_03",
              "Audio_Slime_03_HitThrowToGround_H"
            ]
          },
          "combatMove": true,
          "resetAnimatorTriggerOnEnter": ["BeHit", "HitAir2HitDrop"],
          "resetAnimatorTriggerOnExit": ["DoSkill"]
        },
        "Struggle": {
          "$type": "ConfigMonsterStateIDInfo",
          "animatorStates": {
            "Struggle": []
          },
          "combatMove": true,
          "resetAnimatorTriggerOnEnter": ["BeHit", "HitAir2HitDrop"],
          "resetAnimatorTriggerOnExit": ["DoSkill"]
        },
        "Die": {
          "$type": "ConfigMonsterStateIDInfo",
          "animatorStates": {
            "Die": ["Monster_Slime_Die", "Monster_Slime_Electric_03_Die"],
            "SwimDie": ["Monster_Slime_Die", "Monster_Slime_Electric_03_Die"]
          }
        },
        "Warning": {
          "$type": "ConfigMonsterStateIDInfo",
          "animatorStates": {
            "Warning": ["Monster_Slime_Warning"]
          },
          "combatMove": true,
          "resetAnimatorTriggerOnExit": ["BeHit", "DoSkill"]
        },
        "Charge": {
          "$type": "ConfigMonsterStateIDInfo",
          "animatorStates": {
            "Charge": ["Monster_Slime_Electric_03_Charge"]
          },
          "combatMove": true,
          "resetAnimatorTriggerOnExit": ["BeHit", "DoSkill"],
          "addEndure": 0.4
        },
        "TestTool_Discharge": {
          "$type": "ConfigMonsterStateIDInfo",
          "animatorStates": {
            "TestTool_Discharge": ["Monster_Slime_Electric_TestTool_Discharge"]
          },
          "combatMove": true,
          "resetAnimatorTriggerOnExit": ["BeHit", "DoSkill"]
        },
        "NormalAttack": {
          "$type": "ConfigMonsterStateIDInfo",
          "animatorStates": {
            "NormalAttack": [
              "Monster_Slime_Electric_03_NormalAttack",
              "Audio_Slime_03_NormalAtk_H"
            ]
          },
          "combatMove": true,
          "resetAnimatorTriggerOnExit": ["BeHit", "DoSkill"]
        },
        "JumpAttack": {
          "$type": "ConfigMonsterStateIDInfo",
          "animatorStates": {
            "JumpAttack": [
              "Monster_Slime_Electric_JumpAttack",
              "Audio_Slime_03_JumpAtk_H"
            ]
          },
          "combatMove": true,
          "cullingModelAlwaysAnimate": true,
          "resetAnimatorTriggerOnExit": ["BeHit", "DoSkill"],
          "addEndure": 0.4,
          "massRatio": 20
        }
      }
    }
  },
  "abilities": [
    {
      "abilityID": "ResistShock",
      "abilityName": "Slime_Electric_ResistShock"
    },
    {
      "abilityID": "ElementState",
      "abilityName": "Slime_Electric_03_ElementState"
    },
    {
      "abilityID": "AnimationSteer",
      "abilityName": "Slime_Electric_AnimationSteer"
    },
    {
      "abilityID": "JumpGround_castShadow",
      "abilityName": "Slime_Electric_JumpGround_castShadow"
    },
    {
      "abilityID": "JumpGround_Alert",
      "abilityName": "Slime_Electric_JumpGround_Alert"
    },
    {
      "abilityID": "JumpGround_Attack",
      "abilityName": "Slime_Electric_JumpGround_Attack"
    },
    {
      "abilityID": "TestTool_Discharge",
      "abilityName": "Slime_Electric_TestTool_Discharge",
      "lightWeightRemove": true
    },
    {
      "abilityID": "ElecMuteHurt",
      "abilityName": "Monster_Common_ElecMuteHurt"
    }
  ],
  "field": {
    "shape": "CircleR15", //形状，不填为collider
    "ignoreScale": true,
    "startCheckTime": 0.0, //触发开始延时
    "concernType": "CombatExcludeGWGO",
    "checkInterval": 0.5, //触发间隔
    "triggerInfinite": true, //是否永远触发
    "lifeInfinite": true, //如果未触发是否一致存在
    "overwriteCampType": true,
    "campType": "SelfCamp"
  },
  "initialPoses": {
    "Default": {
      "initialPoseID": 0
    }
  },
  "aibeta": {
    "enable": true,
    "skillGCD": 3.0,
    "neurons": {
      "DefaultSetting": ["HIT"],
      "NeverCombat": []
    },
    "skillSetting": {
      "skillEliteSet": {
        "1": [501, 503],
        "2": [502, 504]
      }
    },
    "profiling": {
      "moveCullingLevel": 2
    },
    "sensing": {
      "settings": {
        "DefaultSetting": {
          "viewRange": 20.0,
          "feelRange": 8.0
        },
        "NeverCombat": {
          "enableVision": false,
          "feelRange": 0.0,
          "hearAttractionRange": 0.0
        }
      },
      "templates": {
        "DefaultTemplate": {
          "DefaultPoses": "DefaultSetting"
        },
        "NeverCombatTemplate": {
          "DefaultPoses": "NeverCombat"
        }
      }
    },
    "threat": {
      "clearThreatTargetDistance": 30.0,
      "clearThreatTimerByDistance": 2.5,
      "clearThreatEdgeDistance": 2.5,
      "viewAttenuation": [
        { "x": 12.0, "y": 1.0 },
        { "x": 20.0, "y": 0.5 }
      ]
    },
    "returnToBornTactic": {
      "enable": true
    },
    "wanderTactic": {
      "enable": true,
      "defaultSetting": {
        "speedLevel": 1,
        "cdMin": 3.0,
        "cdMax": 10.0,
        "distanceFromBorn": 15.0,
        "distanceFromCurrentMin": 2.5,
        "distanceFromCurrentMax": 7.5
      }
    },
    "meleeChargeTactic": {
      "enable": true,
      "condition": {
        "pose": [2, 3, 102, 103]
      },
      "defaultSetting": {
        "innerDistance": 5.0,
        "stopDistance": 4.5,
        "startDistanceMin": 5.0,
        "startDistanceMax": 50.0,
        "useMeleeSlot": false
      },
      "specification": {
        "103": {
          "innerDistance": 4.0,
          "stopDistance": 2.0,
          "startDistanceMin": 3.0,
          "startDistanceMax": 50.0,
          "useMeleeSlot": false
        }
      }
    },
    "fleeOnBlockAvatarLandingTactic": {
      "enable": true,
      "defaultSetting": {
        "speedLevel": 2,
        "triggerDistance": 4.0,
        "fleeAngle": 75,
        "fleeDistanceMin": 3.0,
        "fleeDistanceMax": 5.0,
        "neuronTriggerCD": 0.5
      }
    },
    "skills": {
      "100": {
        "name": "OnAlert",
        "stateIDs": ["Warning"],
        "skillType": "OnAlert",
        "skillQueryingTime": 3,
        "triggerGCD": false,
        "faceTarget": true
      },
      "209": {
        "cd": 0.25,
        "name": "Reborn_Free",
        "stateIDs": ["Charge"],
        "skillType": "Free",
        "castCondition": {
          "pose": [1]
        }
      },
      "201": {
        "cd": 0.25,
        "name": "Reborn",
        "stateIDs": ["Charge"],
        "castCondition": {
          "pose": [2]
        }
      },
      "202": {
        "cd": 0.25,
        "name": "Reborn",
        "stateIDs": ["Charge"],
        "flagSelfInZone": "01",
        "castCondition": {
          "pose": [2]
        }
      },
      "203": {
        "cd": 0.25,
        "name": "Reborn",
        "stateIDs": ["Charge"],
        "flagTargetReachable": "01",
        "castCondition": {
          "pose": [2]
        }
      },
      "204": {
        "cd": 0.25,
        "name": "Reborn",
        "stateIDs": ["Charge"],
        "flagSelfInZone": "01",
        "flagTargetReachable": "01",
        "castCondition": {
          "pose": [2]
        }
      },
      "301": {
        "cd": 2.0,
        "cdUpperRange": 3.0,
        "combatSkillType": "MeleeAttack",
        "name": "NormalAttack",
        "stateIDs": ["NormalAttack"],
        "castCondition": {
          "pickRangeMin": 0.0,
          "pickRangeMax": 2.25,
          "pose": [102]
        }
      },
      "302": {
        "cd": 2.0,
        "cdUpperRange": 3.0,
        "combatSkillType": "MeleeAttack",
        "name": "NormalAttack",
        "stateIDs": ["NormalAttack"],
        "flagSelfInZone": "01",
        "castCondition": {
          "pickRangeMin": 0.0,
          "pickRangeMax": 2.25,
          "pose": [102]
        }
      },
      "303": {
        "cd": 3.0,
        "combatSkillType": "MeleeAttack",
        "name": "NormalAttack",
        "stateIDs": ["NormalAttack"],
        "castCondition": {
          "pickRangeMin": 0.0,
          "pickRangeMax": 2.5,
          "pose": [103]
        }
      },
      "304": {
        "cd": 3.0,
        "combatSkillType": "MeleeAttack",
        "name": "NormalAttack",
        "stateIDs": ["NormalAttack"],
        "flagSelfInZone": "01",
        "castCondition": {
          "pickRangeMin": 0.0,
          "pickRangeMax": 2.5,
          "pose": [103]
        }
      },
      "305": {
        "cd": 5.0,
        "cdUpperRange": 3.0,
        "combatSkillType": "MeleeAttack",
        "name": "NormalAttack",
        "stateIDs": ["NormalAttack"],
        "castCondition": {
          "pickRangeMin": 0.0,
          "pickRangeMax": 2.25,
          "pose": [2, 3]
        }
      },
      "306": {
        "cd": 5.0,
        "cdUpperRange": 3.0,
        "combatSkillType": "MeleeAttack",
        "name": "NormalAttack",
        "stateIDs": ["NormalAttack"],
        "flagSelfInZone": "01",
        "castCondition": {
          "pickRangeMin": 0.0,
          "pickRangeMax": 2.25,
          "pose": [2, 3]
        }
      },
      "501": {
        "priority": 2,
        "cd": 7.5,
        "cdUpperRange": 7.5,
        "initialCD": 2.0,
        "initialCDUpperRange": 3.0,
        "publicCDGroup": "meleeAttack_long",
        "name": "JumpAttack",
        "stateIDs": ["JumpAttack"],
        "castCondition": {
          "pickRangeMin": 0.0,
          "pickRangeMax": 7.5,
          "pose": [102]
        }
      },
      "502": {
        "priority": 2,
        "cd": 2.5,
        "cdUpperRange": 2.5,
        "initialCD": 2.0,
        "initialCDUpperRange": 1.0,
        "ignoreGCD": true,
        "name": "JumpAttack",
        "stateIDs": ["JumpAttack"],
        "castCondition": {
          "pickRangeMin": 0.0,
          "pickRangeMax": 7.5,
          "pose": [102]
        }
      },
      "503": {
        "priority": 2,
        "cd": 5.0,
        "cdUpperRange": 5.0,
        "combatSkillType": "MeleeAttack",
        "name": "JumpAttack",
        "stateIDs": ["JumpAttack"],
        "castCondition": {
          "pickRangeMin": 0.0,
          "pickRangeMax": 3.0,
          "pose": [2, 3]
        }
      },
      "504": {
        "priority": 2,
        "cd": 2.5,
        "cdUpperRange": 2.5,
        "combatSkillType": "MeleeAttack",
        "ignoreGCD": true,
        "name": "JumpAttack",
        "stateIDs": ["JumpAttack"],
        "castCondition": {
          "pickRangeMin": 0.0,
          "pickRangeMax": 3.0,
          "pose": [2, 3]
        }
      }
    }
  },
  "audio": {
    "$type": "ConfigMonsterAudio",
    "animAudio": {
      "onTransitionOut": [
        {
          "currentStateName": "JumpAttack",
          "audioEvent": { "text": "Stop_sfx_monster_slimeL_jumpAtk" },
          "otherStateNames": [""],
          "usage": "Any"
        }
      ]
    }
  }
}
