{
  "$type": "ConfigMonster",
  "headControl": {
    "$type": "ConfigHeadControl",
    "useHeadControl": true,
    "maxYawDegree": 45,
    "maxPitchDegree": 30,
    "animStates": [
      "NormalIdle/Standby",
      "NormalMove/WalkForward",
      "NormalMove/WalkBack",
      "NormalMove/WalkRight",
      "NormalMove/WalkLeft",
      "NormalMove/Run",
      "TurnLeft/TurnLeft_BS",
      "TurnLeft/TurnLeft_AS",
      "TurnRight/TurnRight_BS",
      "TurnRight/TurnRight_AS"
    ]
  },
  "common": {
    "scale": 1.2,
    "viewSize": 2,
    "height": 2.4,
    "modelHeight": 2.4,
    "effectAttachShape": {
      "$type": "ConfigEffectAttachSkinnedMesh",
      "mesh": "EffectMesh"
    },
    "mass": 10000.0,
    "useGrassDisplacement": true,
    "affectedByWorld": true,
    "checkInSurface": true,
    "clearAnimatorOnSetLightDeactive": true,
    "clearAIOnSetLightDeactive": true
  },
  "dither": {
    "showDitherDuration": 2.0
  },
  "equipController": {
    "attachPoints": {
      "equip01": "WeaponR",
      "equip02": "WeaponL"
    },
    "sheathPoint": ""
  },
  "move": {
    "$type": "ConfigAnimatorMove",
    "facingMove": "ForwardBackward",
    "monsterSizeType": "StrongHumanoidType"
  },
  "billboard": {
    "$type": "ConfigCombatBillboard",
    "offsetType": "Character",
    "offset": {
      "x": 0.04,
      "y": 0,
      "z": 0
    },
    "radiusOffset": 0.72,
    "showHPBar": true,
    "size": "Big"
  },
  "combat": {
    "property": {
      "endureType": "Monster_Demiboss_Humanoid",
      "weight": 150 //weightLevel = 3
    },
    "combatLock": {
      "denyLockOn": false,
      "lockType": "Avatar&Monster_Lv4"
    },
    "beHit": {
      "hitBloodEffect": "",
      "muteAllHit": false,
      "muteAllHitEffect": false,
      "muteAllHitText": false
    },
    "die": {
      "hasAnimatorDie": true,
      "dieDisappearEffect": "Eff_Death_Common",
      "dieDisappearEffectDelay": 0.0,
      "dieEndTime": 2.0,
      "dieForceDisappearTime": 4,
      "dieShaderData": "MonsterDie",
      "useRagDoll": true,
      "ragDollDieEndTimeDelay": 0.0,
      "muteHitBox": true,
      "dieDenyLockOn": true,
      "dieIsGhostToEnemy": true,
      "dieIgnoreTriggerBullet": true,
      "muteBillboard": true,
      "mutePushCollider": true
    },
    "animEvents": {
      "Attack01": {
        "attackPattern": {
          "$type": "ConfigAttackCircle",
          "triggerType": "TriggerNoRepeat",
          "fanAngle": 360,
          "radius": 4.5,
          "born": {
            "$type": "ConfigBornBySelf",
            "offset": {
              "x": 0.0,
              "y": 0.0,
              "z": 1.0
            }
          }
        },
        "attackInfo": {
          "attackProperty": {
            "damagePercentage": 0.5,
            "strikeType": "Blunt",
            "attackType": "Melee",
            "enBreak": 100.0
          },
          "hitPattern": {
            "onHitEffectName": "default",
            "hitImpulseType": "LV5",
            "reboundRatio": 0,
            "hitHaltTime": 0,
            "hitHaltTimeScale": 0,
            "muteHitText": false
          },
          "forceCameraShake": true,
          "cameraShake": {
            "shakeType": "CustomVector",
            "shakeRange": 0.04,
            "shakeTime": 0.09,
            "shakeDistance": 20.0,
            "shakeDir": {
              "x": 1,
              "y": 0,
              "z": 1
            }
          }
        }
      },
      "Attack01_Electric": {
        "attackPattern": {
          "$type": "ConfigAttackCircle",
          "triggerType": "TriggerNoRepeat",
          "fanAngle": 360,
          "radius": 4.5,
          "born": {
            "$type": "ConfigBornBySelf",
            "offset": {
              "x": 0.0,
              "y": 0.0,
              "z": 1.2
            }
          }
        },
        "attackInfo": {
          "attackProperty": {
            "damagePercentage": 0.5,
            "strikeType": "Blunt",
            "elementType": "Electric",
            "attackType": "Melee",
            "enBreak": 100.0
          },
          "hitPattern": {
            "onHitEffectName": "default",
            "hitImpulseType": "LV5",
            "reboundRatio": 0,
            "hitHaltTime": 0,
            "hitHaltTimeScale": 0,
            "muteHitText": false
          },
          "forceCameraShake": true,
          "cameraShake": {
            "shakeType": "CustomVector",
            "shakeRange": 0.12,
            "shakeTime": 0.09,
            "shakeDistance": 25.0,
            "shakeDir": {
              "x": 1,
              "y": 0,
              "z": 1
            }
          }
        }
      },
      "Attack02": {
        "attackPattern": {
          "$type": "ConfigAttackBox",
          "triggerType": "TriggerNoRepeat",
          "born": {
            "$type": "ConfigBornBySelf",
            "offset": {
              "x": 0.0,
              "y": 3.0,
              "z": -4.0
            }
          },
          "size": {
            "x": 2.4,
            "y": 5.5,
            "z": 9.0
          }
        },
        "attackInfo": {
          "attackProperty": {
            "damagePercentage": 0.5,
            "strikeType": "Blunt",
            "attackType": "Melee",
            "enBreak": 200.0
          },
          "hitPattern": {
            "onHitEffectName": "default",
            "hitImpulseType": "LV6",
            "reboundRatio": 0,
            "hitHaltTime": 0,
            "hitHaltTimeScale": 0,
            "muteHitText": false
          },
          "forceCameraShake": true,
          "cameraShake": {
            "shakeType": "CustomVector",
            "shakeRange": 0.06,
            "shakeTime": 0.24,
            "shakeDistance": 20.0,
            "shakeDir": {
              "x": 0,
              "y": -1,
              "z": 0
            }
          }
        }
      },
      "Attack02_Electric": {
        "attackPattern": {
          "$type": "ConfigAttackBox",
          "triggerType": "TriggerNoRepeat",
          "born": {
            "$type": "ConfigBornBySelf",
            "offset": {
              "x": 0.0,
              "y": 3.0,
              "z": -4.0
            }
          },
          "size": {
            "x": 2.4,
            "y": 5.5,
            "z": 9.0
          }
        },
        "attackInfo": {
          "attackProperty": {
            "damagePercentage": 0.5,
            "strikeType": "Blunt",
            "elementType": "Electric",
            "attackType": "Melee",
            "enBreak": 200.0
          },
          "hitPattern": {
            "onHitEffectName": "default",
            "hitImpulseType": "LV6",
            "reboundRatio": 0,
            "hitHaltTime": 0,
            "hitHaltTimeScale": 0,
            "muteHitText": false
          },
          "forceCameraShake": true,
          "cameraShake": {
            "shakeType": "CustomVector",
            "shakeRange": 0.2,
            "shakeTime": 0.24,
            "shakeDistance": 25.0,
            "shakeDir": {
              "x": 0,
              "y": -1,
              "z": 0
            }
          }
        }
      },
      "Attack03": {
        "attackPattern": {
          "$type": "ConfigAttackCircle",
          "triggerType": "TriggerNoRepeat",
          "fanAngle": 360.0,
          "radius": 4.5,
          "born": {
            "$type": "ConfigBornBySelf",
            "offset": {
              "x": 0.0,
              "y": 0.0,
              "z": 1.0
            }
          }
        },
        "attackInfo": {
          "attackProperty": {
            "damagePercentage": 0.5,
            "strikeType": "Blunt",
            "attackType": "Melee",
            "enBreak": 100.0
          },
          "hitPattern": {
            "onHitEffectName": "default",
            "hitImpulseType": "LV5",
            "reboundRatio": 0,
            "hitHaltTime": 0,
            "hitHaltTimeScale": 0,
            "muteHitText": false
          },
          "forceCameraShake": true,
          "cameraShake": {
            "shakeType": "CustomVector",
            "shakeRange": 0.05,
            "shakeTime": 0.09,
            "shakeDistance": 20.0,
            "shakeDir": {
              "x": 1,
              "y": 0,
              "z": 1
            }
          }
        }
      },
      "Attack03_Electric": {
        "attackPattern": {
          "$type": "ConfigAttackCircle",
          "triggerType": "TriggerNoRepeat",
          "fanAngle": 360.0,
          "radius": 4.5,
          "born": {
            "$type": "ConfigBornBySelf",
            "offset": {
              "x": 0.0,
              "y": 0.0,
              "z": 1.0
            }
          }
        },
        "attackInfo": {
          "attackProperty": {
            "damagePercentage": 0.5,
            "strikeType": "Blunt",
            "elementType": "Electric",
            "attackType": "Melee",
            "enBreak": 100.0
          },
          "hitPattern": {
            "onHitEffectName": "default",
            "hitImpulseType": "LV5",
            "reboundRatio": 0,
            "hitHaltTime": 0,
            "hitHaltTimeScale": 0,
            "muteHitText": false
          },
          "forceCameraShake": true,
          "cameraShake": {
            "shakeType": "CustomVector",
            "shakeRange": 0.16,
            "shakeTime": 0.15,
            "shakeDistance": 25.0,
            "shakeDir": {
              "x": 1,
              "y": 0,
              "z": 1
            }
          }
        }
      },
      "Attack04": {
        "attackPattern": {
          "$type": "ConfigAttackBox",
          "triggerType": "TriggerNoRepeat",
          "born": {
            "$type": "ConfigBornBySelf",
            "offset": {
              "x": 0.0,
              "y": 3.0,
              "z": -2.0
            }
          },
          "size": {
            "x": 2.4,
            "y": 5.5,
            "z": 7.0
          }
        },
        "attackInfo": {
          "attackProperty": {
            "damagePercentage": 0.5,
            "strikeType": "Blunt",
            "attackType": "Melee",
            "enBreak": 200.0
          },
          "hitPattern": {
            "onHitEffectName": "default",
            "hitImpulseType": "LV6",
            "reboundRatio": 0,
            "hitHaltTime": 0,
            "hitHaltTimeScale": 0,
            "muteHitText": false
          },
          "forceCameraShake": true,
          "cameraShake": {
            "shakeType": "CustomVector",
            "shakeRange": 0.06,
            "shakeTime": 0.24,
            "shakeDistance": 20.0,
            "shakeDir": {
              "x": 0,
              "y": -1,
              "z": 0
            }
          }
        }
      },
      "Attack04_Electric": {
        "attackPattern": {
          "$type": "ConfigAttackBox",
          "triggerType": "TriggerNoRepeat",
          "born": {
            "$type": "ConfigBornBySelf",
            "offset": {
              "x": 0.0,
              "y": 3.0,
              "z": -2.0
            }
          },
          "size": {
            "x": 2.4,
            "y": 5.5,
            "z": 7.0
          }
        },
        "attackInfo": {
          "attackProperty": {
            "damagePercentage": 0.5,
            "strikeType": "Blunt",
            "elementType": "Electric",
            "attackType": "Melee",
            "enBreak": 200.0
          },
          "hitPattern": {
            "onHitEffectName": "default",
            "hitImpulseType": "LV6",
            "reboundRatio": 0,
            "hitHaltTime": 0,
            "hitHaltTimeScale": 0,
            "muteHitText": false
          },
          "forceCameraShake": true,
          "cameraShake": {
            "shakeType": "CustomVector",
            "shakeRange": 0.2,
            "shakeTime": 0.24,
            "shakeDistance": 25.0,
            "shakeDir": {
              "x": 0,
              "y": -1,
              "z": 0
            }
          }
        }
      },
      "CrashAttack01_Electric": {
        "attackPattern": {
          "$type": "ConfigAttackBox",
          "triggerType": "TriggerNoRepeat",
          "born": {
            "$type": "ConfigBornBySelf",
            "offset": {
              "x": 0.0,
              "y": 3.0,
              "z": -2.8
            }
          },
          "size": {
            "x": 2.4,
            "y": 5.5,
            "z": 7.6
          }
        },
        "attackInfo": {
          "attackProperty": {
            "damagePercentage": 0.5,
            "strikeType": "Blunt",
            "elementType": "Electric",
            "attackType": "Melee",
            "enBreak": 200.0
          },
          "hitPattern": {
            "onHitEffectName": "default",
            "hitImpulseType": "LV6",
            "reboundRatio": 0,
            "hitHaltTime": 0,
            "hitHaltTimeScale": 0,
            "muteHitText": false
          },
          "forceCameraShake": true,
          "cameraShake": {
            "shakeType": "CustomVector",
            "shakeRange": 0.2,
            "shakeTime": 0.24,
            "shakeDistance": 25.0,
            "shakeDir": {
              "x": 0,
              "y": -1,
              "z": 0
            }
          }
        }
      },
      "CrashAttack02_Electric": {
        "attackPattern": {
          "$type": "ConfigAttackCircle",
          "triggerType": "TriggerNoRepeat",
          "fanAngle": 360.0,
          "height": 2.8,
          "radius": 4.5,
          "born": {
            "$type": "ConfigBornBySelf",
            "offset": {
              "x": 0.0,
              "y": -1.2,
              "z": 0.5
            }
          }
        },
        "attackInfo": {
          "attackProperty": {
            "damagePercentage": 0.75,
            "strikeType": "Blunt",
            "elementType": "Electric",
            "attackType": "Melee",
            "enBreak": 200.0
          },
          "hitPattern": {
            "onHitEffectName": "default",
            "hitImpulseType": "LV6",
            "reboundRatio": 0,
            "hitHaltTime": 0,
            "hitHaltTimeScale": 0,
            "muteHitText": false
          },
          "forceCameraShake": true,
          "cameraShake": {
            "shakeType": "CustomVector",
            "shakeRange": 0.16,
            "shakeTime": 0.24,
            "shakeDistance": 25.0,
            "shakeDir": {
              "x": 0,
              "y": -1,
              "z": 0
            }
          }
        }
      },
      "Whirl01": {
        "attackPattern": {
          "$type": "ConfigAttackBox",
          "triggerType": "TriggerNoRepeat",
          "born": {
            "$type": "ConfigBornBySelf",
            "offset": {
              "x": 0.0,
              "y": 1.0,
              "z": 0.0
            },
            "direction": {
              "$type": "ConfigDirectionByEntity",
              "angleOffset": {
                "x": 0.0,
                "y": 0.0,
                "z": 0.0
              }
            }
          },
          "size": {
            "x": 2.0,
            "y": 2.0,
            "z": 4.0
          }
        },
        "attackInfo": {
          "attackProperty": {
            "damagePercentage": 0.125,
            "strikeType": "Blunt",
            "attackType": "Melee",
            "enBreak": 100.0
          },
          "hitPattern": {
            "onHitEffectName": "default",
            "hitImpulseType": "LV4",
            "reboundRatio": 0,
            "hitHaltTime": 0.12,
            "hitHaltTimeScale": 0.05,
            "muteHitText": false
          },
          "forceCameraShake": false,
          "cameraShake": {
            "shakeType": "HitVector",
            "shakeRange": 0.16,
            "shakeTime": 0.12,
            "shakeDistance": 25.0,
            "shakeDir": {
              "x": 0,
              "y": 0,
              "z": 1
            }
          }
        }
      },
      "Whirl02": {
        "attackPattern": {
          "$type": "ConfigAttackBox",
          "triggerType": "TriggerNoRepeat",
          "born": {
            "$type": "ConfigBornBySelf",
            "offset": {
              "x": 0.0,
              "y": 1.0,
              "z": 0.0
            },
            "direction": {
              "$type": "ConfigDirectionByEntity",
              "angleOffset": {
                "x": 0.0,
                "y": 90.0,
                "z": 0.0
              }
            }
          },
          "size": {
            "x": 2.0,
            "y": 2.0,
            "z": 4.0
          }
        },
        "attackInfo": {
          "attackProperty": {
            "damagePercentage": 0.125,
            "strikeType": "Blunt",
            "attackType": "Melee",
            "enBreak": 100.0
          },
          "hitPattern": {
            "onHitEffectName": "default",
            "hitImpulseType": "LV4",
            "reboundRatio": 0,
            "hitHaltTime": 0.12,
            "hitHaltTimeScale": 0.05,
            "muteHitText": false
          },
          "forceCameraShake": false,
          "cameraShake": {
            "shakeType": "HitVector",
            "shakeRange": 0.16,
            "shakeTime": 0.12,
            "shakeDistance": 25.0,
            "shakeDir": {
              "x": 0,
              "y": 0,
              "z": 1
            }
          }
        }
      },
      "Whirl03": {
        "attackPattern": {
          "$type": "ConfigAttackBox",
          "triggerType": "TriggerNoRepeat",
          "born": {
            "$type": "ConfigBornBySelf",
            "offset": {
              "x": 0.0,
              "y": 1.0,
              "z": 0.0
            },
            "direction": {
              "$type": "ConfigDirectionByEntity",
              "angleOffset": {
                "x": 0.0,
                "y": 180.0,
                "z": 0.0
              }
            }
          },
          "size": {
            "x": 2.0,
            "y": 2.0,
            "z": 4.0
          }
        },
        "attackInfo": {
          "attackProperty": {
            "damagePercentage": 0.125,
            "strikeType": "Blunt",
            "attackType": "Melee",
            "enBreak": 100.0
          },
          "hitPattern": {
            "onHitEffectName": "default",
            "hitImpulseType": "LV4",
            "reboundRatio": 0,
            "hitHaltTime": 0.12,
            "hitHaltTimeScale": 0.05,
            "muteHitText": false
          },
          "forceCameraShake": false,
          "cameraShake": {
            "shakeType": "HitVector",
            "shakeRange": 0.16,
            "shakeTime": 0.12,
            "shakeDistance": 25.0,
            "shakeDir": {
              "x": 0,
              "y": 0,
              "z": 1
            }
          }
        }
      },
      "Whirl04": {
        "attackPattern": {
          "$type": "ConfigAttackBox",
          "triggerType": "TriggerNoRepeat",
          "born": {
            "$type": "ConfigBornBySelf",
            "offset": {
              "x": 0.0,
              "y": 1.0,
              "z": 0.0
            },
            "direction": {
              "$type": "ConfigDirectionByEntity",
              "angleOffset": {
                "x": 0.0,
                "y": 270.0,
                "z": 0.0
              }
            }
          },
          "size": {
            "x": 2.0,
            "y": 2.0,
            "z": 4.0
          }
        },
        "attackInfo": {
          "attackProperty": {
            "damagePercentage": 0.125,
            "strikeType": "Blunt",
            "attackType": "Melee",
            "enBreak": 100.0
          },
          "hitPattern": {
            "onHitEffectName": "default",
            "hitImpulseType": "LV4",
            "reboundRatio": 0,
            "hitHaltTime": 0.12,
            "hitHaltTimeScale": 0.05,
            "muteHitText": false
          },
          "forceCameraShake": false,
          "cameraShake": {
            "shakeType": "HitVector",
            "shakeRange": 0.16,
            "shakeTime": 0.12,
            "shakeDistance": 25.0,
            "shakeDir": {
              "x": 0,
              "y": 0,
              "z": 1
            }
          }
        }
      },
      "Whirl05": {
        "attackPattern": {
          "$type": "ConfigAttackBox",
          "triggerType": "TriggerNoRepeat",
          "born": {
            "$type": "ConfigBornBySelf",
            "offset": {
              "x": 0.0,
              "y": 1.0,
              "z": 0.0
            },
            "direction": {
              "$type": "ConfigDirectionByEntity",
              "angleOffset": {
                "x": 0.0,
                "y": 0.0,
                "z": 0.0
              }
            }
          },
          "size": {
            "x": 2.0,
            "y": 2.0,
            "z": 4.0
          }
        },
        "attackInfo": {
          "attackProperty": {
            "damagePercentage": 0.125,
            "strikeType": "Blunt",
            "attackType": "Melee",
            "enBreak": 100.0
          },
          "hitPattern": {
            "onHitEffectName": "default",
            "hitImpulseType": "LV6",
            "reboundRatio": 0,
            "hitHaltTime": 0.12,
            "hitHaltTimeScale": 0.05,
            "muteHitText": false
          },
          "forceCameraShake": false,
          "cameraShake": {
            "shakeType": "HitVector",
            "shakeRange": 0.16,
            "shakeTime": 0.12,
            "shakeDistance": 25.0,
            "shakeDir": {
              "x": 0,
              "y": 0,
              "z": 1
            }
          }
        }
      },
      "Whirl01_Electric": {
        "attackPattern": {
          "$type": "ConfigAttackBox",
          "triggerType": "TriggerNoRepeat",
          "born": {
            "$type": "ConfigBornBySelf",
            "offset": {
              "x": 0.0,
              "y": 1.0,
              "z": 0.0
            },
            "direction": {
              "$type": "ConfigDirectionByEntity",
              "angleOffset": {
                "x": 0.0,
                "y": 0.0,
                "z": 0.0
              }
            }
          },
          "size": {
            "x": 2.0,
            "y": 2.0,
            "z": 4.0
          }
        },
        "attackInfo": {
          "attackProperty": {
            "damagePercentage": 0.125,
            "strikeType": "Blunt",
            "elementType": "Electric",
            "attackType": "Melee",
            "enBreak": 100.0
          },
          "hitPattern": {
            "onHitEffectName": "default",
            "hitImpulseType": "LV4",
            "reboundRatio": 0,
            "hitHaltTime": 0.12,
            "hitHaltTimeScale": 0.05,
            "muteHitText": false
          },
          "forceCameraShake": false,
          "cameraShake": {
            "shakeType": "HitVector",
            "shakeRange": 0.16,
            "shakeTime": 0.12,
            "shakeDistance": 25.0,
            "shakeDir": {
              "x": 0,
              "y": 0,
              "z": 1
            }
          }
        }
      },
      "Whirl02_Electric": {
        "attackPattern": {
          "$type": "ConfigAttackBox",
          "triggerType": "TriggerNoRepeat",
          "born": {
            "$type": "ConfigBornBySelf",
            "offset": {
              "x": 0.0,
              "y": 1.0,
              "z": 0.0
            },
            "direction": {
              "$type": "ConfigDirectionByEntity",
              "angleOffset": {
                "x": 0.0,
                "y": 90.0,
                "z": 0.0
              }
            }
          },
          "size": {
            "x": 2.0,
            "y": 2.0,
            "z": 4.0
          }
        },
        "attackInfo": {
          "attackProperty": {
            "damagePercentage": 0.125,
            "strikeType": "Blunt",
            "elementType": "Electric",
            "attackType": "Melee",
            "enBreak": 100.0
          },
          "hitPattern": {
            "onHitEffectName": "default",
            "hitImpulseType": "LV4",
            "reboundRatio": 0,
            "hitHaltTime": 0.12,
            "hitHaltTimeScale": 0.05,
            "muteHitText": false
          },
          "forceCameraShake": false,
          "cameraShake": {
            "shakeType": "HitVector",
            "shakeRange": 0.16,
            "shakeTime": 0.12,
            "shakeDistance": 25.0,
            "shakeDir": {
              "x": 0,
              "y": 0,
              "z": 1
            }
          }
        }
      },
      "Whirl03_Electric": {
        "attackPattern": {
          "$type": "ConfigAttackBox",
          "triggerType": "TriggerNoRepeat",
          "born": {
            "$type": "ConfigBornBySelf",
            "offset": {
              "x": 0.0,
              "y": 1.0,
              "z": 0.0
            },
            "direction": {
              "$type": "ConfigDirectionByEntity",
              "angleOffset": {
                "x": 0.0,
                "y": 180.0,
                "z": 0.0
              }
            }
          },
          "size": {
            "x": 2.0,
            "y": 2.0,
            "z": 4.0
          }
        },
        "attackInfo": {
          "attackProperty": {
            "damagePercentage": 0.125,
            "strikeType": "Blunt",
            "elementType": "Electric",
            "attackType": "Melee",
            "enBreak": 100.0
          },
          "hitPattern": {
            "onHitEffectName": "default",
            "hitImpulseType": "LV4",
            "reboundRatio": 0,
            "hitHaltTime": 0.12,
            "hitHaltTimeScale": 0.05,
            "muteHitText": false
          },
          "forceCameraShake": false,
          "cameraShake": {
            "shakeType": "HitVector",
            "shakeRange": 0.16,
            "shakeTime": 0.12,
            "shakeDistance": 25.0,
            "shakeDir": {
              "x": 0,
              "y": 0,
              "z": 1
            }
          }
        }
      },
      "Whirl04_Electric": {
        "attackPattern": {
          "$type": "ConfigAttackBox",
          "triggerType": "TriggerNoRepeat",
          "born": {
            "$type": "ConfigBornBySelf",
            "offset": {
              "x": 0.0,
              "y": 1.0,
              "z": 0.0
            },
            "direction": {
              "$type": "ConfigDirectionByEntity",
              "angleOffset": {
                "x": 0.0,
                "y": 270.0,
                "z": 0.0
              }
            }
          },
          "size": {
            "x": 2.0,
            "y": 2.0,
            "z": 4.0
          }
        },
        "attackInfo": {
          "attackProperty": {
            "damagePercentage": 0.125,
            "strikeType": "Blunt",
            "elementType": "Electric",
            "attackType": "Melee",
            "enBreak": 100.0
          },
          "hitPattern": {
            "onHitEffectName": "default",
            "hitImpulseType": "LV4",
            "reboundRatio": 0,
            "hitHaltTime": 0.12,
            "hitHaltTimeScale": 0.05,
            "muteHitText": false
          },
          "forceCameraShake": false,
          "cameraShake": {
            "shakeType": "HitVector",
            "shakeRange": 0.16,
            "shakeTime": 0.12,
            "shakeDistance": 25.0,
            "shakeDir": {
              "x": 0,
              "y": 0,
              "z": 1
            }
          }
        }
      },
      "Whirl05_Electric": {
        "attackPattern": {
          "$type": "ConfigAttackBox",
          "triggerType": "TriggerNoRepeat",
          "born": {
            "$type": "ConfigBornBySelf",
            "offset": {
              "x": 0.0,
              "y": 1.0,
              "z": 0.0
            },
            "direction": {
              "$type": "ConfigDirectionByEntity",
              "angleOffset": {
                "x": 0.0,
                "y": 0.0,
                "z": 0.0
              }
            }
          },
          "size": {
            "x": 2.0,
            "y": 2.0,
            "z": 4.0
          }
        },
        "attackInfo": {
          "attackProperty": {
            "damagePercentage": 0.125,
            "strikeType": "Blunt",
            "elementType": "Electric",
            "attackType": "Melee",
            "enBreak": 100.0
          },
          "hitPattern": {
            "onHitEffectName": "default",
            "hitImpulseType": "LV6",
            "reboundRatio": 0,
            "hitHaltTime": 0.12,
            "hitHaltTimeScale": 0.05,
            "muteHitText": false
          },
          "forceCameraShake": false,
          "cameraShake": {
            "shakeType": "HitVector",
            "shakeRange": 0.16,
            "shakeTime": 0.12,
            "shakeDistance": 25.0,
            "shakeDir": {
              "x": 0,
              "y": 0,
              "z": 1
            }
          }
        }
      },
      "JumpAttack": {
        "attackPattern": {
          "$type": "ConfigAttackCircle",
          "triggerType": "TriggerNoRepeat",
          "fanAngle": 360.0,
          "radius": 3.0,
          "born": {
            "$type": "ConfigBornBySelf",
            "offset": {
              "x": 0.0,
              "y": 0.0,
              "z": 2.5
            }
          }
        },
        "attackInfo": {
          "attackProperty": {
            "damagePercentage": 1.0,
            "strikeType": "Blunt",
            "attackType": "Melee",
            "enBreak": 200.0
          },
          "hitPattern": {
            "onHitEffectName": "default",
            "hitImpulseType": "LV6",
            "hitHaltTime": 0,
            "hitHaltTimeScale": 0,
            "muteHitText": false
          },
          "forceCameraShake": true,
          "cameraShake": {
            "shakeType": "CustomVector",
            "shakeRange": 0.12,
            "shakeTime": 0.24,
            "shakeDistance": 20.0,
            "shakeDir": {
              "x": 0,
              "y": -1,
              "z": 0
            }
          }
        }
      },
      "JumpAttack_Electric": {
        "attackPattern": {
          "$type": "ConfigAttackCircle",
          "triggerType": "TriggerNoRepeat",
          "fanAngle": 360.0,
          "radius": 3.0,
          "born": {
            "$type": "ConfigBornBySelf",
            "offset": {
              "x": 0.0,
              "y": 0.0,
              "z": 1.5
            }
          }
        },
        "attackInfo": {
          "attackProperty": {
            "damagePercentage": 1.0,
            "strikeType": "Blunt",
            "elementType": "Electric",
            "attackType": "Melee",
            "enBreak": 200.0
          },
          "hitPattern": {
            "onHitEffectName": "default",
            "hitImpulseType": "LV6",
            "hitHaltTime": 0,
            "hitHaltTimeScale": 0,
            "muteHitText": false
          },
          "forceCameraShake": true,
          "cameraShake": {
            "shakeType": "CustomVector",
            "shakeRange": 0.16,
            "shakeTime": 0.24,
            "shakeDistance": 25.0,
            "shakeDir": {
              "x": 0,
              "y": -1,
              "z": 0
            }
          }
        }
      }
    }
  },
  "stateLayers": {
    "defaultLayer": {
      "$type": "ConfigNormalStateLayer",
      "stateIDs": {
        "NormalIdle": {
          "$type": "ConfigMonsterStateIDInfo",
          "animatorStates": {
            "Standby": [],
            "Born": []
          },
          "combatMove": true,
          "canDoSkill": true,
          "canSyncMove": true,
          "resetAnimatorTriggerOnExit": ["DoSkill"]
        },
        "NormalMove": {
          "$type": "ConfigMonsterStateIDInfo",
          "animatorStates": {
            "WalkForward": ["Audio_Brute_Axe_WalkForward"],
            "WalkBack": ["Audio_Brute_Axe_WalkBack"],
            "WalkRight": ["Audio_Brute_Axe_WalkForward"],
            "WalkLeft": ["Audio_Brute_Axe_WalkForward"],
            "Run": ["Audio_Brute_Axe_WalkForward"]
          },
          "combatMove": true,
          "canDoSkill": true,
          "canSteer": true,
          "canSyncMove": true,
          "resetAnimatorTriggerOnExit": ["DoSkill"]
        },
        "TurnLeft": {
          "$type": "ConfigMonsterStateIDInfo",
          "animatorStates": {
            "TurnLeft_BS": ["Audio_Brute_Axe_Turn"],
            "TurnLeft_AS": ["Audio_Brute_Axe_Turn"]
          },
          "combatMove": true,
          "canDoSkill": true,
          "canSyncMove": true,
          "resetAnimatorTriggerOnExit": ["DoSkill"]
        },
        "TurnRight": {
          "$type": "ConfigMonsterStateIDInfo",
          "animatorStates": {
            "TurnRight_BS": ["Audio_Brute_Axe_Turn"],
            "TurnRight_AS": ["Audio_Brute_Axe_Turn"]
          },
          "combatMove": true,
          "canDoSkill": true,
          "canSyncMove": true,
          "resetAnimatorTriggerOnExit": ["DoSkill"]
        },
        "TurnToSit": {
          "$type": "ConfigMonsterStateIDInfo",
          "animatorStates": {
            "TurnToSit": ["Monster_Brute_None_Axe_TurnToSit"]
          },
          "combatMove": true,
          "canDoSkill": true,
          "resetAnimatorTriggerOnExit": ["BeHit", "DoSkill"]
        },
        "OutOfSit": {
          "$type": "ConfigMonsterStateIDInfo",
          "animatorStates": {
            "OutOfSit": ["Monster_Brute_None_OutOfSit"]
          },
          "combatMove": true,
          "canDoSkill": true,
          "resetAnimatorTriggerOnExit": ["BeHit", "DoSkill"]
        },
        "Sit": {
          "$type": "ConfigMonsterStateIDInfo",
          "animatorStates": {
            "Sit": []
          },
          "combatMove": true,
          "canDoSkill": true,
          "canSyncMove": true,
          "resetAnimatorTriggerOnExit": ["DoSkill"]
        },
        "Life_Talk": {
          "$type": "ConfigMonsterStateIDInfo",
          "animatorStates": {
            "Talk": [],
            "Talk_Sit": []
          },
          "combatMove": true,
          "canDoSkill": true,
          "resetAnimatorTriggerOnExit": ["BeHit", "DoSkill"]
        },
        "BeHit": {
          "$type": "ConfigMonsterStateIDInfo",
          "animatorStates": {
            "Hit_L": ["Audio_Brute_Axe_HitL"],
            "Hit_H": ["Audio_Brute_Axe_HitH"]
          },
          "combatMove": true,
          "resetAnimatorTriggerOnEnter": ["BeHit"],
          "resetAnimatorTriggerOnExit": ["DoSkill"]
        },
        "BeHitThrow": {
          "$type": "ConfigMonsterStateIDInfo",
          "animatorStates": {
            "HitThrow": [],
            "HitThrowDrop": [],
            "HitThrowToGround": ["Audio_Brute_Axe_HitThrowToGround"]
          },
          "combatMove": true,
          "resetAnimatorTriggerOnEnter": ["BeHit", "HitAir2HitDrop"],
          "resetAnimatorTriggerOnExit": ["DoSkill"]
        },
        "Struggle": {
          "$type": "ConfigMonsterStateIDInfo",
          "animatorStates": {
            "Struggle": []
          },
          "combatMove": true,
          "resetAnimatorTriggerOnEnter": ["BeHit", "HitAir2HitDrop"],
          "resetAnimatorTriggerOnExit": ["DoSkill"]
        },
        "Die": {
          "$type": "ConfigMonsterStateIDInfo",
          "animatorStates": {
            "Die_01": ["Audio_Brute_Axe_Die"],
            "Die_02": ["Audio_Brute_Axe_Die"],
            "SwimDie": ["Monster_Brute_None_Die"],
            "SwimDie_AS": []
          }
        },
        "Die_RagDoll": {
          "$type": "ConfigMonsterStateIDInfo",
          "animatorStates": {
            "Die_RagDoll_01": ["Audio_Brute_Axe_Die"],
            "Die_RagDoll_02": ["Audio_Brute_Axe_Die"],
            "AirDie": ["Audio_Brute_Axe_AirDie"]
          },
          "enableRagDoll": true
        },
        "Alert": {
          "$type": "ConfigMonsterStateIDInfo",
          "animatorStates": {
            "Alert": ["Monster_Brute_None_Alert"]
          },
          "combatMove": true,
          "resetAnimatorTriggerOnExit": ["BeHit", "DoSkill"]
        },
        "AwakeAlert": {
          "$type": "ConfigMonsterStateIDInfo",
          "animatorStates": {
            "AwakeAlert": ["Monster_Brute_None_AwakeAlert"]
          },
          "combatMove": true,
          "canDoSkill": true,
          "resetAnimatorTriggerOnExit": ["BeHit", "DoSkill", "AwakeAlert"]
        },
        // 基础attack
        "Attack01": {
          "$type": "ConfigMonsterStateIDInfo",
          "animatorStates": {
            "Attack01": [
              "Monster_Brute_Axe_Attack01",
              "Audio_Brute_Axe_Attack01"
            ]
          },
          "combatMove": true,
          "resetAnimatorTriggerOnExit": ["BeHit", "DoSkill"],
          "addEndure": 0.8,
          "massRatio": 20,
          "canSteer": true
        },
        "Attack02": {
          "$type": "ConfigMonsterStateIDInfo",
          "animatorStates": {
            "Attack02": [
              "Monster_Brute_Axe_Attack02",
              "Audio_Brute_Axe_Attack02"
            ]
          },
          "combatMove": true,
          "resetAnimatorTriggerOnExit": ["BeHit", "DoSkill"],
          "addEndure": 0.8,
          "massRatio": 20,
          "canSteer": true
        },
        "Attack03": {
          "$type": "ConfigMonsterStateIDInfo",
          "animatorStates": {
            "Attack03": [
              "Monster_Brute_Axe_Attack03",
              "Audio_Brute_Axe_Attack03"
            ]
          },
          "combatMove": true,
          "resetAnimatorTriggerOnExit": ["BeHit", "DoSkill"],
          "addEndure": 0.8,
          "massRatio": 20,
          "canSteer": true
        },
        "Attack04": {
          "$type": "ConfigMonsterStateIDInfo",
          "animatorStates": {
            "Attack04": [
              "Monster_Brute_Axe_Attack04",
              "Audio_Brute_Axe_Elect_Attack04"
            ]
          },
          "combatMove": true,
          "resetAnimatorTriggerOnExit": ["BeHit", "DoSkill"],
          "addEndure": 0.8,
          "massRatio": 20,
          "canSteer": true
        },
        // Whirl
        "Whirl_BS": {
          "$type": "ConfigMonsterStateIDInfo",
          "animatorStates": {
            "Whirl_BS": ["Audio_Brute_Axe_Whirl_BS"]
          },
          "combatMove": true,
          "resetAnimatorTriggerOnExit": ["BeHit", "DoSkill"],
          "addEndure": 0,
          "massRatio": 20,
          "canSteer": true
        },
        "Whirl_Loop": {
          "$type": "ConfigMonsterStateIDInfo",
          "animatorStates": {
            "Whirl_Loop": [
              "Monster_Brute_Axe_Whirl_Loop",
              "Audio_Brute_Axe_Whirl_Loop"
            ]
          },
          "combatMove": true,
          "resetAnimatorTriggerOnExit": ["BeHit", "DoSkill"],
          "addEndure": 0,
          "massRatio": 20,
          "canSteer": true
        },
        "Whirl_AS": {
          "$type": "ConfigMonsterStateIDInfo",
          "animatorStates": {
            "Whirl_AS": [
              "Monster_Brute_Axe_Whirl_AS",
              "Audio_Brute_Axe_Whirl_AS"
            ]
          },
          "combatMove": true,
          "resetAnimatorTriggerOnExit": [
            "BeHit",
            "DoSkill",
            "NextSkillTrigger"
          ],
          "massRatio": 20
        },
        "Whirl_Crash": {
          "$type": "ConfigMonsterStateIDInfo",
          "animatorStates": {
            "Whirl_Crash": ["Audio_Brute_Axe_Whirl_Crash"]
          },
          "combatMove": true,
          "resetAnimatorTriggerOnExit": ["BeHit", "DoSkill", "NextSkillTrigger"]
        },
        // CrashAttack
        "CrashAttack": {
          "$type": "ConfigMonsterStateIDInfo",
          "animatorStates": {
            "CrashAttack": [
              "Monster_Brute_Electric_Axe_CrashAttack",
              "Audio_Brute_Axe_Elect_CrashAtk"
            ]
          },
          "combatMove": true,
          "cullingModelAlwaysAnimate": true,
          "resetAnimatorTriggerOnExit": ["BeHit", "DoSkill"],
          "addEndure": 0,
          "massRatio": 20,
          "canSteer": true
        },
        // CastAndThrow
        "PickUp01": {
          "$type": "ConfigMonsterStateIDInfo",
          "animatorStates": {
            "PickUp01": [
              "Monster_Brute_Electric_Axe_PickUp01",
              "Audio_Brute_Axe_Pickup"
            ]
          },
          "combatMove": true,
          "resetAnimatorTriggerOnExit": ["BeHit", "DoSkill"],
          "addEndure": 0,
          "massRatio": 20,
          "canSteer": true
        },
        "CastAndThrow": {
          "$type": "ConfigMonsterStateIDInfo",
          "animatorStates": {
            "CastAndThrow": [
              "Monster_Brute_Electric_Axe_CastAndThrow",
              "Audio_Brute_Axe_Elect_CastAndThrow"
            ]
          },
          "combatMove": true,
          "resetAnimatorTriggerOnExit": ["BeHit", "DoSkill"],
          "addEndure": 0,
          "massRatio": 20,
          "canSteer": true
        },
        // ThrowSlime
        "PickUp02": {
          "$type": "ConfigMonsterStateIDInfo",
          "animatorStates": {
            "PickUp02": [
              "Monster_Brute_Electric_Axe_PickUp02",
              "Audio_Brute_Axe_Pickup"
            ]
          },
          "combatMove": true,
          "resetAnimatorTriggerOnExit": ["BeHit", "DoSkill"],
          "addEndure": 0,
          "massRatio": 20,
          "canSteer": true
        },
        "Throw": {
          "$type": "ConfigMonsterStateIDInfo",
          "animatorStates": {
            "Throw": [
              "Monster_Brute_Electric_Axe_ThrowSlime",
              "Audio_Brute_Axe_Elect_Throw"
            ]
          },
          "combatMove": true,
          "resetAnimatorTriggerOnExit": ["BeHit", "DoSkill"],
          "addEndure": 0,
          "massRatio": 20,
          "canSteer": true
        },
        // LightningRod
        "LightningRod_BS": {
          "$type": "ConfigMonsterStateIDInfo",
          "animatorStates": {
            "LightningRod_BS": ["Audio_Brute_Axe_Elect_LightningRod_BS"]
          },
          "combatMove": true,
          "resetAnimatorTriggerOnExit": ["BeHit", "DoSkill"],
          "addEndure": 0.5,
          "massRatio": 20
        },
        "LightningRod_Loop_01": {
          "$type": "ConfigMonsterStateIDInfo",
          "animatorStates": {
            "LightningRod_Loop_01": [""]
          },
          "combatMove": true,
          "resetAnimatorTriggerOnExit": ["BeHit", "DoSkill"],
          "addEndure": 0.5,
          "massRatio": 20
        },
        "LightningRod_Loop_02": {
          "$type": "ConfigMonsterStateIDInfo",
          "animatorStates": {
            "LightningRod_Loop_02": [""]
          },
          "combatMove": true,
          "resetAnimatorTriggerOnExit": ["BeHit", "DoSkill"],
          "addEndure": 0.5,
          "massRatio": 20
        },
        "LightningRod_Loop_03": {
          "$type": "ConfigMonsterStateIDInfo",
          "animatorStates": {
            "LightningRod_Loop_03": [""]
          },
          "combatMove": true,
          "resetAnimatorTriggerOnExit": ["BeHit", "DoSkill"],
          "addEndure": 0.5,
          "massRatio": 20
        },
        "LightningRod_AS": {
          "$type": "ConfigMonsterStateIDInfo",
          "animatorStates": {
            "LightningRod_AS": [
              "Monster_Brute_Electric_Axe_LightningRod_AS",
              "Audio_Brute_Axe_Elect_LightningRod_AS"
            ]
          },
          "combatMove": true,
          "resetAnimatorTriggerOnExit": ["BeHit", "DoSkill"],
          "addEndure": 0.5,
          "massRatio": 20
        },
        "JumpAttack": {
          "$type": "ConfigMonsterStateIDInfo",
          "animatorStates": {
            "JumpAttack": [
              "Monster_Brute_Axe_JumpAttack",
              "Audio_Brute_Axe_JumpAttack"
            ]
          },
          "cullingModelAlwaysAnimate": true,
          "resetAnimatorTriggerOnExit": ["BeHit", "DoSkill"],
          "addEndure": 0,
          "massRatio": 20
        }
      }
    }
  },
  "abilities": [
    {
      "abilityID": "Brute_None_Axe_Turn",
      "abilityName": "Brute_None_Axe_Turn"
    },
    {
      "abilityID": "Brute_None_Alert",
      "abilityName": "Brute_None_Alert",
      "lightWeightRemove": true
    },
    {
      "abilityID": "Brute_None_Axe_TurnToSit",
      "abilityName": "Brute_None_Axe_TurnToSit",
      "lightWeightRemove": true
    },
    {
      "abilityID": "Brute_None_OutOfSit",
      "abilityName": "Brute_None_OutOfSit",
      "lightWeightRemove": true
    },
    {
      "abilityID": "Brute_None_AwakeAlert",
      "abilityName": "Brute_None_AwakeAlert",
      "lightWeightRemove": true
    },
    // Steer
    {
      "abilityID": "Monster_Brute_Electric_Axe_Steer",
      "abilityName": "Monster_Brute_Electric_Axe_Steer"
    },
    // Electric Axe
    {
      "abilityID": "Monster_Brute_Electric_Axe_State",
      "abilityName": "Monster_Brute_Electric_Axe_State"
    },
    // Weahter Storm
    {
      "abilityID": "Monster_Brute_Electric_Axe_WeatherState",
      "abilityName": "Monster_Brute_Electric_Axe_WeatherState",
      "lightWeightRemove": true
    },
    // Whirl
    {
      "abilityID": "Monster_Brute_Electric_Axe_Whirl",
      "abilityName": "Monster_Brute_Electric_Axe_Whirl"
    },
    // Slime : Cast and Throw
    {
      "abilityID": "Monster_Brute_Electric_Axe_PickUp01",
      "abilityName": "Monster_Brute_Electric_Axe_PickUp01"
    },
    {
      "abilityID": "Monster_Brute_Electric_Axe_PickUp02",
      "abilityName": "Monster_Brute_Electric_Axe_PickUp02"
    },
    {
      "abilityID": "Monster_Brute_Electric_Axe_ElectricSlimeInHand",
      "abilityName": "Monster_Brute_Electric_Axe_ElectricSlimeInHand"
    },
    {
      "abilityID": "Monster_Brute_Electric_Axe_ElectricSlimeInHand_Positive",
      "abilityName": "Monster_Brute_Electric_Axe_ElectricSlimeInHand_Positive"
    },
    {
      "abilityID": "Monster_Brute_Electric_Axe_ThrowSlime",
      "abilityName": "Monster_Brute_Electric_Axe_ThrowSlime"
    },
    {
      "abilityID": "Monster_Brute_Electric_Axe_CastAndThrowSlime",
      "abilityName": "Monster_Brute_Electric_Axe_CastAndThrowSlime"
    },
    // LightningRod
    {
      "abilityID": "Monster_Brute_Electric_Axe_LightningRod",
      "abilityName": "Monster_Brute_Electric_Axe_LightningRod"
    },
    {
      "abilityID": "Monster_Brute_Electric_Axe_LightningRod_Damage",
      "abilityName": "Monster_Brute_Electric_Axe_LightningRod_Damage"
    },
    // JumpAttack
    {
      "abilityName": "Monster_Brute_Electric_Axe_JumpAttack_Alert"
    },
    {
      "abilityName": "Monster_Brute_Electric_Axe_JumpAttack_Lightning"
    },
    // CrashAttack
    {
      "abilityName": "Monster_Brute_Electric_Axe_CrashAttack_Lightning"
    },
    // Attack02
    {
      "abilityName": "Monster_Brute_Electric_Axe_Attack02_Lightning"
    }
  ],
  "initialPoses": {
    "Default": {
      "initialPoseID": 0,
      "initialPoseParams": {
        "boolParams": {
          "Sleep": "false",
          "Sit": "false"
        }
      }
    },
    "Sit": {
      "initialPoseID": 401,
      "initialPoseParams": {
        "boolParams": {
          "Sit": "true"
        }
      }
    }
  },
  "aibeta": {
    "enable": true,
    "skillGCD": 5.0,
    "skillSetting": {},
    "neurons": {
      "DefaultSetting": ["HIT", "WEATHER_STORM"],
      "NeverCombat": []
    },
    "profiling": {
      "staticPoses": [301, 401]
    },
    "sensing": {
      "settings": {
        "DefaultSetting": {
          "viewRange": 40.0,
          "feelRange": 10.0
        },
        "HighAlert": {
          "viewRange": 50.0,
          "feelRange": 12.0
        },
        "Sleep": {
          "viewRange": 0.0,
          "feelRange": 3.0
        },
        "Sit": {
          "viewRange": 15.0,
          "feelRange": 5.0
        },
        "NeverCombat": {
          "enableVision": false,
          "feelRange": 0.0,
          "hearAttractionRange": 0.0
        }
      },
      "templates": {
        "DefaultTemplate": {
          "DefaultPoses": "DefaultSetting",
          "301": "Sleep",
          "401": "Sit"
        },
        "HighAlertTemplate": {
          "DefaultPoses": "HighAlert",
          "301": "Sleep",
          "401": "Sit"
        },
        "NeverCombatTemplate": {
          "DefaultPoses": "NeverCombat",
          "301": "NeverCombat",
          "401": "NeverCombat"
        }
      }
    },
    "defendArea": {
      "enable": true,
      "defendRange": 50
    },
    "threat": {
      "clearThreatByLostPath": true,
      "clearThreatTimerByLostPath": 10,
      "viewAttenuation": [
        { "x": 10.0, "y": 2.0 },
        { "x": 15.0, "y": 0.8 },
        { "x": 20.0, "y": 0.5 },
        { "x": 25.0, "y": 0.3 },
        { "x": 30.0, "y": 0.2 }
      ],
      "resistTauntLevel": "Monster_TauntLevel_2"
    },
    "returnToBornTactic": {
      "enable": true,
      "defaultSetting": {
        "speedLevel": 2
      }
    },
    "wanderTactic": {
      "enable": true,
      "condition": {
        "pose": [101, 201]
      },
      "defaultSetting": {
        "speedLevel": 1,
        "turnSpeedOverride": 2.0,
        "cdMin": 1.5,
        "cdMax": 3.0,
        "distanceFromBorn": 15.0,
        "distanceFromCurrentMin": 3.75,
        "distanceFromCurrentMax": 7.5
      }
    },
    "meleeChargeTactic": {
      "enable": true,
      "condition": {
        "pose": [111, 211, 212, 221, 222]
      },
      "defaultSetting": {
        "speedLevel": 2,
        "speedLevelInner": 1,
        "innerDistance": 0,
        "stopDistance": 6,
        "startDistanceMin": 12.0,
        "startDistanceMax": 99.0
      }
    },
    "facingMoveTactic": {
      "enable": true,
      "condition": {
        "pose": [211, 212, 221, 222]
      },
      "defaultSetting": {
        "speedLevel": 1,
        "rangeMin": 3.0,
        "rangeMax": 6.0,
        "facingMoveWeight": {
          "stop": 1.0,
          "forward": 2.0,
          "back": 0.0,
          "left": 0.0,
          "right": 0.0
        }
      }
    },
    "skills": {
      "103": {
        "name": "OnAlert",
        "stateIDs": ["Alert"],
        "skillType": "OnAlert",
        "skillQueryingTime": 3,
        "triggerGCD": false,
        "ignoreGCD": true,
        "faceTarget": true
      },
      "104": {
        "name": "OnAlert",
        "stateIDs": ["Alert"],
        "skillType": "OnNerve",
        "skillQueryingTime": 3,
        "triggerGCD": false,
        "faceTarget": true,
        "castCondition": {
          "pose": [301, 401]
        },
        "nerveTrigger": ["HIT"]
      },
      "121": {
        "name": "TurnToSit",
        "stateIDs": ["TurnToSit"],
        "skillType": "ActionPoint",
        "skillQueryingTime": 3,
        "triggerGCD": false,
        "castCondition": {
          "pose": [101, 111, 201, 211, 212, 221, 222]
        }
      },
      "122": {
        "name": "OutOfSit",
        "stateIDs": ["OutOfSit"],
        "skillType": "OnNerve",
        "skillQueryingTime": 3,
        "triggerGCD": false,
        "castCondition": {
          "pose": [401]
        },
        "nerveTrigger": ["AWAKE"]
      },
      "123": {
        "cd": 10.0,
        "cdUpperRange": 20.0,
        "ignoreGCD": true,
        "initialCD": 10.0,
        "initialCDUpperRange": 20.0,
        "name": "Talk_Sit",
        "stateIDs": ["Life_Talk"],
        "skillType": "Free",
        "castCondition": {
          "pose": [401]
        }
      },
      "201": {
        "cd": 5,
        "priority": 5,
        "name": "Attack01",
        "stateIDs": ["Attack01", "Attack02", "Attack03"],
        "enableSkillPrepare": true,
        "skillPrepareSpeedLevel": 2,
        "castCondition": {
          "maxTargetAngleXZ": 90,
          "maxTargetAngleY": 45,
          "pickRangeMin": 0,
          "pickRangeMax": 8,
          "castRangeMax": 3,
          "pose": [211, 212, 221, 222]
        }
      },
      "301": {
        "cd": 10,
        "priority": 3,
        "name": "Attack04",
        "stateIDs": ["Attack02", "Attack03", "Attack04"],
        "enableSkillPrepare": true,
        "skillPrepareSpeedLevel": 2,
        "castCondition": {
          "maxTargetAngleXZ": 90,
          "maxTargetAngleY": 45,
          "pickRangeMin": 0,
          "pickRangeMax": 8,
          "castRangeMax": 3,
          "pose": [212, 222]
        }
      },
      "401": {
        "cd": 10,
        "initialCD": 7,
        "priority": 2,
        "name": "CrashAttack",
        "stateIDs": ["CrashAttack"],
        "castCondition": {
          "maxTargetAngleXZ": 90,
          "maxTargetAngleY": 45,
          "pickRangeMin": 0,
          "pickRangeMax": 10.0,
          "castRangeMax": 6.0,
          "pose": [212, 222]
        }
      },
      "501": {
        "cd": 30,
        "initialCD": 20,
        "priority": 3,
        "name": "Whirl",
        "stateIDs": ["Whirl_BS", "Whirl_Loop", "Whirl_AS"],
        "castCondition": {
          "maxTargetAngleY": 45,
          "pickRangeMin": 0,
          "pickRangeMax": 99,
          "pose": [211, 221]
        }
      },
      "502": {
        "cd": 20,
        "initialCD": 20,
        "priority": 3,
        "name": "Whirl",
        "stateIDs": ["Whirl_BS", "Whirl_Loop", "Whirl_AS"],
        "castCondition": {
          "maxTargetAngleY": 45,
          "pickRangeMin": 0,
          "pickRangeMax": 99,
          "pose": [212, 222]
        }
      },
      // 这个地儿为啥用俩技能
      "601": {
        "cd": 3000,
        "initialCD": 7,
        "priority": 2,
        "name": "ThrowSlime",
        "stateIDs": ["PickUp01", "CastAndThrow"],
        "castCondition": {
          "maxTargetAngleXZ": 90,
          "pickRangeMin": 0,
          "pickRangeMax": 99,
          "pose": [211, 221]
        }
      },
      "602": {
        "cd": 30,
        "initialCD": 15,
        "priority": 2,
        "name": "ThrowSlime",
        "stateIDs": ["PickUp01", "CastAndThrow"],
        "castCondition": {
          "maxTargetAngleXZ": 90,
          "pickRangeMin": 0,
          "pickRangeMax": 99,
          "pose": [211, 221]
        }
      },
      "603": {
        "cd": 7,
        "priority": 2,
        "name": "ThrowSlime",
        "stateIDs": ["PickUp01", "CastAndThrow"],
        "flagSelfInZone": "01",
        "flagTargetReachable": "11",
        "castCondition": {
          "maxTargetAngleXZ": 90,
          "pickRangeMin": 0,
          "pickRangeMax": 30,
          "pose": [211, 221]
        }
      },
      "604": {
        "cd": 7,
        "priority": 2,
        "name": "ThrowSlime",
        "stateIDs": ["PickUp01", "CastAndThrow"],
        "flagSelfInZone": "10",
        "flagTargetReachable": "01",
        "castCondition": {
          "maxTargetAngleXZ": 90,
          "pickRangeMin": 0,
          "pickRangeMax": 30,
          "pose": [211, 221]
        }
      },
      "611": {
        "cd": 7,
        "priority": 4,
        "name": "ThrowSlime",
        "stateIDs": ["PickUp02", "Throw"],
        "flagSelfInZone": "01",
        "flagTargetReachable": "11",
        "castCondition": {
          "maxTargetAngleXZ": 90,
          "pickRangeMin": 0,
          "pickRangeMax": 30,
          "pose": [212, 222]
        }
      },
      "612": {
        "cd": 7,
        "priority": 4,
        "name": "ThrowSlime",
        "stateIDs": ["PickUp02", "Throw"],
        "flagTargetReachable": "01",
        "castCondition": {
          "maxTargetAngleXZ": 90,
          "pickRangeMin": 0,
          "pickRangeMax": 30,
          "pose": [212, 222]
        }
      },
      "701": {
        "cd": 60,
        "initialCD": 40,
        "priority": 3,
        "name": "LightningRod",
        "stateIDs": [
          "LightningRod_BS",
          "LightningRod_Loop_01",
          "LightningRod_Loop_02",
          "LightningRod_Loop_03",
          "LightningRod_AS"
        ],
        "castCondition": {
          "maxTargetAngleY": 45,
          "pickRangeMin": 0,
          "pickRangeMax": 99,
          "pose": [221, 222]
        }
      },
      "801": {
        "cd": 20,
        "initialCD": 15,
        "priority": 4,
        "name": "JumpAttack",
        "stateIDs": ["JumpAttack"],
        "castCondition": {
          "maxTargetAngleXZ": 90,
          "pickRangeMin": 6,
          "pickRangeMax": 99,
          "pose": [211, 221]
        }
      },
      "802": {
        "cd": 10,
        "initialCD": 15,
        "priority": 1,
        "triggerGCD": false,
        "ignoreGCD": true,
        "name": "JumpAttack",
        "stateIDs": ["JumpAttack"],
        "castCondition": {
          "maxTargetAngleXZ": 90,
          "pickRangeMin": 6,
          "pickRangeMax": 99,
          "pose": [212, 222]
        }
      }
    }
  },
  "inputKeys": [
    {
      "keyID": 201,
      "inputKeyCode": 257
    },
    {
      "keyID": 301,
      "inputKeyCode": 258
    },
    {
      "keyID": 401,
      "inputKeyCode": 259
    },
    {
      "keyID": 501,
      "inputKeyCode": 260
    },
    {
      "keyID": 601,
      "inputKeyCode": 261
    },
    {
      "keyID": 611,
      "inputKeyCode": 262
    },
    {
      "keyID": 701,
      "inputKeyCode": 263
    },
    {
      "keyID": 801,
      "inputKeyCode": 264
    }
  ],
  "audio": {
    "$type": "ConfigMonsterAudio",
    "animAudio": {
      "onTransitionOut": [
        {
          "currentStateName": "Whirl_Loop",
          "audioEvent": {
            "text": "Stop_sfx_monster_brute_axe_whirl"
          },
          "otherStateNames": ["Whirl_AS"],
          "usage": "Except"
        },
        {
          "currentStateName": "Whirl_BS",
          "audioEvent": {
            "text": "Stop_sfx_monster_brute_axe_whirl"
          },
          "otherStateNames": ["Whirl_Loop"],
          "usage": "Except"
        },
        {
          "currentStateName": "JumpAttack",
          "audioEvent": {
            "text": "Stop_sfx_monster_brute_axe_jumpAttack"
          },
          "otherStateNames": [""],
          "usage": "Any"
        },
        {
          "currentStateName": "PickUp",
          "audioEvent": {
            "text": "Stop_sfx_monster_brute_axe_pickup"
          },
          "otherStateNames": [""],
          "usage": "Any"
        },
        {
          "currentStateName": "JumpAttack",
          "audioEvent": {
            "text": "Stop_vo_monster_brute_axe_jumpAttack"
          },
          "otherStateNames": [""],
          "usage": "Any"
        },
        {
          "currentStateName": "PickUp",
          "audioEvent": {
            "text": "Stop_vo_monster_brute_axe_pickUp"
          },
          "otherStateNames": [""],
          "usage": "Any"
        }
      ],
      "onTransitionIn": []
    }
  }
}
