{
  "$type": "ConfigMonster",
  "common": {
    "scale": 1.3,
    "viewSize": 1,
    "effectAttachShape": {
      "$type": "ConfigEffectAttachSkinnedMesh",
      "mesh": "EffectMesh"
    },
    "mass": 1000000000.0,
    "affectedByWorld": false,
    "checkInSurface": false,
    "disableTickDistance": 100000,
    "useFinalIK": true,
    "reconnectSupport": true,
    "shadowViewSizeRatio": 0
  },
  "model": {
    "canBakeMesh": false
  },
  "globalValue": {
    "serverGlobalValues": ["SGV_MONSTER_NADA"],
    "initServerGlobalValues": {
      "SGV_MONSTER_NADA": 0
    }
  },
  "dither": {
    "normalBetweenCamera": {
      "detectDitherRange": 20.0
    }
  },
  "move": {
    "$type": "ConfigAnimatorMove",
    "handleCombatTaskImmediately": true,
    "velocityForce": {
      "muteAll": true
    },
    "positionModifyState": "None",
    "destroyRockWhenInit": true
  },
  "specialPoint": {
    "ignoreTransform": true,
    "bulletAim": "LockPoint01",
    "hitPoints": [
      "LockPoint01",
      "LockPoint02",
      "LockPoint03",
      "LockPoint04",
      "LockPoint05",
      "LockPoint06",
      "LockPoint07",
      "LockPoint08",
      "LockPoint09",
      "LockPoint10",
      "LockPoint11",
      "LockPoint12",
      "LockPoint13",
      "LockPoint14"
    ],
    "selectedPoints": [
      "LockPoint01",
      "LockPoint02",
      "LockPoint03",
      "LockPoint04",
      "LockPoint05",
      "LockPoint06",
      "LockPoint07",
      "LockPoint08",
      "LockPoint09",
      "LockPoint10",
      "LockPoint11",
      "LockPoint12",
      "LockPoint13",
      "LockPoint14"
    ]
  },
  "billboard": {
    "$type": "ConfigCombatBillboard",
    "offset": {
      "x": 0.0,
      "y": 1.0,
      "z": 0.0
    },
    "radiusOffset": 1.0,
    "enableSelfAdapt": false,
    "showDistance": 200,
    "showHPBar": true,
    "size": "Grand"
  },
  "cameraAdjustMap": {
    "default": {
      "$type": "ConfigSpecialCamera",
      "priority": 1.0,
      "enterRadius": 150,
      "exitRadius": 150,
      "heightAdjust": 1.5,
      "fov": 42.5,
      "zoom": 11,
      "sphericalY": 1.5,
      "lockSphericalY": false,
      "sphericalYUp": 45,
      "sphericalYDown": 30,
      "autoTurnStartMin": 10,
      "autoTurnStartMax": 10,
      "autoTurnEndMin": 150,
      "autoTurnEndMax": 150,
      "enterShape": "CircleR25",
      "exitShape": "CircleR200",
      "shapeCenterOffset": {
        "x": 0,
        "y": 0,
        "z": 0
      }
    }
    // "default":
    // {
    // 	"$type" : "ConfigContinuesLockCameraV2",
    // 	"priority": 1.0,	//优先度
    // 	"fov": 45,	//相机FOV修正
    // 	"sphericalY": 15,
    // 	"enterShape": "CircleR30",
    // 	"exitShape": "CircleR150",
    // 	"shapeCenterOffset":
    // 	{
    // 		"x": 0,
    // 		"y": -1.0,
    // 		"z": 0,
    // 	},
    // 	"lockPoint": "RootNode", // 锁定的transform
    // 	"forwardMaxAngle": 15, // camera2avatar和avatar2enemy的连线夹角小于forwardMaxAngle
    // 	"forwardMaxAngleExtra": 35, // 连线夹角在(forwardMaxAngle, forwardMaxAngle+forwardMaxAngleExtra)内时，视角调整速度从forwardAdjustMinSpeed逐渐过渡到forwardAdjustMaxSpeed
    // 	"forwardAdjustMinSpeed": 30,
    // 	"forwardAdjustMaxSpeed": 90,
    // 	"enemyWeight": 0.45, // 怪物侧的权重
    // 	"zoomMin": 10, // zoom最小距离
    // 	"zoomMax": 12, // zoom最大距离
    // 	"enemyPosTolerateRange": 5.0, // locktransform的位置移动在这个范围内时认为没有动，防抖动
    // 	"enableHandleInput": false, // 是否允许玩家调视角
    // },
  },
  "combat": {
    "property": {
      "weight": 20000,
      "endureType": "Monster_Boss_Other"
    },
    "combatLock": {
      "denyLockOn": false,
      "lockType": "Boss_Lv5"
    },
    "beHit": {
      "hitBloodEffect": "",
      "muteAllHit": false,
      "muteAllHitEffect": false,
      "muteAllHitText": false
    },
    "die": {
      "hasAnimatorDie": true,
      "dieEndTime": 0.1,
      "dieForceDisappearTime": 4,
      "muteHitBox": true,
      "dieDenyLockOn": true,
      "dieIsGhostToEnemy": true,
      "dieIgnoreTriggerBullet": true,
      "muteBillboard": true,
      "mutePushCollider": true
    },
    "animEvents": {}
  },
  "stateLayers": {
    "defaultLayer": {
      "$type": "ConfigNormalStateLayer",
      "stateIDs": {
        "Born": {
          "$type": "ConfigMonsterStateIDInfo",
          "animatorStates": {
            "Born": []
          },
          "combatMove": true,
          "resetAnimatorTriggerOnExit": ["DoSkill"]
        },
        "NormalIdle": {
          "$type": "ConfigMonsterStateIDInfo",
          "animatorStates": {
            "Standby_Free": [],
            "StandbyM": []
          },
          "combatMove": true,
          "canDoSkill": true,
          "canSyncMove": true,
          "resetAnimatorTriggerOnEnter": ["HandNormal"],
          "resetAnimatorTriggerOnExit": ["DoSkill"]
        },
        "Die": {
          "$type": "ConfigMonsterStateIDInfo",
          "animatorStates": {
            "Die": ["Monster_Nada_Stage01_Die", "Audio_Monster_Nada_Stage_Die"]
          }
        },
        "Alert": {
          "$type": "ConfigMonsterStateIDInfo",
          "animatorStates": {
            "Alert": ["Audio_Monster_Nada_Alert"]
          },
          "combatMove": true,
          "canSyncMove": false,
          "resetAnimatorTriggerOnExit": ["DoSkill"]
        },
        "Show01": {
          "$type": "ConfigMonsterStateIDInfo",
          "animatorStates": {
            "Show01": []
          },
          "combatMove": true,
          "canSyncMove": false,
          "resetAnimatorTriggerOnExit": ["DoSkill"]
        },
        "AlertASM": {
          "$type": "ConfigMonsterStateIDInfo",
          "animatorStates": {
            "AlertASM": ["Audio_Monster_Nada_Alert_ASM"]
          },
          "combatMove": true,
          "canSyncMove": false,
          "resetAnimatorTriggerOnExit": ["DoSkill"]
        },
        "SlamAtkL": {
          "$type": "ConfigMonsterStateIDInfo",
          "animatorStates": {
            "SlamAtkLBS": [
              "Monster_Nada_SlamAtkLBS",
              "Audio_Monster_Nada_SlamAtkL_BS"
            ],
            "SlamAtkL": [
              "Monster_Nada_SlamAtkL",
              "Audio_Monster_Nada_SlamAtkL"
            ],
            "SlamAtkLASM": ["Audio_Monster_Nada_SlamAtkL_ASM"]
          },
          "combatMove": true,
          "canSyncMove": false,
          "resetAnimatorTriggerOnEnter": ["HandFire"],
          "resetAnimatorTriggerOnExit": ["DoSkill"]
        },
        "SlamAtkR": {
          "$type": "ConfigMonsterStateIDInfo",
          "animatorStates": {
            "SlamAtkRBS": [
              "Monster_Nada_SlamAtkRBS",
              "Audio_Monster_Nada_SlamAtkL_BS"
            ],
            "SlamAtkR": [
              "Monster_Nada_SlamAtkR",
              "Audio_Monster_Nada_SwapAtkR"
            ],
            "SlamAtkRASM": ["Audio_Monster_Nada_SwapAtkR_ASM"]
          },
          "combatMove": true,
          "canSyncMove": false,
          "resetAnimatorTriggerOnEnter": ["HandIce"],
          "resetAnimatorTriggerOnExit": ["DoSkill"]
        },
        "SwapAtkL": {
          "$type": "ConfigMonsterStateIDInfo",
          "animatorStates": {
            "SwapAtkL": [
              "Monster_Nada_SwapAtkL",
              "Audio_Monster_Nada_SwapAtkR"
            ],
            "SwapAtkLASM": ["Audio_Monster_Nada_SwapAtkR_ASM"]
          },
          "combatMove": true,
          "canSyncMove": false,
          "resetAnimatorTriggerOnEnter": ["HandFire"],
          "resetAnimatorTriggerOnExit": ["DoSkill"]
        },
        "SwapAtkR": {
          "$type": "ConfigMonsterStateIDInfo",
          "animatorStates": {
            "SwapAtkR": [
              "Monster_Nada_SwapAtkR",
              "Audio_Monster_Nada_SwapAtkR"
            ],
            "SwapAtkRASM": ["Audio_Monster_Nada_SwapAtkR_ASM"]
          },
          "combatMove": true,
          "canSyncMove": false,
          "resetAnimatorTriggerOnEnter": ["HandIce"],
          "resetAnimatorTriggerOnExit": ["DoSkill"]
        },
        "EnergySprayL": {
          "$type": "ConfigMonsterStateIDInfo",
          "animatorStates": {
            "EnergySprayLBS": [
              "Monster_Nada_EnergySprayLBS",
              "Audio_Monster_Nada_EnergySpray_BS",
              ""
            ],
            "EnergySprayL": [
              "Monster_Nada_EnergySprayL",
              "Audio_Monster_Nada_EnergySpray",
              ""
            ],
            "EnergySprayLASM": ["Audio_Monster_Nada_EnergySpray_ASM", ""]
          },
          "combatMove": true,
          "canSyncMove": false,
          "resetAnimatorTriggerOnEnter": ["HandFire"],
          "resetAnimatorTriggerOnExit": ["DoSkill"]
        },
        "EnergySprayR": {
          "$type": "ConfigMonsterStateIDInfo",
          "animatorStates": {
            "EnergySprayRBS": [
              "Monster_Nada_EnergySprayRBS",
              "Audio_Monster_Nada_EnergySpray_BS"
            ],
            "EnergySprayR": [
              "Monster_Nada_EnergySprayR",
              "Audio_Monster_Nada_EnergySpray"
            ],
            "EnergySprayRASM": ["Audio_Monster_Nada_EnergySpray_ASM"]
          },
          "combatMove": true,
          "canSyncMove": false,
          "resetAnimatorTriggerOnEnter": ["HandIce"],
          "resetAnimatorTriggerOnExit": ["DoSkill"]
        },
        "EnergySpire": {
          "$type": "ConfigMonsterStateIDInfo",
          "animatorStates": {
            "EnergySpireBS": ["Audio_Monster_Nada_EnergySpire_BS"],
            "EnergySpire": [
              "Monster_Nada_EnergySpire",
              "Audio_Monster_Nada_EnergySpire"
            ],
            "EnergySpireASM": ["Audio_Monster_Nada_EnergySpire_ASM"]
          },
          "combatMove": true,
          "canSyncMove": false,
          "resetAnimatorTriggerOnEnter": ["HandWind"],
          "resetAnimatorTriggerOnExit": ["DoSkill"]
        },
        "EnergyFire": {
          "$type": "ConfigMonsterStateIDInfo",
          "animatorStates": {
            "EnergyFireBS": [
              "Monster_Nada_EnergyFireBS",
              "Audio_Monster_Nada_EnergyFire_BS"
            ],
            "EnergyFireAS": [
              "Monster_Nada_EnergyFire",
              "Audio_Monster_Nada_EnergyFire_AS"
            ],
            "EnergyFireASM": ["Audio_Monster_Nada_EnergyFire_ASM"]
          },
          "combatMove": true,
          "canSyncMove": false,
          "resetAnimatorTriggerOnEnter": ["HandElectric"],
          "resetAnimatorTriggerOnExit": ["DoSkill"]
        },
        "CoreExplode": {
          "$type": "ConfigMonsterStateIDInfo",
          "animatorStates": {
            "CoreExplodeBS": [
              "Monster_Nada_CoreExplodeBS",
              "Audio_Monster_Nada_CoreExplode_BS"
            ],
            "CoreExplode": [
              "Monster_Nada_CoreExplode",
              "Audio_Monster_Nada_CoreExplode"
            ],
            "CoreExplodeASM": ["Audio_Monster_Nada_CoreExplode_ASM"]
          },
          "combatMove": true,
          "canSyncMove": false,
          "resetAnimatorTriggerOnEnter": ["HandElectric"],
          "resetAnimatorTriggerOnExit": ["DoSkill"]
        },
        "LaserArray": {
          "$type": "ConfigMonsterStateIDInfo",
          "animatorStates": {
            "LaserArrayBS": ["Audio_Monster_Nada_LaserArray_BS"],
            "LaserArray": [
              "Monster_Nada_LaserArray",
              "Audio_Monster_Nada_LaserArray"
            ],
            "LaserArrayASM": []
          },
          "combatMove": true,
          "canSyncMove": false,
          "resetAnimatorTriggerOnEnter": ["HandElectric"],
          "resetAnimatorTriggerOnExit": ["DoSkill"]
        },
        "WeakStateL": {
          "$type": "ConfigMonsterStateIDInfo",
          "animatorStates": {
            "WeakStateLBS": [
              "Monster_Nada_WeakAtkL_BS",
              "Audio_Monster_Nada_WeakStateL_BS"
            ],
            "WeakStateLLoop": [],
            "WeakStateLAS": [
              "Monster_Nada_WeakAtkAS",
              "Audio_Monster_Nada_WeakStateL_AS"
            ],
            "WeakStateLASM": ["Audio_Monster_Nada_WeakStateL_ASM"]
          },
          "combatMove": true,
          "canSyncMove": false,
          "resetAnimatorTriggerOnEnter": ["WeakStateStart"],
          "resetAnimatorTriggerOnExit": ["DoSkill", "WeakStateEnd"]
        },
        "WeakStateR": {
          "$type": "ConfigMonsterStateIDInfo",
          "animatorStates": {
            "WeakStateRBS": [
              "Monster_Nada_WeakAtkR_BS",
              "Audio_Monster_Nada_WeakStateL_BS"
            ],
            "WeakStateRLoop": [],
            "WeakStateRAS": [
              "Monster_Nada_WeakAtkAS",
              "Audio_Monster_Nada_WeakStateL_AS"
            ],
            "WeakStateRASM": ["Audio_Monster_Nada_WeakStateL_ASM"]
          },
          "combatMove": true,
          "canSyncMove": false,
          "resetAnimatorTriggerOnEnter": ["WeakStateStart"],
          "resetAnimatorTriggerOnExit": ["DoSkill", "WeakStateEnd"]
        },
        "WeakCritL": {
          "$type": "ConfigMonsterStateIDInfo",
          "animatorStates": {
            "WeakCritLBS": [
              "Monster_Nada_WeakCritBS",
              "Audio_Monster_Nada_WeakCritL_BS"
            ],
            "WeakCritLLoop": [],
            "WeakCritLAS": [
              "Monster_Nada_WeakCritAS",
              "Audio_Monster_Nada_WeakCritL_AS"
            ],
            "WeakCritLASM": ["Audio_Monster_Nada_WeakCritL_ASM"]
          },
          "combatMove": true,
          "canSyncMove": false,
          "resetAnimatorTriggerOnEnter": ["WeakCritStart"],
          "resetAnimatorTriggerOnExit": ["DoSkill", "WeakCritEnd"]
        },
        "WeakCritR": {
          "$type": "ConfigMonsterStateIDInfo",
          "animatorStates": {
            "WeakCritRBS": [
              "Monster_Nada_WeakCritBS",
              "Audio_Monster_Nada_WeakCritL_BS"
            ],
            "WeakCritRLoop": [],
            "WeakCritRAS": [
              "Monster_Nada_WeakCritAS",
              "Audio_Monster_Nada_WeakCritL_AS"
            ],
            "WeakCritRASM": ["Audio_Monster_Nada_WeakCritL_ASM"]
          },
          "combatMove": true,
          "canSyncMove": false,
          "resetAnimatorTriggerOnEnter": ["WeakCritStart"],
          "resetAnimatorTriggerOnExit": ["DoSkill", "WeakCritEnd"]
        },
        "Return": {
          "$type": "ConfigMonsterStateIDInfo",
          "animatorStates": {
            "Return": []
          },
          "combatMove": true,
          "canSyncMove": false,
          "resetAnimatorTriggerOnExit": ["DoSkill"]
        }
      }
    }
  },
  "abilities": [
    //State
    {
      "abilityName": "Monster_Nada_Stage01_Controller"
    },
    {
      "abilityName": "Monster_Nada_Stage01_WeakState"
    },
    {
      "abilityName": "Monster_Nada_HandLightNormal"
    },
    {
      "abilityName": "Monster_Nada_HandLightElectric"
    },
    {
      "abilityName": "Monster_Nada_HandLightWind"
    },
    {
      "abilityName": "Monster_Nada_HandLightWater"
    },
    {
      "abilityName": "Monster_Nada_HandLightIce"
    },
    {
      "abilityName": "Monster_Nada_HandLightFire"
    },
    //Skill
    {
      "abilityName": "Monster_Nada_Stage01_Alert"
    },
    {
      "abilityName": "Monster_Nada_SlamAtkL_Attack"
    },
    {
      "abilityName": "Monster_Nada_SlamAtkR_Attack"
    },
    {
      "abilityName": "Monster_Nada_SwapAtkL"
    },
    {
      "abilityName": "Monster_Nada_SwapAtkR"
    },
    {
      "abilityName": "Monster_Nada_EnergySprayL_SprayAttack"
    },
    {
      "abilityName": "Monster_Nada_EnergySprayR_SprayAttack"
    },
    {
      "abilityName": "Monster_Nada_EnergySprayL_Slam"
    },
    {
      "abilityName": "Monster_Nada_EnergySprayR_Slam"
    },
    {
      "abilityName": "Monster_Nada_LaserArray"
    },
    {
      "abilityName": "Monster_Nada_EnergyFire"
    },
    {
      "abilityName": "Monster_Nada_EnergySpire"
    },
    {
      "abilityName": "Monster_Nada_CoreExplode"
    },
    {
      "abilityName": "Monster_Nada_Stage01_WeakAtk"
    },
    {
      "abilityName": "Monster_Nada_Circle"
    },
    {
      "abilityName": "Monster_Nada_CreateEnergyCube"
    }
  ],
  "initialPoses": {
    "Default": {
      "initialPoseID": 0
    },
    "Quest": {
      "initialPoseID": 11,
      "initialPoseParams": {
        "boolParams": {
          "QuestFlag": "true"
        }
      }
    }
  },
  "aibeta": {
    "enable": true,
    "skillGCD": 0,
    "profiling": {
      "lodStrategy": "Best"
    },
    "network": {
      "resetHpOnSpawn": false,
      "syncSkill": true
    },
    // "fly":
    // {
    // 	"enable": true,
    // 	"floatingPoses": [0,1,101,111,121],
    // },
    "ui": {
      "hasDirectionIndicator": false
    },
    "sensing": {
      "enable": true,
      "settings": {
        "DefaultSetting": {
          "enableVision": true,
          "viewRange": 24.8,
          "viewPanoramic": true,
          "feelRange": 24,
          "hearAttractionRange": 0
        }
      },
      "templates": {
        "DefaultTemplate": {
          "DefaultPoses": "DefaultSetting",
          "11": "DefaultSetting"
        }
      }
    },
    "defendArea": {
      "enable": true,
      "defendRange": 100
    },
    "threat": {
      "clearThreatTargetDistance": 1000,
      "clearThreatEdgeDistance": 10.0,
      "clearThreatTimerByDistance": 10.0,
      "resistTauntLevel": "Monster_TauntLevel_5",
      "viewThreatGrow": 10,
      "feelThreatGrow": 1000,
      "hearThreatGrow": 0
    },
    "aiCombat": {
      // "combatPhases":
      // {
      // 	"P1": [101, 102, 151, 152],
      // 	"P2": [201, 202, 251, 252],
      // 	"P3": [301, 302],
      // },
    },
    "moveSetting": {
      "useNavMesh": false
    },
    "skillSetting": {
      "skillEliteSet": {
        "1": [1, 101, 102, 201, 202, 301, 401, 501, 601],
        "2": [11, 101, 102, 201, 202, 301, 401, 501, 601, 901]
      }
    },
    "skillGroupCDConfigs": [
      { "skillGroupCDID": 1, "skillGroupCDTime": 10.0 },
      { "skillGroupCDID": 2, "skillGroupCDTime": 15.0 },
      { "skillGroupCDID": 3, "skillGroupCDTime": 30 },
      { "skillGroupCDID": 4, "skillGroupCDTime": 20 },
      { "skillGroupCDID": 5, "skillGroupCDTime": 10 },
      { "skillGroupCDID": 6, "skillGroupCDTime": 10 }
    ],
    "skills": {
      "1": {
        "cd": 999999,
        "name": "OnAlert",
        "stateIDs": ["Alert", "AlertASM"],
        "skillType": "OnAlert",
        "skillQueryingTime": 3.5,
        "castCondition": {
          "pose": [1]
        }
      },
      "11": {
        "cd": 999999,
        "name": "OnAlert",
        "stateIDs": ["Show01", "AlertASM"],
        "skillType": "OnAlert",
        "skillQueryingTime": 3.5,
        "castCondition": {
          "pose": [11]
        }
      },
      "101": {
        "priority": 4,
        "cd": 7.5,
        "cdUpperRange": 5,
        "skillGroupCDID": 1,
        "skillQueryingTime": 3,
        "name": "SlamAtk",
        "stateIDs": ["SlamAtkL", "SlamAtkR"],
        "castCondition": {
          "maxTargetAngleXZ": 0,
          "minTargetAngleXZ": 10,
          "pickRangeMin": 0.0,
          "pickRangeMax": 50,
          "pose": [101]
        }
      },
      "102": {
        "priority": 3,
        "cd": 15,
        "cdUpperRange": 7.5,
        "skillGroupCDID": 1,
        "skillQueryingTime": 3,
        "name": "SlamAtk",
        "stateIDs": ["SlamAtkL", "SlamAtkR"],
        "castCondition": {
          "minTargetAngleXZ": 10,
          "pickRangeMin": 0.0,
          "pickRangeMax": 50,
          "pose": [101]
        }
      },
      "201": {
        "priority": 4,
        "cd": 10,
        "cdUpperRange": 7.5,
        "skillGroupCDID": 2,
        "skillQueryingTime": 3,
        "name": "EnergySpray",
        "stateIDs": ["EnergySprayL", "EnergySprayR"],
        "castCondition": {
          "maxTargetAngleXZ": 0,
          "minTargetAngleXZ": 10,
          "pickRangeMin": 0.0,
          "pickRangeMax": 50,
          "pose": [101]
        }
      },
      "202": {
        "priority": 3,
        "cd": 15,
        "cdUpperRange": 7.5,
        "skillGroupCDID": 2,
        "skillQueryingTime": 3,
        "name": "EnergySpray",
        "stateIDs": ["EnergySprayL", "EnergySprayR"],
        "castCondition": {
          "minTargetAngleXZ": 10,
          "pickRangeMin": 0.0,
          "pickRangeMax": 50,
          "pose": [101]
        }
      },
      "301": {
        "priority": 4,
        "cd": 20,
        "cdUpperRange": 7.5,
        "skillQueryingTime": 3,
        "name": "EnergyFire",
        "stateIDs": ["EnergyFire"],
        "castCondition": {
          "pickRangeMin": 0.0,
          "pickRangeMax": 50,
          "pose": [101]
        }
      },
      "401": {
        "priority": 5,
        "cd": 15,
        "cdUpperRange": 7.5,
        "skillQueryingTime": 3,
        "name": "EnergySpire",
        "stateIDs": ["EnergySpire"],
        "castCondition": {
          "pickRangeMin": 0.0,
          "pickRangeMax": 50,
          "pose": [101]
        }
      },
      "501": {
        "priority": 1,
        "cd": 75,
        "cdUpperRange": 15,
        "skillGroupCDID": 3,
        "initialCD": 30,
        "initialCDUpperRange": 5,
        "skillQueryingTime": 3,
        "name": "CoreExplode",
        "stateIDs": ["CoreExplode"],
        "castCondition": {
          "pickRangeMin": 0.0,
          "pickRangeMax": 50,
          "pose": [101]
        }
      },
      "601": {
        "priority": 1,
        "cd": 75,
        "cdUpperRange": 15,
        "skillGroupCDID": 3,
        "initialCD": 30,
        "initialCDUpperRange": 5,
        "skillQueryingTime": 3,
        "name": "LaserArray",
        "stateIDs": ["LaserArray"],
        "castCondition": {
          "pickRangeMin": 0.0,
          "pickRangeMax": 50,
          "pose": [101]
        }
      },
      "901": {
        "priority": 1,
        "cd": 999999,
        "skillQueryingTime": 3,
        "name": "Return",
        "stateIDs": ["Return"],
        "castCondition": {
          "pose": [901]
        }
      }
    }
  },
  "inputKeys": [
    {
      "keyID": 101,
      "inputKeyCode": 257
    },
    {
      "keyID": 151,
      "inputKeyCode": 258
    },
    {
      "keyID": 201,
      "inputKeyCode": 259
    },
    {
      "keyID": 251,
      "inputKeyCode": 260
    },
    {
      "keyID": 301,
      "inputKeyCode": 261
    },
    {
      "keyID": 401,
      "inputKeyCode": 262
    },
    {
      "keyID": 501,
      "inputKeyCode": 263
    },
    {
      "keyID": 601,
      "inputKeyCode": 264
    },
    {
      "keyID": 901,
      "inputKeyCode": 265
    },
    {
      "keyID": 902,
      "inputKeyCode": 266
    },
    {
      "keyID": 903,
      "inputKeyCode": 266
    },
    {
      "keyID": 1,
      "inputKeyCode": 267
    }
  ],
  "audio": {}
}
