{
  "$type": "ConfigMonster",
  "headControl": {
    "$type": "ConfigHeadControl",
    "useHeadControl": true,
    "maxYawDegree": 60,
    "maxPitchDegree": 30,
    "animStates": [
      "NormalIdle/Standby",
      "NormalMove/WalkForward",
      "NormalMove/WalkBack",
      "NormalMove/WalkRight",
      "NormalMove/WalkLeft",
      "NormalMove/Run",
      "Turn/TurnLeft",
      "Turn/TurnRight"
    ]
  },
  "common": {
    "effectAttachShape": {
      "$type": "ConfigEffectAttachSkinnedMesh",
      "mesh": "EffectMesh"
    },
    "mass": 30.0,
    "height": 1.7,
    "modelHeight": 1.7,
    "viewSize": 1.1,
    "scale": 1.1,
    "useGrassDisplacement": true,
    "affectedByWorld": true,
    "checkInSurface": true,
    "clearAIOnSetLightDeactive": true,
    "recoverByInitPose": true,
    "reconnectSupport": true
  },
  "move": {
    "$type": "ConfigAnimatorMove",
    "facingMove": "FourDirection",
    "monsterSizeType": "StoopType"
  },
  "model": {
    "bornEffect": "Eff_Monster_Common_Born"
  },
  "dither": {
    "showDitherDuration": 1.0
  },
  "equipController": {
    "attachPoints": {
      "equip01": "WeaponR",
      "equip02": "WeaponL"
    },
    "sheathPoint": ""
  },
  "billboard": {
    "$type": "ConfigCombatBillboard",
    "offsetType": "Character",
    "offset": {
      "x": -0.05,
      "y": 0,
      "z": 0
    },
    "showHPBar": true,
    "radiusOffset": 0.25,
    "size": "Normal"
  },
  "combat": {
    "property": {
      "weight": 70, //weightLevel = 2
      "endureType": "Monster_Minion",
      "endureShake": 0
    },
    "combatLock": {
      "denyLockOn": false,
      "lockType": "Avatar&Monster_Lv4"
    },
    "beHit": {
      "hitBloodEffect": "",
      "muteAllHit": false,
      "muteAllHitEffect": false,
      "muteAllHitText": false
    },
    "die": {
      "hasAnimatorDie": true,
      "dieDisappearEffect": "Eff_Death_Sand_Eremite",
      "dieShaderData": "EremiteSandDie",
      "dieShaderEnableDurationTime": 1.0,
      "dieEndTime": 2.0,
      "dieForceDisappearTime": 8.0,
      "useRagDoll": true,
      "ragDollDieEndTimeDelay": 8.0,
      "muteHitBox": true,
      "dieDenyLockOn": true,
      "dieIsGhostToEnemy": true,
      "dieIgnoreTriggerBullet": true,
      "muteBillboard": true,
      "mutePushCollider": true
    },

    // d88888b db    db d88888b d8b   db d888888b
    // 88'     88    88 88'     888o  88 `~~88~~'
    // 88ooooo Y8    8P 88ooooo 88V8o 88    88
    // 88~~~~~ `8b  d8' 88~~~~~ 88 V8o88    88
    // 88.      `8bd8'  88.     88  V888    88
    // Y88888P    YP    Y88888P VP   V8P    YP
    "animEvents": {
      "AE_Slash": {
        "attackPattern": {
          "$type": "ConfigAttackBox",
          "triggerType": "TriggerNoRepeat",
          "size": {
            "x": 1.6,
            "y": 3.2,
            "z": 2.67
          },
          "born": {
            "$type": "ConfigBornBySelf",
            "offset": {
              "x": 0.0,
              "y": 1.3,
              "z": 0.61
            }
          }
        },
        "attackInfo": {
          "attackProperty": {
            "damagePercentage": 1.0,
            "strikeType": "Slash",
            "enBreak": 200
          },
          "hitPattern": {
            "hitImpulseType": "LV4"
          }
        }
      },
      "AE_Slash_Light": {
        "attackPattern": {
          "$type": "ConfigAttackCircle",
          "triggerType": "TriggerNoRepeat",
          "height": 1.8,
          "fanAngle": 240,
          "radius": 1.8,
          "born": {
            "$type": "ConfigBornBySelf",
            "offset": {
              "x": 0.0,
              "y": 0.0,
              "z": 0.5
            }
          }
        },
        "attackInfo": {
          "attackProperty": {
            "damagePercentage": 0.2,
            "strikeType": "Slash",
            "elementType": "None",
            "enBreak": 50
          },
          "hitPattern": {
            "hitImpulseType": "LV1"
          }
        }
      }
    }
  },
  "stateLayers": {
    "defaultLayer": {
      "$type": "ConfigNormalStateLayer",
      "stateIDs": {
        // db    db d8b   db d888888b db    db
        // 88    88 888o  88   `88'   88    88
        // 88    88 88V8o 88    88    Y8    8P
        // 88    88 88 V8o88    88    `8b  d8'
        // 88b  d88 88  V888   .88.    `8bd8'
        // ~Y8888P' VP   V8P Y888888P    YP
        "NormalIdle": {
          "$type": "ConfigMonsterStateIDInfo",
          "animatorStates": {
            "Standby": []
          },
          "canDoSkill": true,
          "canSyncMove": true,
          "resetAnimatorTriggerOnExit": ["DoSkill"]
        },
        "NormalBorn": {
          "$type": "ConfigMonsterStateIDInfo",
          "animatorStates": {
            "Born": []
          },
          "canDoSkill": true,
          "resetAnimatorTriggerOnExit": ["DoSkill"]
        },
        "NormalMove": {
          "$type": "ConfigMonsterStateIDInfo",
          "animatorStates": {
            "WalkForward": ["Audio_Eremite_Male_Standard_Pole_01_walk"],
            "WalkBack": ["Audio_Eremite_Male_Standard_Pole_01_walk"],
            "WalkRight": ["Audio_Eremite_Male_Standard_Pole_01_walk"],
            "WalkLeft": ["Audio_Eremite_Male_Standard_Pole_01_walk"],
            "Run": ["Audio_Eremite_Male_Standard_Pole_01_run"]
          },
          "canDoSkill": true,
          "canSteer": true,
          "canSyncMove": true,
          "resetAnimatorTriggerOnExit": ["DoSkill"]
        },
        "Turn": {
          "$type": "ConfigMonsterStateIDInfo",
          "animatorStates": {
            "TurnLeft": ["Audio_Eremite_Male_Standard_Pole_01_walk"],
            "TurnRight": ["Audio_Eremite_Male_Standard_Pole_01_walk"]
          },
          "canDoSkill": true,
          "canSteer": true,
          "autoSteer": false,
          "canSyncMove": true,
          "resetAnimatorTriggerOnExit": ["DoSkill"]
        },
        "BeHit": {
          "$type": "ConfigMonsterStateIDInfo",
          "animatorStates": {
            "Hit_L": [],
            "Hit_H": ["Audio_Eremite_Male_Standard_Pole_01_hit_H"]
          },
          "resetAnimatorTriggerOnEnter": ["BeHit"],
          "resetAnimatorTriggerOnExit": ["DoSkill"]
        },
        "BeHitThrow": {
          "$type": "ConfigMonsterStateIDInfo",
          "animatorStates": {
            "HitThrow": [],
            "HitThrowDrop": []
          },
          "resetAnimatorTriggerOnEnter": ["BeHit", "HitAir2HitDrop"],
          "resetAnimatorTriggerOnExit": ["DoSkill", "BeHit"],
          "setAnimatorBoolean": [
            {
              "$type": "ConfigAnimatorBoolean",
              "name": "AirDie"
            }
          ]
        },
        "BeHitThrowToStandby": {
          "$type": "ConfigMonsterStateIDInfo",
          "animatorStates": {
            "HitThrowToGround": [
              "Audio_Eremite_Male_Standard_Pole_01_hitthrowtogroud"
            ]
          },
          "resetAnimatorTriggerOnEnter": ["BeHit", "HitAir2HitDrop"],
          "resetAnimatorTriggerOnExit": ["DoSkill", "BeHit"],
          "setAnimatorBoolean": [
            {
              "$type": "ConfigAnimatorBoolean",
              "name": "AirDie",
              "normalizeEnd": 0.5
            }
          ]
        },
        "Struggle": {
          "$type": "ConfigMonsterStateIDInfo",
          "animatorStates": {
            "Struggle": []
          },
          "resetAnimatorTriggerOnEnter": ["BeHit", "HitAir2HitDrop"],
          "resetAnimatorTriggerOnExit": ["DoSkill"]
        },
        // d8888b. d888888b d88888b
        // 88  `8D   `88'   88'
        // 88   88    88    88ooooo
        // 88   88    88    88~~~~~
        // 88  .8D   .88.   88.
        // Y8888D' Y888888P Y88888P
        "Die": {
          "$type": "ConfigMonsterStateIDInfo",
          "animatorStates": {
            "Die1": [
              "Monster_Eremite_Pole_Die",
              "Audio_Eremite_Male_Standard_Pole_01_die"
            ],
            "Die2": [
              "Monster_Eremite_Pole_Die",
              "Audio_Eremite_Male_Standard_Pole_01_die"
            ],
            "SwimDie_BS": [],
            "SwimDie": ["Monster_Eremite_SwimDie"],
            "SwimDie_AS": []
          }
        },
        "Die_RagDoll": {
          "$type": "ConfigMonsterStateIDInfo",
          "animatorStates": {
            "AirDie": ["Monster_Eremite_AirDie"]
          },
          "enableRagDoll": true
        },

        // d8888b.  .d8b.  d888888b d888888b db      d88888b
        // 88  `8D d8' `8b `~~88~~' `~~88~~' 88      88'
        // 88oooY' 88ooo88    88       88    88      88ooooo
        // 88~~~b. 88~~~88    88       88    88      88~~~~~
        // 88   8D 88   88    88       88    88booo. 88.
        // Y8888P' YP   YP    YP       YP    Y88888P Y88888P
        "Alert": {
          "$type": "ConfigMonsterStateIDInfo",
          "animatorStates": {
            "Alert": [
              "Monster_Eremite_Clear_FreePoseMark",
              "Audio_Eremite_Male_Standard_Pole_01_alert"
            ],
            "TrainingAlert": ["Monster_Eremite_Clear_FreePoseMark"],
            "StandingAlert_SlashEnd": [
              "Monster_Eremite_Clear_FreePoseMark",
              "Monster_Eremite_Pole_ShowWeapon_StandingAlert"
            ],
            "StandingAlert_Normal": [
              "Monster_Eremite_Clear_FreePoseMark",
              "Monster_Eremite_Pole_ShowWeapon_StandingAlert_Normal"
            ]
          },
          "addEndure": 0,
          "resetAnimatorTriggerOnExit": ["BeHit", "DoSkill"]
        },
        "Crossleg_Alert": {
          "$type": "ConfigMonsterStateIDInfo",
          "animatorStates": {
            "CrosslegAlert": [
              "Monster_Eremite_Clear_FreePoseMark",
              "Monster_Eremite_Pole_ShowWeapon_CrosslegAlert",
              "Audio_Eremite_Male_Standard_Pole_01_crosslegalert"
            ]
          },
          "addEndure": 0,
          "resetAnimatorTriggerOnExit": ["BeHit", "DoSkill"]
        },
        // .d8888. db       .d8b.  .d8888. db   db
        // 88'  YP 88      d8' `8b 88'  YP 88   88
        // `8bo.   88      88ooo88 `8bo.   88ooo88
        //   `Y8b. 88      88~~~88   `Y8b. 88~~~88
        // db   8D 88booo. 88   88 db   8D 88   88
        // `8888Y' Y88888P YP   YP `8888Y' YP   YP
        "Slash": {
          "$type": "ConfigMonsterStateIDInfo",
          "animatorStates": {
            "Slash": [
              "Monster_Eremite_Pole_Slash",
              "Monster_Eremite_Pole_Slash_Effect",
              "Audio_Eremite_Male_Standard_Pole_01_slash"
            ],
            "Rush_Slash": [
              "Monster_Eremite_Pole_Slash",
              "Monster_Eremite_Pole_Slash_Effect",
              "Audio_Eremite_Male_Standard_Pole_01_rush_slash"
            ]
          },
          "resetAnimatorTriggerOnExit": ["BeHit", "DoSkill"],
          "addEndure": 0
        },
        "Slash_AS": {
          "$type": "ConfigMonsterStateIDInfo",
          "animatorStates": {
            "Slash_AS": ["Audio_Eremite_Male_Standard_Pole_01_Slash_AS"],
            "Rush_Slash_AS": [
              "Audio_Eremite_Male_Standard_Pole_01_rush_slash_AS"
            ]
          },
          "resetAnimatorTriggerOnExit": ["BeHit", "DoSkill", "Rush2Slash"]
        },
        "Slash_BS": {
          "$type": "ConfigMonsterStateIDInfo",
          "animatorStates": {
            "Rush_Transition": [
              "Monster_Eremite_Pole_Rush_Jump",
              "Audio_Eremite_Male_Standard_Pole_01_transition"
            ],
            "Slash_BS": [
              "Monster_Eremite_Pole_Slash_BS",
              "Audio_Eremite_Male_Standard_Pole_01_slash_BS"
            ]
          },
          "resetAnimatorTriggerOnExit": ["BeHit", "DoSkill", "Rush2Slash"]
        },

        // d8888b. db    db .d8888. db   db
        // 88  `8D 88    88 88'  YP 88   88
        // 88oobY' 88    88 `8bo.   88ooo88
        // 88`8b   88    88   `Y8b. 88~~~88
        // 88 `88. 88b  d88 db   8D 88   88
        // 88   YD ~Y8888P' `8888Y' YP   YP
        "Rush_BS": {
          "$type": "ConfigMonsterStateIDInfo",
          "animatorStates": {
            "Rush_BS": [
              "Monster_Eremite_Pole_Rush_BS_Effect",
              "Audio_Eremite_Male_Standard_Pole_01_rush_BS"
            ]
          },
          "resetAnimatorTriggerOnExit": [
            "BeHit",
            "DoSkill",
            "RushEnd",
            "Rush2Slash"
          ]
        },
        "Rush_Loop": {
          "$type": "ConfigMonsterStateIDInfo",
          "animatorStates": {
            "Rush_Loop": [
              "Monster_Eremite_Pole_RushLoop",
              "Audio_Eremite_Male_Standard_Pole_01_loop"
            ]
          },
          "resetAnimatorTriggerOnExit": ["BeHit", "DoSkill"]
        },
        "Rush_AS": {
          "$type": "ConfigMonsterStateIDInfo",
          "animatorStates": {
            "Rush_AS": [
              "Monster_Eremite_Pole_Rush_AS_Effect",
              "Audio_Eremite_Male_Standard_Pole_01_rush_AS"
            ]
          },
          "resetAnimatorTriggerOnExit": ["BeHit", "DoSkill", "RushEnd"]
        },

        // d88888b d8888b. d88888b d88888b      d8888b.  .d88b.  .d8888. d88888b
        // 88'     88  `8D 88'     88'          88  `8D .8P  Y8. 88'  YP 88'
        // 88ooo   88oobY' 88ooooo 88ooooo      88oodD' 88    88 `8bo.   88ooooo
        // 88~~~   88`8b   88~~~~~ 88~~~~~      88~~~   88    88   `Y8b. 88~~~~~
        // 88      88 `88. 88.     88.          88      `8b  d8' db   8D 88.
        // YP      88   YD Y88888P Y88888P      88       `Y88P'  `8888Y' Y88888P
        "FreePose_HoldArm_Idle": {
          "$type": "ConfigMonsterStateIDInfo",
          "animatorStates": {
            "HoldArm_Idle": []
          },
          "canDoSkill": true,
          "resetAnimatorTriggerOnExit": ["BeHit", "DoSkill"]
        },
        "FreePose_Downcast_Idle": {
          "$type": "ConfigMonsterStateIDInfo",
          "animatorStates": {
            "Downcast_Idle": []
          },
          "canDoSkill": true,
          "resetAnimatorTriggerOnExit": ["BeHit", "DoSkill"]
        },
        "FreePose_LeanOnWall_Idle": {
          "$type": "ConfigMonsterStateIDInfo",
          "animatorStates": {
            "LeanOnWall_Idle": []
          },
          "canDoSkill": true,
          "resetAnimatorTriggerOnExit": ["BeHit", "DoSkill"]
        },
        "FreePose_Arrange_Idle": {
          "$type": "ConfigMonsterStateIDInfo",
          "animatorStates": {
            "Arrange_Idle": []
          },
          "canDoSkill": true,
          "resetAnimatorTriggerOnExit": ["BeHit", "DoSkill"]
        },
        "FreePose_StandingTalk_Idle": {
          "$type": "ConfigMonsterStateIDInfo",
          "animatorStates": {
            "StandingTalk_Idle": []
          },
          "canDoSkill": true,
          "resetAnimatorTriggerOnExit": ["BeHit", "DoSkill"]
        },
        "FreePose_StandingTalk_Skill": {
          "$type": "ConfigMonsterStateIDInfo",
          "animatorStates": {
            "StandingTalk01_Skill": [],
            "StandingTalk02_Skill": [],
            "StandingTalk03_Skill": []
          },
          "canDoSkill": true,
          "resetAnimatorTriggerOnExit": ["BeHit", "DoSkill"]
        },

        // 所有盘腿坐共用这个StateID
        "FreePose_Crossleg_Idle": {
          "$type": "ConfigMonsterStateIDInfo",
          "animatorStates": {
            "Crossleg_Idle": []
          },
          "canDoSkill": true,
          "resetAnimatorTriggerOnExit": ["BeHit", "DoSkill"]
        },

        "FreePose_Crossleg_Chat_Skill": {
          "$type": "ConfigMonsterStateIDInfo",
          "animatorStates": {
            "Crossleg_Chat01_Skill": [
              "Audio_Eremite_Male_Standard_Pole_01_Chat_01"
            ],
            "Crossleg_Chat02_Skill": [
              "Audio_Eremite_Male_Standard_Pole_01_Chat_02"
            ]
          },
          "canDoSkill": true,
          "resetAnimatorTriggerOnExit": ["BeHit", "DoSkill"]
        },
        "FreePose_Crossleg_Drink_Skill": {
          "$type": "ConfigMonsterStateIDInfo",
          "animatorStates": {
            "Crossleg_Drink_Skill_01": [
              "Audio_Eremite_Male_Standard_Pole_01_Drink"
            ],
            "Crossleg_Drink_Skill_02": [],
            "Crossleg_Drink_Skill_03": ["Monster_Eremite_Drinking_WaterDrop"],
            "Crossleg_Drink_Skill_04": [],
            "Crossleg_Drink_Skill_05": []
          },
          "canDoSkill": true,
          "resetAnimatorTriggerOnExit": ["BeHit", "DoSkill"]
        },
        "FreePose_Crossleg_Sleeping_Skill": {
          "$type": "ConfigMonsterStateIDInfo",
          "animatorStates": {
            "Crossleg_Sleeping_Skill": []
          },
          "canDoSkill": true,
          "resetAnimatorTriggerOnExit": ["BeHit", "DoSkill"]
        },

        "FreePose_Training01_Idle": {
          "$type": "ConfigMonsterStateIDInfo",
          "animatorStates": {
            "Training01_Idle": [
              "Audio_Eremite_Male_Standard_Pole_01_tranning01"
            ]
          },
          "canDoSkill": true,
          "resetAnimatorTriggerOnExit": ["BeHit", "DoSkill"]
        },

        "FreePose_Crossleg_Gambling_Bet_Skill": {
          "$type": "ConfigMonsterStateIDInfo",
          "animatorStates": {
            "Crossleg_Gambling_Bet_Skill": [
              "Audio_Eremite_Male_Standard_Pole_01_Bet"
            ]
          },
          "canDoSkill": true,
          "resetAnimatorTriggerOnExit": ["BeHit", "DoSkill"]
        },
        "FreePose_Crossleg_Gambling_Roll": {
          "$type": "ConfigMonsterStateIDInfo",
          "animatorStates": {
            "Crossleg_Gambling_Roll": [
              "Monster_Eremite_Gambling_GetResult",
              "Audio_Eremite_Male_Standard_Pole_01_Roll"
            ]
          },
          "canDoSkill": true,
          "resetAnimatorTriggerOnExit": ["BeHit", "DoSkill"]
        },
        "FreePose_Crossleg_Gambling_Lose": {
          "$type": "ConfigMonsterStateIDInfo",
          "animatorStates": {
            "Crossleg_Gambling_Lose": [
              "Audio_Eremite_Male_Standard_Pole_01_gabling_lose"
            ]
          },
          "canDoSkill": true,
          "resetAnimatorTriggerOnExit": ["BeHit", "DoSkill"]
        },
        "FreePose_Crossleg_Gambling_Win": {
          "$type": "ConfigMonsterStateIDInfo",
          "animatorStates": {
            "Crossleg_Gambling_Win": [
              "Audio_Eremite_Male_Standard_Pole_01_gabling_win"
            ]
          },
          "canDoSkill": true,
          "resetAnimatorTriggerOnExit": ["BeHit", "DoSkill"]
        },
        "FreePose_Crossleg_PlayDaff_Idle": {
          "$type": "ConfigMonsterStateIDInfo",
          "animatorStates": {
            "Crossleg_PlayDaff_Idle": []
          },
          "canDoSkill": true,
          "resetAnimatorTriggerOnExit": ["BeHit", "DoSkill"]
        },
        "FreePose_Crossleg_PlayOud_Idle": {
          "$type": "ConfigMonsterStateIDInfo",
          "animatorStates": {
            "Crossleg_OudIdle": [],
            "Crossleg_PlayOud_BS": [],
            "Crossleg_PlayOud_Loop": [],
            "Crossleg_PlayOud_AS": []
          },
          "canDoSkill": true,
          "resetAnimatorTriggerOnExit": ["BeHit", "DoSkill"]
        }
      }
    }
  },

  //  .d8b.  d8888b. d888888b db      d888888b d888888b db    db
  // d8' `8b 88  `8D   `88'   88        `88'   `~~88~~' `8b  d8'
  // 88ooo88 88oooY'    88    88         88       88     `8bd8'
  // 88~~~88 88~~~b.    88    88         88       88       88
  // 88   88 88   8D   .88.   88booo.   .88.      88       88
  // YP   YP Y8888P' Y888888P Y88888P Y888888P    YP       YP
  "abilities": [
    { "abilityName": "Eremite_TurnState_AnimatorSteer" }, // Turn 角度调整
    { "abilityName": "Eremite_Pole_AnimatorSteer" }, // 攻击动作旋转
    { "abilityName": "Eremite_Pole_Rush_Detection" }, // 冲锋逻辑
    { "abilityName": "Eremite_Universal_Alert" }, // 镀金初级怪通用入战Pose处理
    { "abilityName": "Eremite_Gambling_Logic" }, // 打牌的表现逻辑
    { "abilityName": "Eremite_Pole_Equip_Display_Manager" }, // 长柄武器表现逻辑
    { "abilityName": "Eremite_FreePose_Display_Manager" }, // 战前特效表现配置
    { "abilityName": "Eremite_FreePose_Male_Drinking_Display_Manager" } // 喝水表现
  ],
  "initialPoses": {
    "Default": {
      "initialPoseID": 0
    },

    // 9501 ~ 9600    站姿及其他直接 入战进常规Alert
    //	- 9001 抱胸
    //	- 9002 垂头丧气
    //  - 9003 靠墙站立
    //  - 9004 站立整理
    //  - 9005 站立谈话 (随机动作)
    //  - 9007 枪刺训练 (生疏)
    //  - 9008 枪刺训练  因资源复用存在问题，所以9008对应的动作不再使用。现在9008等同于9007(为了防止出现错误，保留配置)
    "HoldArm": {
      "initialPoseID": 9001,
      "initialPoseParams": {
        "intParams": {
          "FreePoseMark": "9001"
        }
      }
    },
    "Downcast": {
      "initialPoseID": 9002,
      "initialPoseParams": {
        "intParams": {
          "FreePoseMark": "9002"
        }
      }
    },
    "LeanOnWall": {
      "initialPoseID": 9003,
      "initialPoseParams": {
        "intParams": {
          "FreePoseMark": "9003"
        }
      }
    },
    "Arrange": {
      "initialPoseID": 9004,
      "initialPoseParams": {
        "intParams": {
          "FreePoseMark": "9004"
        }
      }
    },
    "StandingTalk": {
      "initialPoseID": 9005,
      "initialPoseParams": {
        "intParams": {
          "FreePoseMark": "9005"
        }
      }
    },
    "Training01": {
      "initialPoseID": 9007,
      "initialPoseParams": {
        "intParams": {
          "FreePoseMark": "9007"
        }
      }
    },
    "Training02": {
      "initialPoseID": 9008,
      "initialPoseParams": {
        "intParams": {
          "FreePoseMark": "9007"
        }
      }
    },

    // 9501 ~ 9600  盘腿坐状态下的Pose 入战进特殊Alert
    // 	- 9501： 只会随机使用谈话相关的动作
    // 	- 9502： 通用坐姿，随机使用谈话和饮酒动作
    // 	- 9503： 只会使用饮酒动作
    // 	- 9504： 昏昏欲睡
    //	- 9505： 演奏乌德琴
    //  - 9506： 演奏铃鼓
    // 	- 951x： 打牌专用Pose序列   每个体型通用  与Ability逻辑耦合
    // 		- 9511： 打牌 - 信号发出
    //		- 9512： 打牌 - 信号接收
    //  3.1新增 9555-演奏乌德琴(真弹)  (但是不存于InitialPose中)
    "CrossLeg_Talk_Only": {
      "initialPoseID": 9501,
      "initialPoseParams": {
        "intParams": {
          "FreePoseMark": "9501"
        }
      }
    },
    "CrossLeg_Universal": {
      "initialPoseID": 9502,
      "initialPoseParams": {
        "intParams": {
          "FreePoseMark": "9502"
        }
      }
    },
    "CrossLeg_Drink_Only": {
      "initialPoseID": 9503,
      "initialPoseParams": {
        "intParams": {
          "FreePoseMark": "9503"
        }
      }
    },
    "CrossLeg_Sleeping": {
      "initialPoseID": 9504,
      "initialPoseParams": {
        "intParams": {
          "FreePoseMark": "9504"
        }
      }
    },
    "CrossLeg_PlayOud": {
      "initialPoseID": 9505,
      "initialPoseParams": {
        "intParams": {
          "FreePoseMark": "9505"
        }
      }
    },
    "CrossLeg_PlayDaff": {
      "initialPoseID": 9506,
      "initialPoseParams": {
        "intParams": {
          "FreePoseMark": "9506"
        }
      }
    },

    "CrossLeg_Gambling_Banker": {
      "initialPoseID": 9511,
      "initialPoseParams": {
        "intParams": {
          "FreePoseMark": "9511"
        }
      }
    },
    "CrossLeg_Gambling_Receiver": {
      "initialPoseID": 9512,
      "initialPoseParams": {
        "intParams": {
          "FreePoseMark": "9512"
        }
      }
    }
  },
  "aibeta": {
    "enable": true,
    "moveSetting": {
      "almostReachedDistanceRun": 1.5
    },
    "neurons": {
      "DefaultSetting": ["HIT"],
      "NeverCombat": []
    },
    "sensing": {
      "settings": {
        "DefaultSetting": {
          "viewRange": 30.0,
          "feelRange": 8.0
        },
        "HighAlert": {
          "viewRange": 40.0,
          "feelRange": 10.0
        },
        "LowAlert": {
          "viewRange": 15.0,
          "feelRange": 6.0
        },
        "UltraLowSensing": {
          "viewRange": 10.0,
          "feelRange": 4.0,
          "hearAttractionRange": 0
        },
        "EarshotFix": {
          "viewRange": 30.0,
          "feelRange": 8.0,
          "hearAttractionRange": 9
        },
        "NeverCombat": {
          "enableVision": false,
          "feelRange": 0.0,
          "hearAttractionRange": 0.0
        }
      },
      "templates": {
        "DefaultTemplate": {
          "DefaultPoses": "DefaultSetting"
        },
        "HighAlert": {
          "DefaultPoses": "HighAlert"
        },
        "LowAlert": {
          "DefaultPoses": "LowAlert"
        },
        "UltraLowSensing": {
          "DefaultPoses": "UltraLowSensing"
        },
        "EarshotFix": {
          "DefaultPoses": "EarshotFix"
        },
        "NeverCombat": {
          "DefaultPoses": "NeverCombat"
        }
      }
    },
    "defendArea": {
      "enable": true
    },
    "threat": {
      "clearThreatTimerByDistance": 3.0,
      "clearThreatByLostPath": true,
      "clearThreatTimerByLostPath": 10,
      "viewAttenuation": [
        { "x": 10.0, "y": 2.0 },
        { "x": 15.0, "y": 0.8 },
        { "x": 20.0, "y": 0.5 },
        { "x": 25.0, "y": 0.3 },
        { "x": 30.0, "y": 0.2 }
      ]
    },
    // 3.1 新增，用于大世界BGM控制怪物演奏状态功能
    // 需要Pose状态机有两个参数：
    // IsMusicSilent: bool
    // MusicLeftTime: float
    "precombat": {
      "needMusicSlient": true
    },
    //  d888888b  .d8b.   .o88b. d888888b d888888b  .o88b.
    //  `~~88~~' d8' `8b d8P  Y8 `~~88~~'   `88'   d8P  Y8
    //     88    88ooo88 8P         88       88    8P
    //     88    88~~~88 8b         88       88    8b
    //     88    88   88 Y8b  d8    88      .88.   Y8b  d8
    //     YP    YP   YP  `Y88P'    YP    Y888888P  `Y88P'
    "returnToBornTactic": {
      "enable": true,
      "defaultSetting": {
        "speedLevel": 2
      }
    },
    "wanderTactic": {
      "enable": true,
      "condition": {
        "pose": [1]
      },
      "defaultSetting": {
        "speedLevel": 1,
        "cdMin": 1.5,
        "cdMax": 3.0,
        "distanceFromBorn": 15.0,
        "distanceFromCurrentMin": 3.75,
        "distanceFromCurrentMax": 7.5
      }
    },
    "investigateTactic": {
      "enable": true,
      "condition": {
        "pose": [1]
      }
    },
    "facingMoveTactic": {
      "enable": true,
      "condition": {
        "pose": [1001, 10]
      },
      "defaultSetting": {
        "rangeMin": 5.3,
        "rangeMax": 8.8,
        "facingMoveWeight": {
          "stop": 3,
          "forward": 1,
          "back": 3,
          "left": 1,
          "right": 1
        }
      }
    },
    "meleeChargeTactic": {
      "enable": true,
      "condition": {
        "pose": [1001, 10]
      },
      "defaultSetting": {
        "speedLevel": 2,
        "speedLevelInner": 1,
        "innerDistance": 16,
        "stopDistance": 12,
        "startDistanceMin": 20,
        "startDistanceMax": 50
      }
    },
    // .d8888. db   dD d888888b db      db
    // 88'  YP 88 ,8P'   `88'   88      88
    // `8bo.   88,8P      88    88      88
    //   `Y8b. 88`8b      88    88      88
    // db   8D 88 `88.   .88.   88booo. 88booo.
    // `8888Y' YP   YD Y888888P Y88888P Y88888P
    "skillGCD": 3.0,
    "skillGroupCDConfigs": [
      {
        "skillGroupCDID": 1,
        "skillGroupCDTime": 2.5
      }
    ],
    "skills": {
      "101": {
        "name": "OnAlert",
        "stateIDs": ["Alert"],
        "skillType": "OnAlert",
        "skillQueryingTime": 3,
        "triggerGCD": true,
        "ignoreGCD": true,
        "castCondition": {
          "pose": [1]
        }
      },
      "102": {
        "name": "OnAlert_Combat",
        "stateIDs": ["Alert"],
        "skillType": "Combat",
        "skillQueryingTime": 3,
        "triggerGCD": true,
        "ignoreGCD": true,
        "priority": 1,
        "castCondition": {
          "pose": [1, 10]
        }
      },
      "111": {
        "name": "CrosslegAlert",
        "stateIDs": ["Alert"],
        "skillType": "OnAlert",
        "skillQueryingTime": 3,
        "triggerGCD": true,
        "ignoreGCD": true,
        "castCondition": {
          "pose": [9501, 9502, 9503, 9504, 9505, 9506, 9511, 9512, 9555]
        }
      },
      "112": {
        "name": "CrosslegAlert_Combat",
        "stateIDs": ["Alert"],
        "skillType": "Combat",
        "skillQueryingTime": 3,
        "triggerGCD": true,
        "ignoreGCD": true,
        "castCondition": {
          "pose": [9501, 9502, 9503, 9504, 9505, 9506, 9511, 9512, 9555]
        }
      },
      "121": {
        "name": "TrainingAlert",
        "stateIDs": ["Alert"],
        "skillType": "OnAlert",
        "skillQueryingTime": 3,
        "triggerGCD": true,
        "ignoreGCD": true,
        "castCondition": {
          "pose": [9007, 9008]
        }
      },
      "122": {
        "name": "TrainingAlert_Combat",
        "stateIDs": ["Alert"],
        "skillType": "Combat",
        "skillQueryingTime": 3,
        "triggerGCD": true,
        "ignoreGCD": true,
        "castCondition": {
          "pose": [9007, 9008]
        }
      },
      "131": {
        "name": "StandingAlert",
        "stateIDs": ["Alert"],
        "skillType": "OnAlert",
        "skillQueryingTime": 3,
        "triggerGCD": true,
        "ignoreGCD": true,
        "faceTarget": true,
        "castCondition": {
          "pose": [9001, 9002, 9003, 9004, 9005]
        }
      },
      "132": {
        "name": "StandingAlert_Combat",
        "stateIDs": ["Alert"],
        "skillType": "Combat",
        "skillQueryingTime": 3,
        "triggerGCD": true,
        "ignoreGCD": true,
        "faceTarget": true,
        "castCondition": {
          "pose": [9001, 9002, 9003, 9004, 9005]
        }
      },

      // --------------------------------------------------

      "201": {
        "cd": 8,
        "cdUpperRange": 3.0,
        "priority": 2,
        "name": "Slash",
        "stateIDs": ["Slash", "Slash_AS", "Slash_BS"],
        "combatSkillType": "MeleeAttack",
        "flagSelfInZone": "11",
        "flagTargetInZone": "11",
        "flagSelfOnTemplateCollider": "11",
        "castCondition": {
          "pickRangeMin": 0.0,
          "pickRangeMax": 5.5,
          "pose": [1001, 10]
        }
      },
      "301": {
        "cd": 5,
        "cdUpperRange": 3.0,
        "priority": 3,
        "name": "Rush",
        "stateIDs": [
          "Rush_BS",
          "Rush_Loop",
          "Rush_AS",
          "Slash",
          "Slash_AS",
          "Slash_BS"
        ],
        "combatSkillType": "RangedAttack", // 虽然是近战，但是因为是从远距离冲锋，也算到RangedAttack里面，不对玩家注意力造成负担
        "flagTargetInZone": "11",
        "castCondition": {
          "pickRangeMin": 6.0,
          "pickRangeMax": 14.0,
          "pose": [1001, 10]
        }
      },

      //  d88888b d8888b. d88888b d88888b      d8888b.  .d88b.  .d8888. d88888b
      //  88'     88  `8D 88'     88'          88  `8D .8P  Y8. 88'  YP 88'
      //  88ooo   88oobY' 88ooooo 88ooooo      88oodD' 88    88 `8bo.   88ooooo
      //  88~~~   88`8b   88~~~~~ 88~~~~~      88~~~   88    88   `Y8b. 88~~~~~
      //  88      88 `88. 88.     88.          88      `8b  d8' db   8D 88.
      //  YP      88   YD Y88888P Y88888P      88       `Y88P'  `8888Y' Y88888P

      "90051": {
        // 站立交谈01
        "cd": 1,
        "cdUpperRange": 4,
        "skillGroupCDID": 1,
        "skillType": "Free",
        "ignoreGCD": true,
        "name": "Chat01",
        "stateIDs": ["FreePose_StandingTalk_Skill"],
        "castCondition": {
          "pose": [9005]
        }
      },
      "90052": {
        // 站立交谈02
        "cd": 1,
        "cdUpperRange": 4,
        "skillGroupCDID": 1,
        "ignoreGCD": true,
        "skillType": "Free",
        "name": "Chat01",
        "stateIDs": ["FreePose_StandingTalk_Skill"],
        "castCondition": {
          "pose": [9005]
        }
      },
      "90053": {
        // 站立交谈03
        "cd": 1,
        "cdUpperRange": 4,
        "skillGroupCDID": 1,
        "ignoreGCD": true,
        "skillType": "Free",
        "name": "Chat01",
        "stateIDs": ["FreePose_StandingTalk_Skill"],
        "castCondition": {
          "pose": [9005]
        }
      },

      "95011": {
        // 盘坐交谈01
        "cd": 1,
        "cdUpperRange": 4.0,
        "skillGroupCDID": 1,
        "ignoreGCD": true,
        "skillType": "Free",
        "name": "Chat01",
        "stateIDs": ["FreePose_Crossleg_Chat_Skill"],
        "castCondition": {
          "pose": [9501, 9502]
        }
      },
      "95012": {
        // 盘坐交谈02
        "cd": 1,
        "cdUpperRange": 4.0,
        "skillGroupCDID": 1,
        "ignoreGCD": true,
        "skillType": "Free",
        "initialCD": 12,
        "name": "Chat02",
        "stateIDs": ["FreePose_Crossleg_Chat_Skill"],
        "castCondition": {
          "pose": [9501, 9502]
        }
      },
      "95031": {
        // 饮水
        "cd": 12,
        "cdUpperRange": 12.0,
        "skillGroupCDID": 1,
        "skillType": "Free",
        "initialCD": 6,
        "name": "Drink",
        "stateIDs": ["FreePose_Crossleg_Drink_Skill"],
        "castCondition": {
          "pose": [9502, 9503]
        }
      },
      "95041": {
        // 打瞌睡
        "cd": 3.5,
        "cdUpperRange": 8.0,
        "skillType": "Free",
        "initialCD": 2,
        "name": "Sleeping",
        "stateIDs": ["FreePose_Crossleg_Sleeping_Skill"],
        "castCondition": {
          "pose": [9504]
        }
      },

      "95111": {
        // 打牌 整套逻辑
        "cd": 0,
        "cdUpperRange": 2.0,
        "skillType": "Free",
        "initialCD": 6,
        "name": "Gambling",
        "stateIDs": [
          "FreePose_Crossleg_Gambling_Bet_Skill",
          "FreePose_Crossleg_Gambling_Roll",
          "FreePose_Crossleg_Gambling_Lose",
          "FreePose_Crossleg_Gambling_Win"
        ],
        "castCondition": {
          "pose": [9511]
        }
      }
    }
  },
  "inputKeys": [
    {
      // Slash
      "keyID": 201,
      "inputKeyCode": 258 // 1
    },
    {
      // Rush
      "keyID": 301,
      "inputKeyCode": 259 // 2
    }
  ],
  "audio": {
    "$type": "ConfigMonsterAudio",
    "animAudio": {
      "onTransitionOut": [
        {
          "currentStateName": "Crossleg_PlayDaff_Idle",
          "audioEvent": {
            "text": "Stop_sfx_monster_Eremite_freePose_playDaff_Loop"
          },
          "otherStateNames": ["Crossleg_PlayDaff_Idle"],
          "usage": "Except"
        },
        {
          "currentStateName": "Crossleg_Chat01_Skill",
          "audioEvent": {
            "text": "Stop_sfx_monster_Human_Male_Standard_Pole_crossleg_chat01"
          },
          "otherStateNames": [""],
          "usage": "Any"
        },
        {
          "currentStateName": "Crossleg_Chat02_Skill",
          "audioEvent": {
            "text": "Stop_sfx_monster_Human_Male_Standard_Pole_crossleg_chat02"
          },
          "otherStateNames": [""],
          "usage": "Any"
        },
        {
          "currentStateName": "Crossleg_Drink_Skill",
          "audioEvent": {
            "text": "Stop_sfx_monster_Human_Male_Standard_Pole_crossleg_drink"
          },
          "otherStateNames": [""],
          "usage": "Any"
        },
        {
          "currentStateName": "Crossleg_Gambling_Bet_Skill",
          "audioEvent": {
            "text": "Stop_sfx_monster_Human_Male_Standard_Pole_gambling_bet"
          },
          "otherStateNames": [""],
          "usage": "Any"
        },
        {
          "currentStateName": "Crossleg_Gambling_Roll",
          "audioEvent": {
            "text": "Stop_sfx_monster_Human_Male_Standard_Pole_gambling_roll"
          },
          "otherStateNames": [""],
          "usage": "Any"
        },
        {
          "currentStateName": "Crossleg_Gambling_Lose",
          "audioEvent": {
            "text": "Stop_sfx_monster_Human_Male_Standard_Pole_NoWeapon_gambling_lose"
          },
          "otherStateNames": [""],
          "usage": "Any"
        },
        {
          "currentStateName": "Crossleg_Gambling_Win",
          "audioEvent": {
            "text": "Stop_sfx_monster_Human_Male_Standard_Pole_NoWeapon_gambling_win"
          },
          "otherStateNames": [""],
          "usage": "Any"
        },
        {
          "currentStateName": "Crossleg_PlayOud_Loop",
          "audioEvent": {
            "text": "Stop_sfx_monster_Eremite_freePose_playDaff_Loop_oud"
          },
          "otherStateNames": ["Crossleg_PlayOud_Loop"],
          "usage": "Except"
        }
      ],
      "onTransitionIn": [
        {
          "currentStateName": "Crossleg_PlayDaff_Idle",
          "audioEvent": {
            "text": "Play_sfx_monster_Eremite_freePose_playDaff_Loop"
          },
          "otherStateNames": ["Crossleg_PlayDaff_Idle"],
          "usage": "Except"
        },
        {
          "currentStateName": "Crossleg_PlayOud_Loop",
          "audioEvent": {
            "text": "Play_sfx_monster_Eremite_freePose_playDaff_Loop_oud"
          },
          "otherStateNames": ["Crossleg_PlayOud_Loop"],
          "usage": "Except"
        }
      ]
    }
  }
}
