{
  "$type": "ConfigMonster",
  "common": {
    "mass": 80.0,
    "height": 0.6,
    "affectedByWorld": true,
    "checkInSurface": true,
    "scale": 1.0,
    "viewSize": 1.0,
    "effectAttachShape": {
      "$type": "ConfigEffectAttachSkinnedMesh",
      "mesh": "EffectMesh"
    },
    "clearAIOnSetLightDeactive": true,
    "reconnectSupport": true,
    "recoverByInitPose": true
  },
  "move": {
    "$type": "ConfigAnimatorMove",
    "facingMove": "FourDirection",
    "airFacingMove": "AirBlend3D",
    "monsterSizeType": "SlimeType",
    "moveOnWater": false
  },
  "dither": {
    "showDitherDuration": 2.0
  },
  "billboard": {
    "$type": "ConfigCombatBillboard",
    "offset": {
      "x": 0,
      "y": 0.5,
      "z": 0
    },
    "radiusOffset": 1.0,
    "enableSelfAdapt": true,
    "showHPBar": true,
    "size": "Normal"
  },
  "model": {
    "canBakeMesh": false
  },
  "combat": {
    "property": {
      "endureType": "Monster_Fungus_Battle",
      "weight": 75 //weightLevel = 3
    },
    "combatLock": {
      "denyLockOn": false,
      "lockType": "Avatar&Monster_Lv4"
    },
    "beHit": {
      "hitBloodEffect": "",
      "hitAutoRedirect": true,
      "muteAllHit": false,
      "muteAllHitEffect": false,
      "muteAllHitText": false
    },
    "die": {
      "hasAnimatorDie": true,
      "dieDisappearEffect": "Eff_Death_Common",
      "dieDisappearEffectDelay": 0.0,
      "dieEndTime": 0.5,
      "dieForceDisappearTime": 1.5,
      "dieModelFadeDelay": 0.0,
      "dieShaderData": "MonsterDie",
      "muteHitBox": true,
      "dieDenyLockOn": true,
      "dieIsGhostToEnemy": true,
      "dieIgnoreTriggerBullet": true,
      "muteBillboard": true,
      "mutePushCollider": true
    },
    // //
    // d88888b db    db d88888b d8b   db d888888b
    // 88'     88    88 88'     888o  88 `~~88~~'
    // 88ooooo Y8    8P 88ooooo 88V8o 88    88
    // 88~~~~~ `8b  d8' 88~~~~~ 88 V8o88    88
    // 88.      `8bd8'  88.     88  V888    88
    // Y88888P    YP    Y88888P VP   V8P    YP
    "animEvents": {}
  },
  "stateLayers": {
    "defaultLayer": {
      "$type": "ConfigNormalStateLayer",
      "stateIDs": {
        // //
        // db    db d8b   db d888888b db    db
        // 88    88 888o  88   `88'   88    88
        // 88    88 88V8o 88    88    Y8    8P
        // 88    88 88 V8o88    88    `8b  d8'
        // 88b  d88 88  V888   .88.    `8bd8'
        // ~Y8888P' VP   V8P Y888888P    YP
        "Born": {
          "$type": "ConfigMonsterStateIDInfo",
          "animatorStates": {
            "Born": []
          },
          "resetAnimatorTriggerOnExit": ["DoSkill"]
        },
        "NormalIdle": {
          "$type": "ConfigMonsterStateIDInfo",
          "animatorStates": {
            "StandbyFree": [],
            "Standby": []
          },
          "canDoSkill": true,
          "canSteer": true,
          "autoSteer": true,
          "canSyncMove": true,
          "resetAnimatorTriggerOnExit": ["DoSkill"]
          // "setAnimatorBoolean": [
          // 	// 用于延迟释放大招的方案：蕈兽会在进入这个状态后再进大招
          // 	{
          // 		"name": "InStandby"
          // 	}
          // ]
        },
        "NormalMove": {
          "$type": "ConfigMonsterStateIDInfo",
          "animatorStates": {
            "WalkForward": [],
            "WalkBack": [],
            "WalkLeft": [],
            "WalkRight": [],
            "Run_Decay": []
          },
          "canDoSkill": true,
          "canSteer": true,
          "canSyncMove": true,
          "resetAnimatorTriggerOnExit": ["DoSkill"]
        },
        "BeHit": {
          "$type": "ConfigMonsterStateIDInfo",
          "animatorStates": {
            "Hit_H": ["Audio_Monster_Fungus_Trois_HitThrow"]
          },
          "canSyncMove": true,
          "resetAnimatorTriggerOnEnter": ["BeHit"],
          "resetAnimatorTriggerOnExit": ["DoSkill"],
          "airMoveFollowAnimation": true
        },
        "BeHitThrowAir": {
          "$type": "ConfigMonsterStateIDInfo",
          "animatorStates": {
            "HitThrow": ["Audio_Monster_Fungus_Trois_HitThrow"],
            "HitThrowDrop": []
          },
          "resetAnimatorTriggerOnEnter": ["BeHit", "HitAir2HitDrop"],
          "resetAnimatorTriggerOnExit": ["DoSkill"],
          "setAnimatorBoolean": [
            {
              "name": "BurstUnavailable"
            }
          ]
        },
        "BeHitThrow": {
          "$type": "ConfigMonsterStateIDInfo",
          "animatorStates": {
            "HitThrowToGround": [
              "Monster_Fungus_Trois_Gamma_Fire_HitThrowToGround",
              "Audio_Monster_Fungus_Trois_HitThrowToGround"
            ]
          }
        },
        "Struggle": {
          "$type": "ConfigMonsterStateIDInfo",
          "animatorStates": {
            "Struggle": []
          },
          "canSyncMove": false,
          "resetAnimatorTriggerOnEnter": ["BeHit", "HitAir2HitDrop"],
          "resetAnimatorTriggerOnExit": ["DoSkill"],
          "setAnimatorBoolean": [
            {
              "name": "BurstUnavailable"
            }
          ]
        },
        "Die": {
          "$type": "ConfigMonsterStateIDInfo",
          "animatorStates": {
            "Die_BS": ["Audio_Monster_Fungus_Trois_Die"],
            "Die": ["Monster_Fungus_Trois_Die"],
            "AirDie": ["Monster_Fungus_Trois_Die"],
            "SwimDie_BS": [],
            "SwimDie": ["Monster_Fungus_Trois_Die"]
          }
        },
        "Warning": {
          "$type": "ConfigMonsterStateIDInfo",
          "animatorStates": {
            "Warning": ["Audio_Monster_Fungus_Trois_Warning"]
          },
          "canSyncMove": true,
          "canSteer": true,
          "resetAnimatorTriggerOnExit": ["BeHit", "DoSkill"]
        },
        "ReturnToBorn": {
          "$type": "ConfigMonsterStateIDInfo",
          "animatorStates": {
            "ReturnToBorn_BS": [
              "Monster_Fungus_Trois_ReturnToBorn_BS",
              "Audio_Monster_Fungus_Trois_ReturnToBorn_BS"
            ],
            "ReturnToBorn_Loop": [],
            "ReturnToBorn_AS": [
              "Monster_Fungus_Trois_ReturnToBorn_AS",
              "Audio_Monster_Fungus_Trois_ReturnToBorn_AS"
            ]
          },
          "cullingModelAlwaysAnimate": true,
          "resetAnimatorTriggerOnExit": ["BeHit", "DoSkill"]
        },
        ////
        //      d8888b.  .d8b.  d888888b d888888b db      d88888b
        //      88  `8D d8' `8b `~~88~~' `~~88~~' 88      88'
        //      88oooY' 88ooo88    88       88    88      88ooooo
        //      88~~~b. 88~~~88    88       88    88      88~~~~~
        //      88   8D 88   88    88       88    88booo. 88.
        //      Y8888P' YP   YP    YP       YP    Y88888P Y88888P
        "NormalAttack": {
          "$type": "ConfigMonsterStateIDInfo",
          "animatorStates": {
            "Explode_BS": ["Audio_Monster_Fungus_Trois_Fire_Explode_BS"],
            "Explode_Loop": ["Audio_Monster_Fungus_Trois_Fire_Explode_Loop"],
            "Explode_Attack": [
              "Monster_Fungus_Trois_BVB_Fire_Explode",
              "Audio_Monster_Fungus_Activity_Trois_Fire_Explode_Attack"
            ],
            "Explode_AS": []
          },
          "addEndure": 0.8,
          "resetAnimatorTriggerOnExit": ["BeHit", "DoSkill"]
        },
        "ElementalAttack": {
          "$type": "ConfigMonsterStateIDInfo",
          "animatorStates": {
            "FireDance": [
              "Monster_Fungus_Trois_BVB_Fire_FireRing",
              "Audio_Monster_Fungus_Activity_Trois_Fire_FireDance"
            ]
          },
          "addEndure": 0.5,
          "resetAnimatorTriggerOnExit": ["BeHit", "DoSkill"]
        },
        "UnionBurst": {
          "$type": "ConfigMonsterStateIDInfo",
          "animatorStates": {
            "FlameStorm_BS": ["Audio_Monster_Fungus_Trois_Fire_Explode_BS"],
            "FlameStorm_Loop": ["Audio_Monster_Fungus_Trois_Fire_Explode_Loop"],
            "FlameStorm_Attack": [
              "Monster_Fungus_Trois_BVB_Fire_FireStorm",
              "Audio_Monster_Fungus_Activity_Trois_Fire_Explode_Attack"
            ],
            "FlameStorm_AS": []
          },
          "addEndure": 0,
          "resetAnimatorTriggerOnExit": ["BeHit", "DoSkill"]
        }
      }
    }
  },
  "abilities": [
    { "abilityName": "Monster_Fungus_Trois_RotationVFX" },
    { "abilityName": "Fungus_Trois_BVB_Fire_Explode" }, // 普攻、小爆炸效果
    { "abilityName": "Fungus_Trois_BVB_Fire_FireRing" }, // 火环、元素技能
    { "abilityName": "Fungus_Trois_BVB_Fire_FlameStorm" }, // UB、火焰风暴
    { "abilityName": "Fungus_BVB_Un_Water_Bubble_Reject" } // 水泡抵抗效果
  ],
  "initialPoses": {
    "Default": {
      "initialPoseID": 0
    }
  },
  "aibeta": {
    "enable": true,
    "moveSetting": {
      "useNavMesh": true
    },
    "neurons": {
      "DefaultSetting": ["HIT"],
      "NeverCombat": []
    },
    "sensing": {
      "settings": {
        "DefaultSetting": {
          "viewRange": 22.0,
          "feelRange": 8.75
        },
        "NoSensing": {
          "enableVision": false,
          "feelRange": 0,
          "hearAttractionRange": 0
        }
      },
      "templates": {
        "DefaultTemplate": {
          "DefaultPoses": "DefaultSetting"
        },
        "NoSensing": {
          "DefaultPoses": "NoSensing"
        }
      }
    },
    "defendArea": {
      "defendRange": 50.0
    },
    "threat": {
      "clearThreatTargetDistance": 30.0,
      "clearThreatTimerByDistance": 2.0,
      "clearThreatEdgeDistance": 5.0,
      "viewAttenuation": [
        { "x": 12.0, "y": 1.0 },
        { "x": 20.0, "y": 0.5 }
      ]
    },
    "returnToBornTactic": {
      "enable": true,
      "defaultSetting": {
        "speedLevel": 2,
        "spacial": true
      }
    },
    "meleeChargeTactic": {
      "enable": true,
      "condition": {
        "pose": [1001]
      },
      "defaultSetting": {
        "speedLevel": 1,
        "speedLevelInner": 1,
        "innerDistance": 2,
        "stopDistance": 2.4,
        "startDistanceMin": 3,
        "startDistanceMax": 50
      }
    },
    "facingMoveTactic": {
      "enable": true,
      "condition": {
        "pose": [1001]
      },
      "defaultSetting": {
        "speedLevel": 1,
        "rangeMin": 1.5,
        "rangeMax": 5.0,
        "restTimeMin": 0.0,
        "restTimeMax": 1.5,
        "facingMoveWeight": {
          "stop": 2,
          "forward": 3,
          "back": 1,
          "left": 1.5,
          "right": 1.5
        }
      }
    },
    // //
    // .d8888. db   dD d888888b db      db
    // 88'  YP 88 ,8P'   `88'   88      88
    // `8bo.   88,8P      88    88      88
    //   `Y8b. 88`8b      88    88      88
    // db   8D 88 `88.   .88.   88booo. 88booo.
    // `8888Y' YP   YD Y888888P Y88888P Y88888P
    "skillGCD": 2,
    "skills": {
      "100": {
        "name": "OnAlert",
        "stateIDs": ["Warning"],
        "skillType": "OnAlert",
        "skillQueryingTime": 3,
        "triggerGCD": false,
        "faceTarget": true
      },
      "201": {
        "cd": 0,
        "cdUpperRange": 2.6,
        "priority": 4,
        "name": "NormalAttack",
        "stateIDs": ["NormalAttack"],
        "flagSelfInZone": "11",
        "flagTargetInZone": "11",
        "flagSelfOnTemplateCollider": "11",
        "castCondition": {
          "pickRangeMin": 0,
          "pickRangeMax": 2.25,
          "pose": [1001]
        }
      },
      "301": {
        "cd": 10,
        "cdUpperRange": 5.0,
        "priority": 3,
        "triggerGCD": false,
        "ignoreGCD": true,
        "initialCD": 4,
        "initialCDUpperRange": 3,
        "name": "ElementalAttack",
        "stateIDs": ["ElementalAttack"],
        "flagSelfInZone": "11",
        "flagTargetInZone": "11",
        "flagSelfOnTemplateCollider": "11",
        "castCondition": {
          "pose": [1001]
        }
      },
      "401": {
        "cd": 20,
        "cdUpperRange": 5,
        "initialCD": 5,
        "initialCDUpperRange": 7,
        "priority": 2,
        "name": "UnionBurst",
        "stateIDs": ["UnionBurst"],
        "flagSelfInZone": "11",
        "flagTargetInZone": "11",
        "castCondition": {
          "pickRangeMin": 0,
          "pickRangeMax": 8.0,
          "pose": [1001]
        }
      }
    }
  },
  "inputKeys": [
    {
      // 普攻
      "keyID": 201,
      "inputKeyCode": 257 // 1
    },
    {
      // 小技能
      "keyID": 301,
      "inputKeyCode": 258 // 2
    },
    {
      // 必杀
      "keyID": 401,
      "inputKeyCode": 259 // 3
    }
  ]
}
