{
  "$type": "ConfigMonster",
  "headControl": {
    "$type": "ConfigHeadControl",
    "useHeadControl": true,
    "maxYawDegree": 60,
    "maxPitchDegree": 30,
    "animStates": [
      "NormalIdle/Standby",
      "NormalMove/WalkForward",
      "NormalMove/WalkBack",
      "NormalMove/WalkRight",
      "NormalMove/WalkLeft",
      "NormalMove/Run",
      "Turn/TurnLeft",
      "Turn/TurnRight"
    ]
  },
  "common": {
    "effectAttachShape": {
      "$type": "ConfigEffectAttachSkinnedMesh",
      "mesh": "EffectMesh"
    },
    "mass": 30.0,
    "height": 1.5,
    "modelHeight": 1.65,
    "viewSize": 1.0,
    "scale": 1.0,
    "useGrassDisplacement": true,
    "affectedByWorld": true,
    "checkInSurface": true,
    "clearAnimatorOnSetLightDeactive": true,
    "clearAIOnSetLightDeactive": true
  },
  "move": {
    "$type": "ConfigAnimatorMove",
    "facingMove": "FourDirection",
    "monsterSizeType": "StoopType"
  },
  "model": {
    "bornEffect": "Eff_Monster_Common_Born"
  },
  "dither": {
    "showDitherDuration": 1.0
  },
  "equipController": {
    "attachPoints": {
      "equip01": "WeaponR",
      "equip02": "WeaponL"
    },
    "sheathPoint": ""
  },
  "billboard": {
    "$type": "ConfigCombatBillboard",
    "offsetType": "Character",
    "offset": {
      "x": -0.05,
      "y": 0,
      "z": 0
    },
    "showHPBar": true,
    "radiusOffset": 0.25,
    "size": "Normal"
  },
  "combat": {
    "property": {
      "weight": 70, //weightLevel = 2
      "endureType": "Monster_Minion",
      "endureShake": 0
    },
    "combatLock": {
      "denyLockOn": false,
      "lockType": "Avatar&Monster_Lv4"
    },
    "beHit": {
      "hitBloodEffect": "",
      "muteAllHit": false,
      "muteAllHitEffect": false,
      "muteAllHitText": false
    },
    "die": {
      "hasAnimatorDie": true,
      "dieDisappearEffect": "Eff_Death_Sand_Eremite",
      "dieShaderData": "EremiteSandDie",
      "dieShaderEnableDurationTime": 1.0,
      "dieEndTime": 2.0,
      "dieForceDisappearTime": 8.0,
      "useRagDoll": true,
      "ragDollDieEndTimeDelay": 8.0,
      "muteHitBox": true,
      "dieDenyLockOn": true,
      "dieIsGhostToEnemy": true,
      "dieIgnoreTriggerBullet": true,
      "muteBillboard": true,
      "mutePushCollider": true
    },

    // d88888b db    db d88888b d8b   db d888888b .d8888.
    // 88'     88    88 88'     888o  88 `~~88~~' 88'  YP
    // 88ooooo Y8    8P 88ooooo 88V8o 88    88    `8bo.
    // 88~~~~~ `8b  d8' 88~~~~~ 88 V8o88    88      `Y8b.
    // 88.      `8bd8'  88.     88  V888    88    db   8D
    // Y88888P    YP    Y88888P VP   V8P    YP    `8888Y'
    "animEvents": {
      "AE_Slash01": {
        "attackPattern": {
          "$type": "ConfigAttackCircle",
          "triggerType": "TriggerNoRepeat",
          "height": 2.1,
          "fanAngle": 310,
          "radius": 1.5,
          "born": {
            "$type": "ConfigBornBySelf",
            "offset": {
              "x": 0.0,
              "y": 0.0,
              "z": 0.1
            }
          }
        },
        "attackInfo": {
          "attackProperty": {
            "damagePercentage": 1,
            "strikeType": "Slash",
            "enBreak": 200
          },
          "hitPattern": {
            "hitImpulseType": "LV3"
          }
        }
      },
      "AE_Slash02": {
        "attackPattern": {
          "$type": "ConfigAttackCircle",
          "triggerType": "TriggerNoRepeat",
          "height": 2.1,
          "fanAngle": 310,
          "radius": 1.6,
          "born": {
            "$type": "ConfigBornBySelf",
            "offset": {
              "x": 0.0,
              "y": 0.0,
              "z": 0.8
            }
          }
        },
        "attackInfo": {
          "attackProperty": {
            "damagePercentage": 1,
            "strikeType": "Slash",
            "enBreak": 200
          },
          "hitPattern": {
            "hitImpulseType": "LV3"
          }
        }
      }
    }
  },
  "stateLayers": {
    "defaultLayer": {
      "$type": "ConfigNormalStateLayer",
      "stateIDs": {
        // db    db d8b   db d888888b db    db
        // 88    88 888o  88   `88'   88    88
        // 88    88 88V8o 88    88    Y8    8P
        // 88    88 88 V8o88    88    `8b  d8'
        // 88b  d88 88  V888   .88.    `8bd8'
        // ~Y8888P' VP   V8P Y888888P    YP
        "NormalIdle": {
          "$type": "ConfigMonsterStateIDInfo",
          "animatorStates": {
            "Standby": []
          },
          "canDoSkill": true,
          "canSyncMove": true,
          "resetAnimatorTriggerOnExit": ["DoSkill"]
        },
        "NormalBorn": {
          "$type": "ConfigMonsterStateIDInfo",
          "animatorStates": {
            "Born": []
          },
          "canDoSkill": true,
          "resetAnimatorTriggerOnExit": ["DoSkill"]
        },
        "NormalMove": {
          "$type": "ConfigMonsterStateIDInfo",
          "animatorStates": {
            "WalkForward": [
              "Audio_Monster_Eremite_Female_Hatchet_01_walk_footstep_left"
            ],
            "WalkBack": [
              "Audio_Monster_Eremite_Female_Hatchet_01_walk_footstep_left"
            ],
            "WalkRight": [
              "Audio_Monster_Eremite_Female_Hatchet_01_walk_footstep_left"
            ],
            "WalkLeft": [
              "Audio_Monster_Eremite_Female_Hatchet_01_walk_footstep_left"
            ],
            "Run": ["Audio_Monster_Eremite_Female_Hatchet_01_run_footstep"]
          },
          "canDoSkill": true,
          "canSteer": true,
          "canSyncMove": true,
          "resetAnimatorTriggerOnExit": ["DoSkill"]
        },
        "Turn": {
          "$type": "ConfigMonsterStateIDInfo",
          "animatorStates": {
            "TurnLeft": [
              "Audio_Monster_Eremite_Female_Hatchet_01_walk_footstep_left"
            ],
            "TurnRight": [
              "Audio_Monster_Eremite_Female_Hatchet_01_walk_footstep_left"
            ]
          },
          "canDoSkill": true,
          "canSteer": true,
          "autoSteer": false,
          "canSyncMove": true,
          "resetAnimatorTriggerOnExit": ["DoSkill"]
        },
        "BeHit": {
          "$type": "ConfigMonsterStateIDInfo",
          "animatorStates": {
            "Hit_L": [],
            "Hit_H": ["Audio_Monster_Eremite_Female_Hatchet_01_hit_H"]
          },
          "resetAnimatorTriggerOnEnter": ["BeHit"],
          "resetAnimatorTriggerOnExit": ["DoSkill"]
        },
        "BeHitThrow": {
          "$type": "ConfigMonsterStateIDInfo",
          "animatorStates": {
            "HitThrow": [],
            "HitThrowDrop": []
          },
          "resetAnimatorTriggerOnEnter": ["BeHit", "HitAir2HitDrop"],
          "resetAnimatorTriggerOnExit": ["DoSkill", "BeHit"],
          "setAnimatorBoolean": [
            {
              "$type": "ConfigAnimatorBoolean",
              "name": "AirDie"
            }
          ]
        },
        "BeHitThrowToStandby": {
          "$type": "ConfigMonsterStateIDInfo",
          "animatorStates": {
            "HitThrowToGround": [
              "Audio_Monster_Eremite_Female_Hatchet_01_HitThrowtoGround"
            ]
          },
          "resetAnimatorTriggerOnEnter": ["BeHit", "HitAir2HitDrop"],
          "resetAnimatorTriggerOnExit": ["DoSkill", "BeHit"],
          "setAnimatorBoolean": [
            {
              "$type": "ConfigAnimatorBoolean",
              "name": "AirDie",
              "normalizeEnd": 0.4
            }
          ]
        },
        "Struggle": {
          "$type": "ConfigMonsterStateIDInfo",
          "animatorStates": {
            "Struggle": []
          },
          "resetAnimatorTriggerOnEnter": ["BeHit", "HitAir2HitDrop"],
          "resetAnimatorTriggerOnExit": ["DoSkill"]
        },
        // d8888b. d888888b d88888b
        // 88  `8D   `88'   88'
        // 88   88    88    88ooooo
        // 88   88    88    88~~~~~
        // 88  .8D   .88.   88.
        // Y8888D' Y888888P Y88888P
        "Die": {
          "$type": "ConfigMonsterStateIDInfo",
          "animatorStates": {
            "Die1": [
              "Monster_Eremite_Hatchet_Die",
              "Audio_Monster_Eremite_Female_Hatchet_01_die"
            ],
            "Die2": [
              "Monster_Eremite_Hatchet_Die",
              "Audio_Monster_Eremite_Female_Hatchet_01_die"
            ],
            "SwimDie_BS": [],
            "SwimDie": ["Monster_Eremite_SwimDie"],
            "SwimDie_AS": []
          }
        },
        "Die_RagDoll": {
          "$type": "ConfigMonsterStateIDInfo",
          "animatorStates": {
            "AirDie": ["Monster_Eremite_AirDie"]
          },
          "enableRagDoll": true
        },

        // d8888b.  .d8b.  d888888b d888888b db      d88888b
        // 88  `8D d8' `8b `~~88~~' `~~88~~' 88      88'
        // 88oooY' 88ooo88    88       88    88      88ooooo
        // 88~~~b. 88~~~88    88       88    88      88~~~~~
        // 88   8D 88   88    88       88    88booo. 88.
        // Y8888P' YP   YP    YP       YP    Y88888P Y88888P
        "Alert": {
          "$type": "ConfigMonsterStateIDInfo",
          "animatorStates": {
            "Alert": [
              "Monster_Eremite_Hatchet_ShowWeapon",
              "Monster_Eremite_Clear_FreePoseMark",
              "Audio_Monster_Eremite_Female_Hatchet_01_alert"
            ]
          },
          "addEndure": 0,
          "resetAnimatorTriggerOnExit": ["BeHit", "DoSkill"]
        },
        "Crossleg_Alert": {
          "$type": "ConfigMonsterStateIDInfo",
          "animatorStates": {
            "CrosslegAlert": [
              "Monster_Eremite_Clear_FreePoseMark",
              "Monster_Eremite_Hatchet_ShowWeapon_SpecialAlert",
              "Audio_Monster_Eremite_Female_Hatchet_01_crosslegAlert"
            ]
          },
          "addEndure": 0,
          "resetAnimatorTriggerOnExit": ["BeHit", "DoSkill"]
        },
        "SheathWeapon": {
          "$type": "ConfigMonsterStateIDInfo",
          "animatorStates": {
            "SheathWeapon": [
              "Monster_Eremite_Hatchet_SheathWeapon",
              "Audio_Monster_Eremite_Female_Hatchet_01_sheathWeapon"
            ]
          },
          "canDoSkill": false,
          "resetAnimatorTriggerOnExit": ["BeHit", "DoSkill"]
        },
        // .d8888. db       .d8b.  .d8888. db   db         db
        // 88'  YP 88      d8' `8b 88'  YP 88   88        o88
        // `8bo.   88      88ooo88 `8bo.   88ooo88         88
        //   `Y8b. 88      88~~~88   `Y8b. 88~~~88 C8888D  88
        // db   8D 88booo. 88   88 db   8D 88   88         88
        // `8888Y' Y88888P YP   YP `8888Y' YP   YP         VP
        "Slash01_AB": {
          "$type": "ConfigMonsterStateIDInfo",
          "animatorStates": {
            "Slash01_BS": [
              "Monster_Eremite_Hatchet_Slash01_BS",
              "Audio_Monster_Eremite_Female_Hatchet_slash01_BS"
            ],
            "Slash01_AS": ["Audio_Monster_Eremite_Female_Hatchet_slash01_AS"]
          },
          "resetAnimatorTriggerOnExit": ["BeHit", "DoSkill"]
        },
        "Slash01": {
          "$type": "ConfigMonsterStateIDInfo",
          "animatorStates": {
            "Slash01": [
              "Monster_Eremite_Hatchet_Slash01",
              "Audio_Monster_Eremite_Female_Hatchet_01_slash01"
            ]
          },
          "resetAnimatorTriggerOnExit": ["BeHit", "DoSkill"]
        },

        // .d8888. db       .d8b.  .d8888. db   db        .d888b.
        // 88'  YP 88      d8' `8b 88'  YP 88   88        VP  `8D
        // `8bo.   88      88ooo88 `8bo.   88ooo88           odD'
        //   `Y8b. 88      88~~~88   `Y8b. 88~~~88 C8888D  .88'
        // db   8D 88booo. 88   88 db   8D 88   88        j88.
        // `8888Y' Y88888P YP   YP `8888Y' YP   YP        888888D
        "Slash02_AB": {
          "$type": "ConfigMonsterStateIDInfo",
          "animatorStates": {
            "Slash02_BS": [
              "Audio_Monster_Eremite_Female_Hatchet_01_slash02_BS"
            ],
            "Slash02_AS": ["Audio_Monster_Eremite_Female_Hatchet_01_slash02_AS"]
          },
          "resetAnimatorTriggerOnExit": ["BeHit", "DoSkill"]
        },
        "Slash02": {
          "$type": "ConfigMonsterStateIDInfo",
          "animatorStates": {
            "Slash02": [
              "Monster_Eremite_Hatchet_Slash02",
              "Audio_Monster_Eremite_Female_Hatchet_01_slash02"
            ]
          },
          "resetAnimatorTriggerOnExit": ["BeHit", "DoSkill"]
        },

        // .d8888.  .d8b.  d8b   db d8888b. d888888b db   db d8888b.  .d88b.  db   d8b   db
        // 88'  YP d8' `8b 888o  88 88  `8D `~~88~~' 88   88 88  `8D .8P  Y8. 88   I8I   88
        // `8bo.   88ooo88 88V8o 88 88   88    88    88ooo88 88oobY' 88    88 88   I8I   88
        //   `Y8b. 88~~~88 88 V8o88 88   88    88    88~~~88 88`8b   88    88 Y8   I8I   88
        // db   8D 88   88 88  V888 88  .8D    88    88   88 88 `88. `8b  d8' `8b d8'8b d8'
        // `8888Y' YP   YP VP   V8P Y8888D'    YP    YP   YP 88   YD  `Y88P'   `8b8' `8d8'
        "ThrowSand_BS": {
          "$type": "ConfigMonsterStateIDInfo",
          "animatorStates": {
            "ThrowSand_BS": [
              "Monster_Eremite_Hatchet_ThrowSand_BS",
              "Audio_Monster_Eremite_Female_Hatchet_01_throwsand_BS"
            ]
          },
          "resetAnimatorTriggerOnExit": ["BeHit", "DoSkill"]
        },
        "ThrowSand": {
          "$type": "ConfigMonsterStateIDInfo",
          "animatorStates": {
            "ThrowSand": [
              "Monster_Eremite_Hatchet_ThrowSand",
              "Audio_Monster_Eremite_Female_Hatchet_01_throwsand"
            ]
          },
          "resetAnimatorTriggerOnExit": ["BeHit", "DoSkill"]
        },

        // d88888b d8888b. d88888b d88888b      d8888b.  .d88b.  .d8888. d88888b
        // 88'     88  `8D 88'     88'          88  `8D .8P  Y8. 88'  YP 88'
        // 88ooo   88oobY' 88ooooo 88ooooo      88oodD' 88    88 `8bo.   88ooooo
        // 88~~~   88`8b   88~~~~~ 88~~~~~      88~~~   88    88   `Y8b. 88~~~~~
        // 88      88 `88. 88.     88.          88      `8b  d8' db   8D 88.
        // YP      88   YD Y88888P Y88888P      88       `Y88P'  `8888Y' Y88888P
        "FreePose_Feeding_Idle": {
          "$type": "ConfigMonsterStateIDInfo",
          "animatorStates": {
            "Feeding_Idle": []
          },
          "canDoSkill": true,
          "resetAnimatorTriggerOnExit": ["BeHit", "DoSkill"]
        },
        "Sneak_Idle": {
          "$type": "ConfigMonsterStateIDInfo",
          "animatorStates": {
            "Sneak_Idle": []
          },
          "canDoSkill": true,
          "resetAnimatorTriggerOnExit": ["BeHit", "DoSkill"]
        },
        "FreePose_Feeding_Skill": {
          "$type": "ConfigMonsterStateIDInfo",
          "animatorStates": {
            "Feeding_Skill": [
              "Monster_Eremite_Hatchet_Feeding",
              "Audio_Monster_Eremite_Female_Hatchet_01_feeding_skill"
            ]
          },
          "canDoSkill": true,
          "resetAnimatorTriggerOnExit": ["BeHit", "DoSkill"]
        },
        "FreePose_StandingTalk_Idle": {
          "$type": "ConfigMonsterStateIDInfo",
          "animatorStates": {
            "StandingTalk_Idle": []
          },
          "canDoSkill": true,
          "resetAnimatorTriggerOnExit": ["BeHit", "DoSkill"]
        },
        "FreePose_StandingTalk_Skill": {
          "$type": "ConfigMonsterStateIDInfo",
          "animatorStates": {
            "StandingTalk01_Skill": [],
            "StandingTalk02_Skill": [],
            "StandingTalk03_Skill": []
          },
          "canDoSkill": true,
          "resetAnimatorTriggerOnExit": ["BeHit", "DoSkill"]
        },
        "FreePose_Akimbo_Idle": {
          "$type": "ConfigMonsterStateIDInfo",
          "animatorStates": {
            "Akimbo_Idle": []
          },
          "canDoSkill": true,
          "resetAnimatorTriggerOnExit": ["BeHit", "DoSkill"]
        },
        "FreePose_HoldArm_Idle": {
          "$type": "ConfigMonsterStateIDInfo",
          "animatorStates": {
            "HoldArm_Idle": []
          },
          "canDoSkill": true,
          "resetAnimatorTriggerOnExit": ["BeHit", "DoSkill"]
        },
        "FreePose_CrossLeg_PlayOud_Idle": {
          "$type": "ConfigMonsterStateIDInfo",
          "animatorStates": {
            "CrossLeg_PlayOud_Idle": []
          },
          "canDoSkill": true,
          "resetAnimatorTriggerOnExit": ["BeHit", "DoSkill"]
        }
      }
    }
  },

  //   .d8b.  d8888b. d888888b db      d888888b d888888b db    db
  //  d8' `8b 88  `8D   `88'   88        `88'   `~~88~~' `8b  d8'
  //  88ooo88 88oooY'    88    88         88       88     `8bd8'
  //  88~~~88 88~~~b.    88    88         88       88       88
  //  88   88 88   8D   .88.   88booo.   .88.      88       88
  //  YP   YP Y8888P' Y888888P Y88888P Y888888P    YP       YP
  "abilities": [
    {
      "abilityName": "Eremite_TurnState_AnimatorSteer" // Turn 角度调整
    },
    {
      "abilityName": "Eremite_ReturnToBorn" // 脱战收刀
    },
    {
      "abilityName": "Eremite_Hatchet_Slash_Dist_Calc" // 追击距离计算
    },
    {
      "abilityName": "Eremite_Hatchet_AnimatorSteer" // 攻击旋转
    },
    {
      "abilityName": "Eremite_Hatchet_ThrowSand" //抛沙攻击
    },
    {
      "abilityName": "Eremite_Equip_Display_Manager" // 拔出武器与表现管理
    },
    {
      "abilityName": "Eremite_Equip_SheathWeapon" // 收起武器
    },
    {
      "abilityName": "Eremite_Universal_Alert" // 镀金初级怪通用入战Pose处理
    },
    {
      "abilityName": "Eremite_FreePose_Female_Display_Manager" // 成女战前表现
    }
  ],
  "initialPoses": {
    "Default": {
      "initialPoseID": 0
    },
    // 9001 ~ 9500  盘腿坐状态下的Pose 入战进特殊坐姿入战Alert动作
    // 	- 9001: 撒草喂食
    //  - 9002: 叉腰
    //	- 9003: 抱胸
    //  - 9004: 站立交谈
    "Feeding": {
      "initialPoseID": 9001,
      "initialPoseParams": {
        "intParams": {
          "FreePoseMark": "9001"
        }
      }
    },
    "Akimbo": {
      "initialPoseID": 9002,
      "initialPoseParams": {
        "intParams": {
          "FreePoseMark": "9002"
        }
      }
    },
    "HoldArm": {
      "initialPoseID": 9003,
      "initialPoseParams": {
        "intParams": {
          "FreePoseMark": "9003"
        }
      }
    },
    "StandingTalk": {
      "initialPoseID": 9004,
      "initialPoseParams": {
        "intParams": {
          "FreePoseMark": "9004"
        }
      }
    },

    // 9501 ~ 9999  站姿及其他直接 入战进常规Alert
    // 9505: 演奏乌德琴
    "CrossLeg_PlayOud": {
      "initialPoseID": 9505,
      "initialPoseParams": {
        "intParams": {
          "FreePoseMark": "9505"
        }
      }
    },
    //3.1阿里巴巴哨兵pose
    "Sentry": {
      "initialPoseID": 9901,
      "initialPoseParams": {
        "intParams": {
          "FreePoseMark": "9901"
        }
      }
    }
  },
  "aibeta": {
    "enable": true,
    "moveSetting": {
      "almostReachedDistanceRun": 1.5
    },
    "neurons": {
      "DefaultSetting": ["HIT"],
      "NeverCombat": []
    },
    "sensing": {
      "settings": {
        "DefaultSetting": {
          "viewRange": 30.0,
          "feelRange": 8.0
        },
        "HighAlert": {
          "viewRange": 40.0,
          "feelRange": 10.0
        },
        "LowAlert": {
          "viewRange": 15.0,
          "feelRange": 6.0
        },
        "NeverCombat": {
          "enableVision": false,
          "feelRange": 0.0,
          "hearAttractionRange": 0.0
        }
      },
      "templates": {
        "DefaultTemplate": {
          "DefaultPoses": "DefaultSetting",
          "9901": "LowAlert"
        },
        "HighAlert": {
          "DefaultPoses": "HighAlert"
        },
        "LowAlert": {
          "DefaultPoses": "LowAlert"
        },
        "NeverCombat": {
          "DefaultPoses": "NeverCombat"
        }
      }
    },
    "defendArea": {
      "enable": true
    },
    "threat": {
      "viewThreatGrow": 30,
      "feelThreatGrow": 60,
      "threatDecreaseSpeed": 100,
      "clearThreatTimerByDistance": 3.0,
      "clearThreatByLostPath": true,
      "clearThreatTimerByLostPath": 16,
      "viewAttenuation": [
        { "x": 10.0, "y": 2.0 },
        { "x": 15.0, "y": 0.8 },
        { "x": 20.0, "y": 0.5 },
        { "x": 25.0, "y": 0.3 },
        { "x": 30.0, "y": 0.2 }
      ]
    },
    "skillGroupCDConfigs": [],

    //  d888888b  .d8b.   .o88b. d888888b d888888b  .o88b.
    //  `~~88~~' d8' `8b d8P  Y8 `~~88~~'   `88'   d8P  Y8
    //     88    88ooo88 8P         88       88    8P
    //     88    88~~~88 8b         88       88    8b
    //     88    88   88 Y8b  d8    88      .88.   Y8b  d8
    //     YP    YP   YP  `Y88P'    YP    Y888888P  `Y88P'
    "returnToBornTactic": {
      "enable": true,
      "defaultSetting": {
        "speedLevel": 2
      }
    },
    "wanderTactic": {
      "enable": true,
      "condition": {
        "pose": [1, 9901]
      },
      "defaultSetting": {
        "speedLevel": 1,
        "cdMin": 1.5,
        "cdMax": 3.0,
        "distanceFromBorn": 15.0,
        "distanceFromCurrentMin": 3.75,
        "distanceFromCurrentMax": 7.5
      }
    },
    "investigateTactic": {
      "enable": true,
      "condition": {
        "pose": [1]
      }
    },
    "facingMoveTactic": {
      "enable": true,
      "condition": {
        "pose": [1001]
      },
      "defaultSetting": {
        "rangeMin": 1.1,
        "rangeMax": 2.9,
        "facingMoveWeight": {
          "stop": 1.4,
          "forward": 1.2,
          "back": 0.8,
          "left": 3,
          "right": 3
        }
      }
    },
    "meleeChargeTactic": {
      "enable": true,
      "condition": {
        "pose": [1001]
      },
      "defaultSetting": {
        "speedLevel": 2,
        "speedLevelInner": 1,
        "innerDistance": 4,
        "stopDistance": 5,
        "startDistanceMin": 6.6,
        "startDistanceMax": 50
      }
    },
    // .d8888. db   dD d888888b db      db
    // 88'  YP 88 ,8P'   `88'   88      88
    // `8bo.   88,8P      88    88      88
    //   `Y8b. 88`8b      88    88      88
    // db   8D 88 `88.   .88.   88booo. 88booo.
    // `8888Y' YP   YD Y888888P Y88888P Y88888P
    "skillGCD": 3.0,
    "skills": {
      "101": {
        "name": "OnAlert",
        "stateIDs": ["Alert"],
        "skillType": "OnAlert",
        "skillQueryingTime": 3,
        "triggerGCD": true,
        "ignoreGCD": true,
        "castCondition": {
          "pose": [1, 9001, 9002, 9003, 9004]
        }
      },
      "102": {
        "name": "OnAlert_Combat",
        "stateIDs": ["Alert"],
        "skillType": "Combat",
        "skillQueryingTime": 3,
        "priority": 1,
        "triggerGCD": true,
        "ignoreGCD": true,
        "castCondition": {
          "pose": [1, 9001, 9002, 9003, 9004, 10]
        }
      },
      "111": {
        "name": "OnAlert_Crossleg",
        "stateIDs": ["Crossleg_Alert"],
        "skillType": "OnAlert",
        "skillQueryingTime": 3,
        "triggerGCD": true,
        "ignoreGCD": true,
        "castCondition": {
          "pose": [9505, 9555]
        }
      },
      "112": {
        "name": "OnAlert_Crossleg_Combat",
        "stateIDs": ["Crossleg_Alert"],
        "skillType": "Combat",
        "skillQueryingTime": 3,
        "triggerGCD": true,
        "ignoreGCD": true,
        "castCondition": {
          "pose": [9505, 9555]
        }
      },

      // -----------------------------

      "201": {
        "cd": 4,
        "cdUpperRange": 2.0,
        "priority": 2,
        "name": "Slash",
        "stateIDs": ["Slash01_AB", "Slash01", "Slash02_AB", "Slash02"],
        "combatSkillType": "MeleeAttack",
        "flagSelfInZone": "11",
        "flagTargetInZone": "11",
        "flagSelfOnTemplateCollider": "11",
        "castCondition": {
          "pickRangeMin": 1.5,
          "pickRangeMax": 4.0,
          "pose": [1001, 10]
        }
      },
      "301": {
        "cd": 15,
        "cdUpperRange": 5.0,
        "priority": 6,
        "name": "ThrowSand",
        "stateIDs": ["ThrowSand_BS", "ThrowSand"],
        "flagSelfInZone": "11",
        "flagTargetInZone": "11",
        "flagSelfOnTemplateCollider": "11",
        "castCondition": {
          "pickRangeMin": 0.0,
          "pickRangeMax": 3.0,
          "pose": [1001, 10]
        }
      },

      // d88888b d8888b. d88888b d88888b    d8888b.  .d88b.  .d8888. d88888b
      // 88'     88  `8D 88'     88'        88  `8D .8P  Y8. 88'  YP 88'
      // 88ooo   88oobY' 88ooooo 88ooooo    88oodD' 88    88 `8bo.   88ooooo
      // 88~~~   88`8b   88~~~~~ 88~~~~~    88~~~   88    88   `Y8b. 88~~~~~
      // 88      88 `88. 88.     88.        88      `8b  d8' db   8D 88.
      // YP      88   YD Y88888P Y88888P    88       `Y88P'  `8888Y' Y88888P
      "90011": {
        "cd": 6,
        "cdUpperRange": 6.0,
        "skillType": "Free",
        "ignoreGCD": true,
        "name": "Feeding",
        "stateIDs": ["FreePose_Feeding_Skill"],
        "castCondition": {
          "pose": [9001]
        }
      },

      "90041": {
        // 站立交谈01
        "cd": 1,
        "cdUpperRange": 2,
        "skillType": "Free",
        "ignoreGCD": true,
        "name": "Chat01",
        "stateIDs": ["FreePose_StandingTalk_Skill"],
        "castCondition": {
          "pose": [9004]
        }
      },
      "90042": {
        // 站立交谈02
        "cd": 1,
        "cdUpperRange": 2,
        "ignoreGCD": true,
        "skillType": "Free",
        "name": "Chat01",
        "stateIDs": ["FreePose_StandingTalk_Skill"],
        "castCondition": {
          "pose": [9004]
        }
      },
      "90043": {
        // 站立交谈03
        "cd": 1,
        "cdUpperRange": 2,
        "ignoreGCD": true,
        "skillType": "Free",
        "name": "Chat01",
        "stateIDs": ["FreePose_StandingTalk_Skill"],
        "castCondition": {
          "pose": [9004]
        }
      }
    }
  },
  "inputKeys": [
    {
      // Slash
      "keyID": 201,
      "inputKeyCode": 258 // 1
    },
    {
      // ThrowSand
      "keyID": 301,
      "inputKeyCode": 259 // 2
    }
  ],
  "audio": {
    "$type": "ConfigMonsterAudio",
    "animAudio": {
      "onTransitionOut": [
        {
          "currentStateName": "Crossleg_PlayOud_Loop",
          "audioEvent": {
            "text": "Stop_sfx_monster_Eremite_freePose_playDaff_Loop_oud"
          },
          "otherStateNames": ["Crossleg_PlayOud_Loop"],
          "usage": "Except"
        }
      ],
      "onTransitionIn": [
        {
          "currentStateName": "Crossleg_PlayOud_Loop",
          "audioEvent": {
            "text": "Play_sfx_monster_Eremite_freePose_playDaff_Loop_oud"
          },
          "otherStateNames": ["Crossleg_PlayOud_Loop"],
          "usage": "Except"
        }
      ]
    }
  }
}
